# args=-index 3L_genomic_dmel_RELEASE3-1.FASTA.gz -seed 76 -minlenltr 116 -maxlenltr 800 -mindistltr 2280 -maxdistltr 8773 -similar 91 -mintsd 4 -maxtsd 20 -vic 60 -overlaps best -xdrop 7 -mat 2 -mis -2 -ins -3 -del -3 -v -gff3 chr3L.gff3
# user defined options and values:
#   verbosemode: On
#   indexname: 3L_genomic_dmel_RELEASE3-1.FASTA.gz
#   outputfile gff3 format: chr3L.gff3
#   xdropbelowscore: 7
#   similaritythreshold: 91.00
#   minseedlength: 76
#   matchscore: 2
#   mismatchscore: -2
#   insertionscore: -3
#   deletionscore: -3
#   minLTRlength: 116
#   maxLTRlength: 800
#   minLTRdistance: 2280
#   maxLTRdistance: 8773
#   overlaps: best
#   minTSDlength: 4
#   maxTSDlength: 20
#   palindromic motif: 
#   motifmismatchesallowed: 4
#   vicinity: 60 nt
# predictions are reported in the following way
# s(ret) e(ret) l(ret) s(lLTR) e(lLTR) l(lLTR) s(rLTR) e(rLTR) l(rLTR) sim(LTRs) seq-nr 
# where:
# s = starting position
# e = ending position
# l = length
# ret = LTR-retrotransposon
# lLTR = left LTR
# rLTR = right LTR
# sim = similarity
# seq-nr = sequence number
90897  100006  9110  90897  91325  429  99575  100006  432  99.31  0
383370  390364  6995  383370  383783  414  389951  390364  414  100.00  0
838667  847104  8438  838667  839100  434  846674  847104  431  97.93  0
905860  913228  7369  905860  906301  442  912784  913228  445  99.33  0
1028036  1035790  7755  1028036  1028642  607  1035184  1035790  607  100.00  0
1134814  1143906  9093  1134814  1135242  429  1143476  1143906  431  99.54  0
1200267  1207948  7682  1200267  1200845  579  1207381  1207948  568  97.93  0
1466891  1471643  4753  1466891  1467500  610  1471035  1471643  609  93.44  0
1486683  1494222  7540  1486683  1487194  512  1493711  1494222  512  100.00  0
2044108  2050436  6329  2044108  2044897  790  2049645  2050436  792  93.69  0
2088935  2094080  5146  2088935  2089210  276  2093805  2094080  276  100.00  0
2428191  2437301  9111  2428191  2428626  436  2436859  2437301  443  97.29  0
2908516  2916753  8238  2908516  2908943  428  2916318  2916753  436  97.94  0
2947369  2954764  7396  2947369  2947849  481  2954298  2954764  467  94.39  0
3041967  3050496  8530  3041967  3042389  423  3050076  3050496  421  99.29  0
3581982  3587235  5254  3581982  3582258  277  3586959  3587235  277  100.00  0
4309413  4316852  7440  4309413  4309893  481  4316372  4316852  481  99.79  0
4879124  4885255  6132  4879124  4879368  245  4885011  4885255  245  100.00  0
5012154  5021248  9095  5012154  5012582  429  5020816  5021248  433  99.08  0
5258515  5265893  7379  5258515  5259173  659  5265235  5265893  659  100.00  0
5417424  5425968  8545  5417424  5417748  325  5425647  5425968  322  99.08  0
6089865  6094576  4712  6089865  6090292  428  6094141  6094576  436  97.25  0
6107334  6110622  3289  6107334  6107765  432  6110196  6110622  427  94.44  0
6180500  6189594  9095  6180500  6180933  434  6189165  6189594  430  97.93  0
6365245  6374713  9469  6365245  6366040  796  6373914  6374713  800  98.88  0
6847103  6854537  7435  6847103  6847538  436  6854108  6854537  430  97.94  0
7336900  7339947  3048  7336900  7337313  414  7339534  7339947  414  100.00  0
7629138  7632901  3764  7629138  7629937  800  7632102  7632901  800  98.75  0
7753296  7760290  6995  7753296  7753709  414  7759877  7760290  414  100.00  0
7876414  7885527  9114  7876414  7876842  429  7885097  7885527  431  99.54  0
8440537  8449638  9102  8440537  8440965  429  8449202  8449638  437  98.17  0
8457062  8464471  7410  8457062  8457460  399  8464073  8464471  399  100.00  0
9035692  9043194  7503  9035692  9036205  514  9042681  9043194  514  100.00  0
9229385  9237082  7698  9229385  9229813  429  9236651  9237082  432  99.07  0
9491337  9498839  7503  9491337  9491817  481  9498359  9498839  481  100.00  0
9529492  9533758  4267  9529492  9529774  283  9533499  9533758  260  91.87  0
9887252  9895972  8721  9887252  9887680  429  9895545  9895972  428  99.77  0
10017696  10025217  7522  10017696  10018207  512  10024706  10025217  512  100.00  0
11222051  11228945  6895  11222051  11222562  512  11228434  11228945  512  100.00  0
11456644  11465744  9101  11456644  11457071  428  11465317  11465744  428  99.77  0
11522360  11529949  7590  11522360  11522895  536  11529421  11529949  529  97.39  0
11570548  11577253  6706  11570548  11571253  706  11576551  11577253  703  96.18  0
11925883  11930142  4260  11925883  11926673  791  11929344  11930142  799  93.24  0
12915388  12919812  4425  12915388  12915664  277  12919531  12919812  282  98.23  0
13482780  13490517  7738  13482780  13483207  428  13490090  13490517  428  100.00  0
14417379  14422527  5149  14417379  14417655  277  14422251  14422527  277  100.00  0
14774061  14781729  7669  14774061  14774493  433  14781294  14781729  436  99.31  0
15244678  15247482  2805  15244678  15245132  455  15247042  15247482  441  95.82  0
15372676  15375491  2816  15372676  15373099  424  15375061  15375491  431  95.59  0
15878130  15887219  9090  15878130  15878558  429  15886786  15887219  434  98.62  0
16542268  16550460  8193  16542268  16542757  490  16549968  16550460  493  97.77  0
16565444  16570714  5271  16565444  16565857  414  16570301  16570714  414  100.00  0
16632955  16638124  5170  16632955  16633244  290  16637834  16638124  291  98.97  0
16894663  16903795  9133  16894663  16895117  455  16903329  16903795  467  95.72  0
17033939  17043030  9092  17033939  17034368  430  17042597  17043030  434  99.08  0
17465914  17473414  7501  17465914  17466394  481  17472931  17473414  484  99.38  0
17679842  17687069  7228  17679842  17680235  394  17686669  17687069  401  97.51  0
17817440  17824116  6677  17817440  17818163  724  17823412  17824116  705  94.06  0
17996629  18005639  9011  17996629  17997069  441  18005203  18005639  437  98.19  0
18417940  18421484  3545  18417940  18418712  773  18420703  18421484  782  97.57  0
18477563  18486665  9103  18477563  18477998  436  18486236  18486665  430  97.94  0
18659693  18667587  7895  18659693  18660117  425  18667163  18667587  425  100.00  0
18721305  18729974  8670  18721305  18721779  475  18729517  18729974  458  94.11  0
19065978  19073377  7400  19065978  19066430  453  19072925  19073377  453  98.01  0
19415572  19424617  9046  19415572  19416134  563  19424067  19424617  551  95.91  0
19455475  19459017  3543  19455475  19456087  613  19458412  19459017  606  98.69  0
19738868  19746393  7526  19738868  19739370  503  19745906  19746393  488  96.42  0
19767097  19776227  9131  19767097  19767525  429  19775796  19776227  432  99.07  0
20032250  20041449  9200  20032250  20032679  430  20041013  20041449  437  97.94  0
20131189  20136733  5545  20131189  20131471  283  20136440  20136733  294  94.90  0
20246532  20253328  6797  20246532  20246882  351  20252962  20253328  367  95.37  0
20253595  20260236  6642  20253595  20253956  362  20259857  20260236  380  93.95  0
20395346  20402887  7542  20395346  20395754  409  20402484  20402887  404  98.78  0
20419147  20424112  4966  20419147  20419803  657  20423467  20424112  646  93.61  0
20932246  20940669  8424  20932246  20932671  426  20940252  20940669  418  97.65  0
21069195  21074221  5027  21069195  21069470  276  21073946  21074221  276  99.28  0
21161057  21168579  7523  21161057  21161557  501  21168084  21168579  496  97.60  0
21223479  21232579  9101  21223479  21223906  428  21232152  21232579  428  99.53  0
21290052  21296502  6451  21290052  21290550  499  21296004  21296502  499  100.00  0
22017008  22023136  6129  22017008  22017369  362  22022773  22023136  364  99.18  0
22473103  22480515  7413  22473103  22473503  401  22480117  22480515  399  99.50  0
22534523  22541917  7395  22534523  22534923  401  22541514  22541917  404  99.26  0
22721046  22728652  7607  22721046  22721563  518  22728135  22728652  518  100.00  0
22729548  22736916  7369  22729548  22730202  655  22736262  22736916  655  100.00  0
22907195  22914111  6917  22907195  22907608  414  22913698  22914111  414  100.00  0
22959807  22966255  6449  22959807  22959925  119  22966135  22966255  121  97.52  0
22989691  22996892  7202  22989691  22990114  424  22996453  22996892  440  95.68  0
23058887  23064088  5202  23058887  23059070  184  23063903  23064088  186  92.47  0
23084365  23089803  5439  23084365  23084545  181  23089627  23089803  177  92.82  0
23099575  23105567  5993  23099575  23100099  525  23105060  23105567  508  94.29  0
23129008  23136479  7472  23129008  23129405  398  23136080  23136479  400  97.00  0
23240642  23245697  5056  23240642  23240909  268  23245427  23245697  271  97.05  0
23248291  23256395  8105  23248291  23248553  263  23256128  23256395  268  93.28  0
