desc: --alloc-fn=gt_malloc --alloc-fn=gt_calloc --alloc-fn=gt_realloc --alloc-fn=xmalloc --alloc-fn=xcalloc --alloc-fn=xrealloc --massif-out-file=gt-32bit_fruitfly.gff3.out
cmd: ./gt-32bit gff3 -show no fruitfly.gff3
time_unit: i
#-----------
snapshot=0
#-----------
time=0
mem_heap_B=0
mem_heap_extra_B=0
mem_stacks_B=0
heap_tree=empty
#-----------
snapshot=1
#-----------
time=487625603
mem_heap_B=58673
mem_heap_extra_B=13183
mem_stacks_B=0
heap_tree=empty
#-----------
snapshot=2
#-----------
time=1168346920
mem_heap_B=60316
mem_heap_extra_B=13588
mem_stacks_B=0
heap_tree=empty
#-----------
snapshot=3
#-----------
time=1764276518
mem_heap_B=58720
mem_heap_extra_B=13152
mem_stacks_B=0
heap_tree=empty
#-----------
snapshot=4
#-----------
time=2156866907
mem_heap_B=58905
mem_heap_extra_B=13191
mem_stacks_B=0
heap_tree=empty
#-----------
snapshot=5
#-----------
time=2637821178
mem_heap_B=59258
mem_heap_extra_B=13374
mem_stacks_B=0
heap_tree=empty
#-----------
snapshot=6
#-----------
time=2987603344
mem_heap_B=58558
mem_heap_extra_B=13226
mem_stacks_B=0
heap_tree=detailed
n9: 58558 (heap allocation functions) malloc/new/new[], --alloc-fns, etc.
 n2: 37926 0x81F1616: l_alloc (lauxlib.c:635)
  n7: 37578 0x81F823D: luaM_realloc_ (lmem.c:79)
   n4: 10742 0x81F84B8: luaS_newlstr (lstring.c:56)
    n2: 7672 0x81FCE72: lua_setfield (lapi.c:664)
     n2: 6912 0x82100DE: luaL_openlib (lauxlib.c:265)
      n1: 6825 0x8210141: luaL_register (lauxlib.c:231)
       n0: 6825 in 40 places, all below massif's threshold (01.00%)
      n0: 87 in 1 place, below massif's threshold (01.00%)
     n0: 760 in 19 places, all below massif's threshold (01.00%)
    n1: 1279 0x81FD982: lua_pushlstring (lapi.c:448)
     n0: 1279 in 17 places, all below massif's threshold (01.00%)
    n2: 932 0x820F862: lua_getfield (lapi.c:550)
     n1: 799 0x820FAA2: luaL_newmetatable (lauxlib.c:113)
      n0: 799 in 21 places, all below massif's threshold (01.00%)
     n0: 133 in 1 place, below massif's threshold (01.00%)
    n0: 859 in 19 places, all below massif's threshold (01.00%)
   n1: 10724 0x81FB209: resize (ltable.c:284)
    n2: 10724 0x81FBD7B: newkey (ltable.c:348)
     n2: 10696 0x81FCA9D: luaV_settable (ltable.c:503)
      n3: 9968 0x81FCE95: lua_setfield (lapi.c:665)
       n1: 8288 0x82100DE: luaL_openlib (lauxlib.c:265)
        n6: 8288 0x8210141: luaL_register (lauxlib.c:231)
         n0: 2912 in 15 places, all below massif's threshold (01.00%)
         n1: 1792 0x82103E3: luaopen_package (loadlib.c:662)
          n1: 1792 0x8202D47: luaD_precall (ldo.c:319)
           n1: 1792 0x81F74C8: luaD_call (ldo.c:376)
            n1: 1792 0x81F759D: lua_call (lapi.c:782)
             n1: 1792 0x81FE6A3: luaL_openlibs (linit.c:35)
              n1: 1792 0x804E8B6: gtr_new (gtr.c:84)
               n0: 1792 0x804D8BA: main (gt.c:29)
         n1: 896 0x810B740: gt_lua_open_encseq (encseq_lua.c:994)
          n1: 896 0x810BB51: gt_lua_open_core (gtcore_lua.c:39)
           n1: 896 0x810BC41: gt_lua_open_lib (gt_lua.c:36)
            n1: 896 0x804E8C1: gtr_new (gtr.c:85)
             n0: 896 0x804D8BA: main (gt.c:29)
         n1: 896 0x810B8FF: gt_lua_open_encseq (encseq_lua.c:1020)
          n1: 896 0x810BB51: gt_lua_open_core (gtcore_lua.c:39)
           n1: 896 0x810BC41: gt_lua_open_lib (gt_lua.c:36)
            n1: 896 0x804E8C1: gtr_new (gtr.c:85)
             n0: 896 0x804D8BA: main (gt.c:29)
         n1: 896 0x80B2375: gt_lua_open_feature_node_iterator (feature_node_iterator_lua.c:108)
          n1: 896 0x810B5B1: gt_lua_open_extended (gtext_lua.c:40)
           n1: 896 0x810BC49: gt_lua_open_lib (gt_lua.c:37)
            n1: 896 0x804E8C1: gtr_new (gtr.c:85)
             n0: 896 0x804D8BA: main (gt.c:29)
         n1: 896 0x810B49A: gt_lua_open_genome_node (genome_node_lua.c:366)
          n1: 896 0x810B5B9: gt_lua_open_extended (gtext_lua.c:41)
           n1: 896 0x810BC49: gt_lua_open_lib (gt_lua.c:37)
            n1: 896 0x804E8C1: gtr_new (gtr.c:85)
             n0: 896 0x804D8BA: main (gt.c:29)
       n2: 896 0x820FB06: luaL_newmetatable (lauxlib.c:119)
        n1: 896 0x80B1FC9: gt_lua_open_genome_visitor (genome_visitor_lua.c:57)
         n1: 896 0x810B5C9: gt_lua_open_extended (gtext_lua.c:43)
          n1: 896 0x810BC49: gt_lua_open_lib (gt_lua.c:37)
           n1: 896 0x804E8C1: gtr_new (gtr.c:85)
            n0: 896 0x804D8BA: main (gt.c:29)
        n0: 0 in 3 places, all below massif's threshold (01.00%)
       n0: 784 in 24 places, all below massif's threshold (01.00%)
      n1: 728 0x81FCF8A: lua_settable (lapi.c:651)
       n0: 728 in 22 places, all below massif's threshold (01.00%)
     n0: 28 in 1 place, below massif's threshold (01.00%)
   n2: 6776 0x81FE570: lua_pushcclosure (lfunc.c:24)
    n2: 5960 0x82100C6: luaL_openlib (lauxlib.c:264)
     n1: 5840 0x8210141: luaL_register (lauxlib.c:231)
      n0: 5840 in 42 places, all below massif's threshold (01.00%)
     n0: 120 in 2 places, all below massif's threshold (01.00%)
    n0: 816 in 33 places, all below massif's threshold (01.00%)
   n2: 4956 0x8200BBE: luaH_new (ltable.c:284)
    n2: 4956 0x8200E02: lua_createtable (lapi.c:581)
     n2: 4732 0x820115F: luaL_findtable (lauxlib.c:368)
      n2: 4732 0x820FFFF: luaL_openlib (lauxlib.c:252)
       n3: 4704 0x8210141: luaL_register (lauxlib.c:231)
        n0: 2912 in 9 places, all below massif's threshold (01.00%)
        n1: 896 0x8210780: luaopen_math (lmathlib.c:252)
         n1: 896 0x8202D47: luaD_precall (ldo.c:319)
          n1: 896 0x81F74C8: luaD_call (ldo.c:376)
           n1: 896 0x81F759D: lua_call (lapi.c:782)
            n1: 896 0x81FE6A3: luaL_openlibs (linit.c:35)
             n1: 896 0x804E8B6: gtr_new (gtr.c:84)
              n0: 896 0x804D8BA: main (gt.c:29)
        n1: 896 0x822060C: luaopen_lpeg (lpeg.c:2399)
         n1: 896 0x804E8D7: gtr_new (gtr.c:87)
          n0: 896 0x804D8BA: main (gt.c:29)
       n0: 28 in 2 places, all below massif's threshold (01.00%)
      n0: 0 in 1 place, below massif's threshold (01.00%)
     n0: 224 in 6 places, all below massif's threshold (01.00%)
    n0: 0 in 2 places, all below massif's threshold (01.00%)
   n1: 2048 0x81F839F: luaS_resize (lstring.c:28)
    n2: 2048 0x81F8550: luaS_newlstr (lstring.c:70)
     n1: 2048 0x820F862: lua_getfield (lapi.c:550)
      n1: 2048 0x820FAA2: luaL_newmetatable (lauxlib.c:113)
       n1: 2048 0x810B923: gt_lua_open_encseq (encseq_lua.c:1023)
        n1: 2048 0x810BB51: gt_lua_open_core (gtcore_lua.c:39)
         n1: 2048 0x810BC41: gt_lua_open_lib (gt_lua.c:36)
          n1: 2048 0x804E8C1: gtr_new (gtr.c:85)
           n0: 2048 0x804D8BA: main (gt.c:29)
     n0: 0 in 2 places, all below massif's threshold (01.00%)
   n2: 1504 0x8200A1D: luaH_new (ltable.c:359)
    n1: 1440 0x8200E02: lua_createtable (lapi.c:581)
     n0: 1440 in 11 places, all below massif's threshold (01.00%)
    n0: 64 in 2 places, all below massif's threshold (01.00%)
   n0: 828 in 5 places, all below massif's threshold (01.00%)
  n0: 348 in 1 place, below massif's threshold (01.00%)
 n1: 8200 0x80EBF86: gt_error_new (error.c:32)
  n0: 8200 0x804D89F: main (gt.c:27)
 n0: 3473 in 38 places, all below massif's threshold (01.00%)
 n3: 3456 0x80E798C: gt_ht_reinit (hashtable.c:103)
  n1: 2432 0x80E7FB9: gt_ht_resize (hashtable.c:128)
   n2: 2432 0x80E88F2: gt_hashtable_add (hashtable.c:246)
    n3: 2304 0x80E89F9: gt_hashmap_add (hashmap.c:90)
     n1: 1024 0x80F3992: gt_toolbox_add (toolbox.c:99)
      n1: 1024 0x804F4CE: gtt_tools (gtt.c:186)
       n1: 1024 0x804E3EC: gtr_register_components (gtr.c:199)
        n0: 1024 0x804D8CC: main (gt.c:34)
     n1: 1024 0x804EECB: gtt_unit_tests (gtt.c:263)
      n1: 1024 0x804E3FF: gtr_register_components (gtr.c:202)
       n0: 1024 0x804D8CC: main (gt.c:34)
     n0: 256 in 5 places, all below massif's threshold (01.00%)
    n0: 128 in 1 place, below massif's threshold (01.00%)
  n1: 768 0x81166B2: gt_hashtable_new_with_start_size (hashtable.c:128)
   n1: 768 0x8116756: gt_hashtable_new (hashtable.c:90)
    n0: 768 in 2 places, all below massif's threshold (01.00%)
  n0: 256 in 1 place, below massif's threshold (01.00%)
 n2: 1856 0x80E79E0: gt_ht_reinit (hashtable.c:112)
  n1: 1280 0x80E7FB9: gt_ht_resize (hashtable.c:128)
   n2: 1280 0x80E88F2: gt_hashtable_add (hashtable.c:246)
    n1: 1152 0x80E89F9: gt_hashmap_add (hashmap.c:90)
     n0: 1152 in 7 places, all below massif's threshold (01.00%)
    n0: 128 in 1 place, below massif's threshold (01.00%)
  n0: 576 in 2 places, all below massif's threshold (01.00%)
 n2: 1024 0x8101508: gt_genome_node_create (genome_node.c:152)
  n1: 1024 0x814B834: gt_feature_node_new (feature_node.c:210)
   n1: 1024 0x8181E66: gt_gff3_parser_parse_genome_nodes (gff3_parser.c:1153)
    n0: 1024 in 2 places, all below massif's threshold (01.00%)
  n0: 0 in 1 place, below massif's threshold (01.00%)
 n1: 951 0x80E6B80: gt_tag_value_map_add (tag_value_map.c:97)
  n1: 951 0x80FD8A7: gt_feature_node_add_attribute (feature_node.c:574)
   n1: 951 0x8181564: parse_attributes (gff3_parser.c:989)
    n1: 951 0x8181EFF: gt_gff3_parser_parse_genome_nodes (gff3_parser.c:1166)
     n0: 951 in 2 places, all below massif's threshold (01.00%)
 n1: 840 0x81015F4: gt_tool_new (tool.c:41)
  n0: 840 in 41 places, all below massif's threshold (01.00%)
 n1: 832 0x8116627: gt_hashtable_new_with_start_size (hashtable.c:142)
  n1: 832 0x8116756: gt_hashtable_new (hashtable.c:90)
   n0: 832 in 2 places, all below massif's threshold (01.00%)
#-----------
snapshot=7
#-----------
time=3554495734
mem_heap_B=58971
mem_heap_extra_B=13245
mem_stacks_B=0
heap_tree=empty
#-----------
snapshot=8
#-----------
time=4120926046
mem_heap_B=57581
mem_heap_extra_B=12867
mem_stacks_B=0
heap_tree=empty
#-----------
snapshot=9
#-----------
time=4556608302
mem_heap_B=58449
mem_heap_extra_B=13095
mem_stacks_B=0
heap_tree=empty
#-----------
snapshot=10
#-----------
time=5166588782
mem_heap_B=59489
mem_heap_extra_B=13311
mem_stacks_B=0
heap_tree=empty
#-----------
snapshot=11
#-----------
time=5827952671
mem_heap_B=58703
mem_heap_extra_B=13257
mem_stacks_B=0
heap_tree=empty
#-----------
snapshot=12
#-----------
time=6481533121
mem_heap_B=59736
mem_heap_extra_B=13504
mem_stacks_B=0
heap_tree=empty
#-----------
snapshot=13
#-----------
time=6989888634
mem_heap_B=59149
mem_heap_extra_B=13243
mem_stacks_B=0
heap_tree=empty
#-----------
snapshot=14
#-----------
time=7498223013
mem_heap_B=58815
mem_heap_extra_B=13169
mem_stacks_B=0
heap_tree=empty
#-----------
snapshot=15
#-----------
time=7788706780
mem_heap_B=58556
mem_heap_extra_B=13116
mem_stacks_B=0
heap_tree=empty
#-----------
snapshot=16
#-----------
time=8442293797
mem_heap_B=58896
mem_heap_extra_B=13280
mem_stacks_B=0
heap_tree=empty
#-----------
snapshot=17
#-----------
time=9037772363
mem_heap_B=58939
mem_heap_extra_B=13253
mem_stacks_B=0
heap_tree=empty
#-----------
snapshot=18
#-----------
time=9502501984
mem_heap_B=60802
mem_heap_extra_B=13718
mem_stacks_B=0
heap_tree=empty
#-----------
snapshot=19
#-----------
time=9967227665
mem_heap_B=58772
mem_heap_extra_B=13172
mem_stacks_B=0
heap_tree=empty
#-----------
snapshot=20
#-----------
time=10548143059
mem_heap_B=58000
mem_heap_extra_B=12976
mem_stacks_B=0
heap_tree=empty
#-----------
snapshot=21
#-----------
time=11012875886
mem_heap_B=58681
mem_heap_extra_B=13143
mem_stacks_B=0
heap_tree=empty
#-----------
snapshot=22
#-----------
time=11593790718
mem_heap_B=59379
mem_heap_extra_B=13317
mem_stacks_B=0
heap_tree=detailed
n9: 59379 (heap allocation functions) malloc/new/new[], --alloc-fns, etc.
 n2: 37926 0x81F1616: l_alloc (lauxlib.c:635)
  n7: 37578 0x81F823D: luaM_realloc_ (lmem.c:79)
   n4: 10742 0x81F84B8: luaS_newlstr (lstring.c:56)
    n2: 7672 0x81FCE72: lua_setfield (lapi.c:664)
     n2: 6912 0x82100DE: luaL_openlib (lauxlib.c:265)
      n1: 6825 0x8210141: luaL_register (lauxlib.c:231)
       n0: 6825 in 40 places, all below massif's threshold (01.00%)
      n0: 87 in 1 place, below massif's threshold (01.00%)
     n0: 760 in 19 places, all below massif's threshold (01.00%)
    n1: 1279 0x81FD982: lua_pushlstring (lapi.c:448)
     n0: 1279 in 17 places, all below massif's threshold (01.00%)
    n2: 932 0x820F862: lua_getfield (lapi.c:550)
     n1: 799 0x820FAA2: luaL_newmetatable (lauxlib.c:113)
      n0: 799 in 21 places, all below massif's threshold (01.00%)
     n0: 133 in 1 place, below massif's threshold (01.00%)
    n0: 859 in 19 places, all below massif's threshold (01.00%)
   n1: 10724 0x81FB209: resize (ltable.c:284)
    n2: 10724 0x81FBD7B: newkey (ltable.c:348)
     n2: 10696 0x81FCA9D: luaV_settable (ltable.c:503)
      n3: 9968 0x81FCE95: lua_setfield (lapi.c:665)
       n1: 8288 0x82100DE: luaL_openlib (lauxlib.c:265)
        n6: 8288 0x8210141: luaL_register (lauxlib.c:231)
         n0: 2912 in 15 places, all below massif's threshold (01.00%)
         n1: 1792 0x82103E3: luaopen_package (loadlib.c:662)
          n1: 1792 0x8202D47: luaD_precall (ldo.c:319)
           n1: 1792 0x81F74C8: luaD_call (ldo.c:376)
            n1: 1792 0x81F759D: lua_call (lapi.c:782)
             n1: 1792 0x81FE6A3: luaL_openlibs (linit.c:35)
              n1: 1792 0x804E8B6: gtr_new (gtr.c:84)
               n0: 1792 0x804D8BA: main (gt.c:29)
         n1: 896 0x810B740: gt_lua_open_encseq (encseq_lua.c:994)
          n1: 896 0x810BB51: gt_lua_open_core (gtcore_lua.c:39)
           n1: 896 0x810BC41: gt_lua_open_lib (gt_lua.c:36)
            n1: 896 0x804E8C1: gtr_new (gtr.c:85)
             n0: 896 0x804D8BA: main (gt.c:29)
         n1: 896 0x810B8FF: gt_lua_open_encseq (encseq_lua.c:1020)
          n1: 896 0x810BB51: gt_lua_open_core (gtcore_lua.c:39)
           n1: 896 0x810BC41: gt_lua_open_lib (gt_lua.c:36)
            n1: 896 0x804E8C1: gtr_new (gtr.c:85)
             n0: 896 0x804D8BA: main (gt.c:29)
         n1: 896 0x80B2375: gt_lua_open_feature_node_iterator (feature_node_iterator_lua.c:108)
          n1: 896 0x810B5B1: gt_lua_open_extended (gtext_lua.c:40)
           n1: 896 0x810BC49: gt_lua_open_lib (gt_lua.c:37)
            n1: 896 0x804E8C1: gtr_new (gtr.c:85)
             n0: 896 0x804D8BA: main (gt.c:29)
         n1: 896 0x810B49A: gt_lua_open_genome_node (genome_node_lua.c:366)
          n1: 896 0x810B5B9: gt_lua_open_extended (gtext_lua.c:41)
           n1: 896 0x810BC49: gt_lua_open_lib (gt_lua.c:37)
            n1: 896 0x804E8C1: gtr_new (gtr.c:85)
             n0: 896 0x804D8BA: main (gt.c:29)
       n2: 896 0x820FB06: luaL_newmetatable (lauxlib.c:119)
        n1: 896 0x80B1FC9: gt_lua_open_genome_visitor (genome_visitor_lua.c:57)
         n1: 896 0x810B5C9: gt_lua_open_extended (gtext_lua.c:43)
          n1: 896 0x810BC49: gt_lua_open_lib (gt_lua.c:37)
           n1: 896 0x804E8C1: gtr_new (gtr.c:85)
            n0: 896 0x804D8BA: main (gt.c:29)
        n0: 0 in 3 places, all below massif's threshold (01.00%)
       n0: 784 in 24 places, all below massif's threshold (01.00%)
      n1: 728 0x81FCF8A: lua_settable (lapi.c:651)
       n0: 728 in 22 places, all below massif's threshold (01.00%)
     n0: 28 in 1 place, below massif's threshold (01.00%)
   n2: 6776 0x81FE570: lua_pushcclosure (lfunc.c:24)
    n2: 5960 0x82100C6: luaL_openlib (lauxlib.c:264)
     n1: 5840 0x8210141: luaL_register (lauxlib.c:231)
      n0: 5840 in 42 places, all below massif's threshold (01.00%)
     n0: 120 in 2 places, all below massif's threshold (01.00%)
    n0: 816 in 33 places, all below massif's threshold (01.00%)
   n2: 4956 0x8200BBE: luaH_new (ltable.c:284)
    n2: 4956 0x8200E02: lua_createtable (lapi.c:581)
     n2: 4732 0x820115F: luaL_findtable (lauxlib.c:368)
      n2: 4732 0x820FFFF: luaL_openlib (lauxlib.c:252)
       n3: 4704 0x8210141: luaL_register (lauxlib.c:231)
        n0: 2912 in 9 places, all below massif's threshold (01.00%)
        n1: 896 0x8210780: luaopen_math (lmathlib.c:252)
         n1: 896 0x8202D47: luaD_precall (ldo.c:319)
          n1: 896 0x81F74C8: luaD_call (ldo.c:376)
           n1: 896 0x81F759D: lua_call (lapi.c:782)
            n1: 896 0x81FE6A3: luaL_openlibs (linit.c:35)
             n1: 896 0x804E8B6: gtr_new (gtr.c:84)
              n0: 896 0x804D8BA: main (gt.c:29)
        n1: 896 0x822060C: luaopen_lpeg (lpeg.c:2399)
         n1: 896 0x804E8D7: gtr_new (gtr.c:87)
          n0: 896 0x804D8BA: main (gt.c:29)
       n0: 28 in 2 places, all below massif's threshold (01.00%)
      n0: 0 in 1 place, below massif's threshold (01.00%)
     n0: 224 in 6 places, all below massif's threshold (01.00%)
    n0: 0 in 2 places, all below massif's threshold (01.00%)
   n1: 2048 0x81F839F: luaS_resize (lstring.c:28)
    n2: 2048 0x81F8550: luaS_newlstr (lstring.c:70)
     n1: 2048 0x820F862: lua_getfield (lapi.c:550)
      n1: 2048 0x820FAA2: luaL_newmetatable (lauxlib.c:113)
       n1: 2048 0x810B923: gt_lua_open_encseq (encseq_lua.c:1023)
        n1: 2048 0x810BB51: gt_lua_open_core (gtcore_lua.c:39)
         n1: 2048 0x810BC41: gt_lua_open_lib (gt_lua.c:36)
          n1: 2048 0x804E8C1: gtr_new (gtr.c:85)
           n0: 2048 0x804D8BA: main (gt.c:29)
     n0: 0 in 2 places, all below massif's threshold (01.00%)
   n2: 1504 0x8200A1D: luaH_new (ltable.c:359)
    n1: 1440 0x8200E02: lua_createtable (lapi.c:581)
     n0: 1440 in 11 places, all below massif's threshold (01.00%)
    n0: 64 in 2 places, all below massif's threshold (01.00%)
   n0: 828 in 5 places, all below massif's threshold (01.00%)
  n0: 348 in 1 place, below massif's threshold (01.00%)
 n1: 8200 0x80EBF86: gt_error_new (error.c:32)
  n0: 8200 0x804D89F: main (gt.c:27)
 n3: 3456 0x80E798C: gt_ht_reinit (hashtable.c:103)
  n1: 2432 0x80E7FB9: gt_ht_resize (hashtable.c:128)
   n2: 2432 0x80E88F2: gt_hashtable_add (hashtable.c:246)
    n3: 2304 0x80E89F9: gt_hashmap_add (hashmap.c:90)
     n1: 1024 0x80F3992: gt_toolbox_add (toolbox.c:99)
      n1: 1024 0x804F4CE: gtt_tools (gtt.c:186)
       n1: 1024 0x804E3EC: gtr_register_components (gtr.c:199)
        n0: 1024 0x804D8CC: main (gt.c:34)
     n1: 1024 0x804EECB: gtt_unit_tests (gtt.c:263)
      n1: 1024 0x804E3FF: gtr_register_components (gtr.c:202)
       n0: 1024 0x804D8CC: main (gt.c:34)
     n0: 256 in 5 places, all below massif's threshold (01.00%)
    n0: 128 in 1 place, below massif's threshold (01.00%)
  n1: 768 0x81166B2: gt_hashtable_new_with_start_size (hashtable.c:128)
   n1: 768 0x8116756: gt_hashtable_new (hashtable.c:90)
    n0: 768 in 2 places, all below massif's threshold (01.00%)
  n0: 256 in 1 place, below massif's threshold (01.00%)
 n0: 3339 in 38 places, all below massif's threshold (01.00%)
 n2: 1856 0x80E79E0: gt_ht_reinit (hashtable.c:112)
  n1: 1280 0x80E7FB9: gt_ht_resize (hashtable.c:128)
   n2: 1280 0x80E88F2: gt_hashtable_add (hashtable.c:246)
    n1: 1152 0x80E89F9: gt_hashmap_add (hashmap.c:90)
     n0: 1152 in 7 places, all below massif's threshold (01.00%)
    n0: 128 in 1 place, below massif's threshold (01.00%)
  n0: 576 in 2 places, all below massif's threshold (01.00%)
 n2: 1536 0x8101508: gt_genome_node_create (genome_node.c:152)
  n1: 1536 0x814B834: gt_feature_node_new (feature_node.c:210)
   n2: 1536 0x8181E66: gt_gff3_parser_parse_genome_nodes (gff3_parser.c:1153)
    n1: 832 0x8182C22: gff3_in_stream_plain_next (gff3_in_stream_plain.c:150)
     n1: 832 0x814DC84: gt_node_stream_next (node_stream.c:94)
      n1: 832 0x814EFF7: add_ids_stream_next (add_ids_stream.c:60)
       n1: 832 0x814DC84: gt_node_stream_next (node_stream.c:94)
        n1: 832 0x814EDAE: cds_check_stream_next (cds_check_stream.c:38)
         n1: 832 0x814DC84: gt_node_stream_next (node_stream.c:94)
          n1: 832 0x814ECDE: gff3_in_stream_next (gff3_in_stream.c:40)
           n1: 832 0x814DC84: gt_node_stream_next (node_stream.c:94)
            n1: 832 0x814E250: gt_node_stream_pull (node_stream.c:116)
             n1: 832 0x805907D: gt_gff3_runner (gt_gff3.c:276)
              n1: 832 0x81C4930: gt_tool_run (tool.c:88)
               n1: 832 0x804E2C6: gtr_run (gtr.c:357)
                n0: 832 0x804D969: main (gt.c:39)
    n0: 704 in 1 place, below massif's threshold (01.00%)
  n0: 0 in 1 place, below massif's threshold (01.00%)
 n1: 1394 0x80E6B80: gt_tag_value_map_add (tag_value_map.c:97)
  n1: 1394 0x80FD8A7: gt_feature_node_add_attribute (feature_node.c:574)
   n1: 1394 0x8181564: parse_attributes (gff3_parser.c:989)
    n2: 1394 0x8181EFF: gt_gff3_parser_parse_genome_nodes (gff3_parser.c:1166)
     n1: 759 0x8182C22: gff3_in_stream_plain_next (gff3_in_stream_plain.c:150)
      n1: 759 0x814DC84: gt_node_stream_next (node_stream.c:94)
       n1: 759 0x814EFF7: add_ids_stream_next (add_ids_stream.c:60)
        n1: 759 0x814DC84: gt_node_stream_next (node_stream.c:94)
         n1: 759 0x814EDAE: cds_check_stream_next (cds_check_stream.c:38)
          n1: 759 0x814DC84: gt_node_stream_next (node_stream.c:94)
           n1: 759 0x814ECDE: gff3_in_stream_next (gff3_in_stream.c:40)
            n1: 759 0x814DC84: gt_node_stream_next (node_stream.c:94)
             n1: 759 0x814E250: gt_node_stream_pull (node_stream.c:116)
              n1: 759 0x805907D: gt_gff3_runner (gt_gff3.c:276)
               n1: 759 0x81C4930: gt_tool_run (tool.c:88)
                n1: 759 0x804E2C6: gtr_run (gtr.c:357)
                 n0: 759 0x804D969: main (gt.c:39)
     n0: 635 in 1 place, below massif's threshold (01.00%)
 n1: 840 0x81015F4: gt_tool_new (tool.c:41)
  n0: 840 in 41 places, all below massif's threshold (01.00%)
 n1: 832 0x8116627: gt_hashtable_new_with_start_size (hashtable.c:142)
  n1: 832 0x8116756: gt_hashtable_new (hashtable.c:90)
   n0: 832 in 2 places, all below massif's threshold (01.00%)
#-----------
snapshot=23
#-----------
time=12058517865
mem_heap_B=57627
mem_heap_extra_B=12909
mem_stacks_B=0
heap_tree=empty
#-----------
snapshot=24
#-----------
time=12755607783
mem_heap_B=59700
mem_heap_extra_B=13420
mem_stacks_B=0
heap_tree=detailed
n9: 59700 (heap allocation functions) malloc/new/new[], --alloc-fns, etc.
 n2: 37926 0x81F1616: l_alloc (lauxlib.c:635)
  n7: 37578 0x81F823D: luaM_realloc_ (lmem.c:79)
   n4: 10742 0x81F84B8: luaS_newlstr (lstring.c:56)
    n2: 7672 0x81FCE72: lua_setfield (lapi.c:664)
     n2: 6912 0x82100DE: luaL_openlib (lauxlib.c:265)
      n1: 6825 0x8210141: luaL_register (lauxlib.c:231)
       n0: 6825 in 40 places, all below massif's threshold (01.00%)
      n0: 87 in 1 place, below massif's threshold (01.00%)
     n0: 760 in 19 places, all below massif's threshold (01.00%)
    n1: 1279 0x81FD982: lua_pushlstring (lapi.c:448)
     n0: 1279 in 17 places, all below massif's threshold (01.00%)
    n2: 932 0x820F862: lua_getfield (lapi.c:550)
     n1: 799 0x820FAA2: luaL_newmetatable (lauxlib.c:113)
      n0: 799 in 21 places, all below massif's threshold (01.00%)
     n0: 133 in 1 place, below massif's threshold (01.00%)
    n0: 859 in 19 places, all below massif's threshold (01.00%)
   n1: 10724 0x81FB209: resize (ltable.c:284)
    n2: 10724 0x81FBD7B: newkey (ltable.c:348)
     n2: 10696 0x81FCA9D: luaV_settable (ltable.c:503)
      n3: 9968 0x81FCE95: lua_setfield (lapi.c:665)
       n1: 8288 0x82100DE: luaL_openlib (lauxlib.c:265)
        n6: 8288 0x8210141: luaL_register (lauxlib.c:231)
         n0: 2912 in 15 places, all below massif's threshold (01.00%)
         n1: 1792 0x82103E3: luaopen_package (loadlib.c:662)
          n1: 1792 0x8202D47: luaD_precall (ldo.c:319)
           n1: 1792 0x81F74C8: luaD_call (ldo.c:376)
            n1: 1792 0x81F759D: lua_call (lapi.c:782)
             n1: 1792 0x81FE6A3: luaL_openlibs (linit.c:35)
              n1: 1792 0x804E8B6: gtr_new (gtr.c:84)
               n0: 1792 0x804D8BA: main (gt.c:29)
         n1: 896 0x810B740: gt_lua_open_encseq (encseq_lua.c:994)
          n1: 896 0x810BB51: gt_lua_open_core (gtcore_lua.c:39)
           n1: 896 0x810BC41: gt_lua_open_lib (gt_lua.c:36)
            n1: 896 0x804E8C1: gtr_new (gtr.c:85)
             n0: 896 0x804D8BA: main (gt.c:29)
         n1: 896 0x810B8FF: gt_lua_open_encseq (encseq_lua.c:1020)
          n1: 896 0x810BB51: gt_lua_open_core (gtcore_lua.c:39)
           n1: 896 0x810BC41: gt_lua_open_lib (gt_lua.c:36)
            n1: 896 0x804E8C1: gtr_new (gtr.c:85)
             n0: 896 0x804D8BA: main (gt.c:29)
         n1: 896 0x80B2375: gt_lua_open_feature_node_iterator (feature_node_iterator_lua.c:108)
          n1: 896 0x810B5B1: gt_lua_open_extended (gtext_lua.c:40)
           n1: 896 0x810BC49: gt_lua_open_lib (gt_lua.c:37)
            n1: 896 0x804E8C1: gtr_new (gtr.c:85)
             n0: 896 0x804D8BA: main (gt.c:29)
         n1: 896 0x810B49A: gt_lua_open_genome_node (genome_node_lua.c:366)
          n1: 896 0x810B5B9: gt_lua_open_extended (gtext_lua.c:41)
           n1: 896 0x810BC49: gt_lua_open_lib (gt_lua.c:37)
            n1: 896 0x804E8C1: gtr_new (gtr.c:85)
             n0: 896 0x804D8BA: main (gt.c:29)
       n2: 896 0x820FB06: luaL_newmetatable (lauxlib.c:119)
        n1: 896 0x80B1FC9: gt_lua_open_genome_visitor (genome_visitor_lua.c:57)
         n1: 896 0x810B5C9: gt_lua_open_extended (gtext_lua.c:43)
          n1: 896 0x810BC49: gt_lua_open_lib (gt_lua.c:37)
           n1: 896 0x804E8C1: gtr_new (gtr.c:85)
            n0: 896 0x804D8BA: main (gt.c:29)
        n0: 0 in 3 places, all below massif's threshold (01.00%)
       n0: 784 in 24 places, all below massif's threshold (01.00%)
      n0: 728 in 1 place, below massif's threshold (01.00%)
     n0: 28 in 1 place, below massif's threshold (01.00%)
   n2: 6776 0x81FE570: lua_pushcclosure (lfunc.c:24)
    n2: 5960 0x82100C6: luaL_openlib (lauxlib.c:264)
     n1: 5840 0x8210141: luaL_register (lauxlib.c:231)
      n0: 5840 in 42 places, all below massif's threshold (01.00%)
     n0: 120 in 2 places, all below massif's threshold (01.00%)
    n0: 816 in 33 places, all below massif's threshold (01.00%)
   n2: 4956 0x8200BBE: luaH_new (ltable.c:284)
    n2: 4956 0x8200E02: lua_createtable (lapi.c:581)
     n2: 4732 0x820115F: luaL_findtable (lauxlib.c:368)
      n2: 4732 0x820FFFF: luaL_openlib (lauxlib.c:252)
       n3: 4704 0x8210141: luaL_register (lauxlib.c:231)
        n0: 2912 in 9 places, all below massif's threshold (01.00%)
        n1: 896 0x8210780: luaopen_math (lmathlib.c:252)
         n1: 896 0x8202D47: luaD_precall (ldo.c:319)
          n1: 896 0x81F74C8: luaD_call (ldo.c:376)
           n1: 896 0x81F759D: lua_call (lapi.c:782)
            n1: 896 0x81FE6A3: luaL_openlibs (linit.c:35)
             n1: 896 0x804E8B6: gtr_new (gtr.c:84)
              n0: 896 0x804D8BA: main (gt.c:29)
        n1: 896 0x822060C: luaopen_lpeg (lpeg.c:2399)
         n1: 896 0x804E8D7: gtr_new (gtr.c:87)
          n0: 896 0x804D8BA: main (gt.c:29)
       n0: 28 in 2 places, all below massif's threshold (01.00%)
      n0: 0 in 1 place, below massif's threshold (01.00%)
     n0: 224 in 6 places, all below massif's threshold (01.00%)
    n0: 0 in 2 places, all below massif's threshold (01.00%)
   n1: 2048 0x81F839F: luaS_resize (lstring.c:28)
    n2: 2048 0x81F8550: luaS_newlstr (lstring.c:70)
     n1: 2048 0x820F862: lua_getfield (lapi.c:550)
      n1: 2048 0x820FAA2: luaL_newmetatable (lauxlib.c:113)
       n1: 2048 0x810B923: gt_lua_open_encseq (encseq_lua.c:1023)
        n1: 2048 0x810BB51: gt_lua_open_core (gtcore_lua.c:39)
         n1: 2048 0x810BC41: gt_lua_open_lib (gt_lua.c:36)
          n1: 2048 0x804E8C1: gtr_new (gtr.c:85)
           n0: 2048 0x804D8BA: main (gt.c:29)
     n0: 0 in 2 places, all below massif's threshold (01.00%)
   n2: 1504 0x8200A1D: luaH_new (ltable.c:359)
    n1: 1440 0x8200E02: lua_createtable (lapi.c:581)
     n0: 1440 in 11 places, all below massif's threshold (01.00%)
    n0: 64 in 2 places, all below massif's threshold (01.00%)
   n0: 828 in 5 places, all below massif's threshold (01.00%)
  n0: 348 in 1 place, below massif's threshold (01.00%)
 n1: 8200 0x80EBF86: gt_error_new (error.c:32)
  n0: 8200 0x804D89F: main (gt.c:27)
 n3: 3456 0x80E798C: gt_ht_reinit (hashtable.c:103)
  n1: 2432 0x80E7FB9: gt_ht_resize (hashtable.c:128)
   n2: 2432 0x80E88F2: gt_hashtable_add (hashtable.c:246)
    n3: 2304 0x80E89F9: gt_hashmap_add (hashmap.c:90)
     n1: 1024 0x80F3992: gt_toolbox_add (toolbox.c:99)
      n1: 1024 0x804F4CE: gtt_tools (gtt.c:186)
       n1: 1024 0x804E3EC: gtr_register_components (gtr.c:199)
        n0: 1024 0x804D8CC: main (gt.c:34)
     n1: 1024 0x804EECB: gtt_unit_tests (gtt.c:263)
      n1: 1024 0x804E3FF: gtr_register_components (gtr.c:202)
       n0: 1024 0x804D8CC: main (gt.c:34)
     n0: 256 in 5 places, all below massif's threshold (01.00%)
    n0: 128 in 1 place, below massif's threshold (01.00%)
  n1: 768 0x81166B2: gt_hashtable_new_with_start_size (hashtable.c:128)
   n1: 768 0x8116756: gt_hashtable_new (hashtable.c:90)
    n0: 768 in 2 places, all below massif's threshold (01.00%)
  n0: 256 in 1 place, below massif's threshold (01.00%)
 n0: 3279 in 38 places, all below massif's threshold (01.00%)
 n2: 1856 0x80E79E0: gt_ht_reinit (hashtable.c:112)
  n1: 1280 0x80E7FB9: gt_ht_resize (hashtable.c:128)
   n2: 1280 0x80E88F2: gt_hashtable_add (hashtable.c:246)
    n1: 1152 0x80E89F9: gt_hashmap_add (hashmap.c:90)
     n0: 1152 in 7 places, all below massif's threshold (01.00%)
    n0: 128 in 1 place, below massif's threshold (01.00%)
  n0: 576 in 2 places, all below massif's threshold (01.00%)
 n2: 1728 0x8101508: gt_genome_node_create (genome_node.c:152)
  n1: 1728 0x814B834: gt_feature_node_new (feature_node.c:210)
   n2: 1728 0x8181E66: gt_gff3_parser_parse_genome_nodes (gff3_parser.c:1153)
    n1: 960 0x8182C22: gff3_in_stream_plain_next (gff3_in_stream_plain.c:150)
     n1: 960 0x814DC84: gt_node_stream_next (node_stream.c:94)
      n1: 960 0x814EFF7: add_ids_stream_next (add_ids_stream.c:60)
       n1: 960 0x814DC84: gt_node_stream_next (node_stream.c:94)
        n1: 960 0x814EDAE: cds_check_stream_next (cds_check_stream.c:38)
         n1: 960 0x814DC84: gt_node_stream_next (node_stream.c:94)
          n1: 960 0x814ECDE: gff3_in_stream_next (gff3_in_stream.c:40)
           n1: 960 0x814DC84: gt_node_stream_next (node_stream.c:94)
            n1: 960 0x814E250: gt_node_stream_pull (node_stream.c:116)
             n1: 960 0x805907D: gt_gff3_runner (gt_gff3.c:276)
              n1: 960 0x81C4930: gt_tool_run (tool.c:88)
               n1: 960 0x804E2C6: gtr_run (gtr.c:357)
                n0: 960 0x804D969: main (gt.c:39)
    n1: 768 0x8182BDB: gff3_in_stream_plain_next (gff3_in_stream_plain.c:142)
     n1: 768 0x814DC84: gt_node_stream_next (node_stream.c:94)
      n1: 768 0x814EFF7: add_ids_stream_next (add_ids_stream.c:60)
       n1: 768 0x814DC84: gt_node_stream_next (node_stream.c:94)
        n1: 768 0x814EDAE: cds_check_stream_next (cds_check_stream.c:38)
         n1: 768 0x814DC84: gt_node_stream_next (node_stream.c:94)
          n1: 768 0x814ECDE: gff3_in_stream_next (gff3_in_stream.c:40)
           n1: 768 0x814DC84: gt_node_stream_next (node_stream.c:94)
            n1: 768 0x814E250: gt_node_stream_pull (node_stream.c:116)
             n1: 768 0x805907D: gt_gff3_runner (gt_gff3.c:276)
              n1: 768 0x81C4930: gt_tool_run (tool.c:88)
               n1: 768 0x804E2C6: gtr_run (gtr.c:357)
                n0: 768 0x804D969: main (gt.c:39)
  n0: 0 in 1 place, below massif's threshold (01.00%)
 n1: 1583 0x80E6B80: gt_tag_value_map_add (tag_value_map.c:97)
  n1: 1583 0x80FD8A7: gt_feature_node_add_attribute (feature_node.c:574)
   n1: 1583 0x8181564: parse_attributes (gff3_parser.c:989)
    n2: 1583 0x8181EFF: gt_gff3_parser_parse_genome_nodes (gff3_parser.c:1166)
     n1: 874 0x8182C22: gff3_in_stream_plain_next (gff3_in_stream_plain.c:150)
      n1: 874 0x814DC84: gt_node_stream_next (node_stream.c:94)
       n1: 874 0x814EFF7: add_ids_stream_next (add_ids_stream.c:60)
        n1: 874 0x814DC84: gt_node_stream_next (node_stream.c:94)
         n1: 874 0x814EDAE: cds_check_stream_next (cds_check_stream.c:38)
          n1: 874 0x814DC84: gt_node_stream_next (node_stream.c:94)
           n1: 874 0x814ECDE: gff3_in_stream_next (gff3_in_stream.c:40)
            n1: 874 0x814DC84: gt_node_stream_next (node_stream.c:94)
             n1: 874 0x814E250: gt_node_stream_pull (node_stream.c:116)
              n1: 874 0x805907D: gt_gff3_runner (gt_gff3.c:276)
               n1: 874 0x81C4930: gt_tool_run (tool.c:88)
                n1: 874 0x804E2C6: gtr_run (gtr.c:357)
                 n0: 874 0x804D969: main (gt.c:39)
     n0: 709 in 1 place, below massif's threshold (01.00%)
 n1: 840 0x81015F4: gt_tool_new (tool.c:41)
  n0: 840 in 41 places, all below massif's threshold (01.00%)
 n1: 832 0x8116627: gt_hashtable_new_with_start_size (hashtable.c:142)
  n1: 832 0x8116756: gt_hashtable_new (hashtable.c:90)
   n0: 832 in 2 places, all below massif's threshold (01.00%)
#-----------
snapshot=25
#-----------
time=13220348627
mem_heap_B=59186
mem_heap_extra_B=13238
mem_stacks_B=0
heap_tree=empty
#-----------
snapshot=26
#-----------
time=13801285939
mem_heap_B=58348
mem_heap_extra_B=13028
mem_stacks_B=0
heap_tree=empty
#-----------
snapshot=27
#-----------
time=14149840704
mem_heap_B=59135
mem_heap_extra_B=13249
mem_stacks_B=0
heap_tree=empty
#-----------
snapshot=28
#-----------
time=14614572977
mem_heap_B=60430
mem_heap_extra_B=13546
mem_stacks_B=0
heap_tree=empty
#-----------
snapshot=29
#-----------
time=15008096065
mem_heap_B=59546
mem_heap_extra_B=13334
mem_stacks_B=0
heap_tree=empty
#-----------
snapshot=30
#-----------
time=15401616690
mem_heap_B=61186
mem_heap_extra_B=13806
mem_stacks_B=0
heap_tree=detailed
n9: 61186 (heap allocation functions) malloc/new/new[], --alloc-fns, etc.
 n2: 37926 0x81F1616: l_alloc (lauxlib.c:635)
  n7: 37578 0x81F823D: luaM_realloc_ (lmem.c:79)
   n4: 10742 0x81F84B8: luaS_newlstr (lstring.c:56)
    n2: 7672 0x81FCE72: lua_setfield (lapi.c:664)
     n2: 6912 0x82100DE: luaL_openlib (lauxlib.c:265)
      n1: 6825 0x8210141: luaL_register (lauxlib.c:231)
       n0: 6825 in 40 places, all below massif's threshold (01.00%)
      n0: 87 in 1 place, below massif's threshold (01.00%)
     n0: 760 in 19 places, all below massif's threshold (01.00%)
    n1: 1279 0x81FD982: lua_pushlstring (lapi.c:448)
     n0: 1279 in 17 places, all below massif's threshold (01.00%)
    n2: 932 0x820F862: lua_getfield (lapi.c:550)
     n1: 799 0x820FAA2: luaL_newmetatable (lauxlib.c:113)
      n0: 799 in 21 places, all below massif's threshold (01.00%)
     n0: 133 in 1 place, below massif's threshold (01.00%)
    n0: 859 in 19 places, all below massif's threshold (01.00%)
   n1: 10724 0x81FB209: resize (ltable.c:284)
    n2: 10724 0x81FBD7B: newkey (ltable.c:348)
     n2: 10696 0x81FCA9D: luaV_settable (ltable.c:503)
      n3: 9968 0x81FCE95: lua_setfield (lapi.c:665)
       n1: 8288 0x82100DE: luaL_openlib (lauxlib.c:265)
        n6: 8288 0x8210141: luaL_register (lauxlib.c:231)
         n0: 2912 in 15 places, all below massif's threshold (01.00%)
         n1: 1792 0x82103E3: luaopen_package (loadlib.c:662)
          n1: 1792 0x8202D47: luaD_precall (ldo.c:319)
           n1: 1792 0x81F74C8: luaD_call (ldo.c:376)
            n1: 1792 0x81F759D: lua_call (lapi.c:782)
             n1: 1792 0x81FE6A3: luaL_openlibs (linit.c:35)
              n1: 1792 0x804E8B6: gtr_new (gtr.c:84)
               n0: 1792 0x804D8BA: main (gt.c:29)
         n1: 896 0x810B740: gt_lua_open_encseq (encseq_lua.c:994)
          n1: 896 0x810BB51: gt_lua_open_core (gtcore_lua.c:39)
           n1: 896 0x810BC41: gt_lua_open_lib (gt_lua.c:36)
            n1: 896 0x804E8C1: gtr_new (gtr.c:85)
             n0: 896 0x804D8BA: main (gt.c:29)
         n1: 896 0x810B8FF: gt_lua_open_encseq (encseq_lua.c:1020)
          n1: 896 0x810BB51: gt_lua_open_core (gtcore_lua.c:39)
           n1: 896 0x810BC41: gt_lua_open_lib (gt_lua.c:36)
            n1: 896 0x804E8C1: gtr_new (gtr.c:85)
             n0: 896 0x804D8BA: main (gt.c:29)
         n1: 896 0x80B2375: gt_lua_open_feature_node_iterator (feature_node_iterator_lua.c:108)
          n1: 896 0x810B5B1: gt_lua_open_extended (gtext_lua.c:40)
           n1: 896 0x810BC49: gt_lua_open_lib (gt_lua.c:37)
            n1: 896 0x804E8C1: gtr_new (gtr.c:85)
             n0: 896 0x804D8BA: main (gt.c:29)
         n1: 896 0x810B49A: gt_lua_open_genome_node (genome_node_lua.c:366)
          n1: 896 0x810B5B9: gt_lua_open_extended (gtext_lua.c:41)
           n1: 896 0x810BC49: gt_lua_open_lib (gt_lua.c:37)
            n1: 896 0x804E8C1: gtr_new (gtr.c:85)
             n0: 896 0x804D8BA: main (gt.c:29)
       n2: 896 0x820FB06: luaL_newmetatable (lauxlib.c:119)
        n1: 896 0x80B1FC9: gt_lua_open_genome_visitor (genome_visitor_lua.c:57)
         n1: 896 0x810B5C9: gt_lua_open_extended (gtext_lua.c:43)
          n1: 896 0x810BC49: gt_lua_open_lib (gt_lua.c:37)
           n1: 896 0x804E8C1: gtr_new (gtr.c:85)
            n0: 896 0x804D8BA: main (gt.c:29)
        n0: 0 in 3 places, all below massif's threshold (01.00%)
       n0: 784 in 24 places, all below massif's threshold (01.00%)
      n0: 728 in 1 place, below massif's threshold (01.00%)
     n0: 28 in 1 place, below massif's threshold (01.00%)
   n2: 6776 0x81FE570: lua_pushcclosure (lfunc.c:24)
    n2: 5960 0x82100C6: luaL_openlib (lauxlib.c:264)
     n1: 5840 0x8210141: luaL_register (lauxlib.c:231)
      n0: 5840 in 42 places, all below massif's threshold (01.00%)
     n0: 120 in 2 places, all below massif's threshold (01.00%)
    n0: 816 in 33 places, all below massif's threshold (01.00%)
   n2: 4956 0x8200BBE: luaH_new (ltable.c:284)
    n2: 4956 0x8200E02: lua_createtable (lapi.c:581)
     n2: 4732 0x820115F: luaL_findtable (lauxlib.c:368)
      n2: 4732 0x820FFFF: luaL_openlib (lauxlib.c:252)
       n3: 4704 0x8210141: luaL_register (lauxlib.c:231)
        n0: 2912 in 9 places, all below massif's threshold (01.00%)
        n1: 896 0x8210780: luaopen_math (lmathlib.c:252)
         n1: 896 0x8202D47: luaD_precall (ldo.c:319)
          n1: 896 0x81F74C8: luaD_call (ldo.c:376)
           n1: 896 0x81F759D: lua_call (lapi.c:782)
            n1: 896 0x81FE6A3: luaL_openlibs (linit.c:35)
             n1: 896 0x804E8B6: gtr_new (gtr.c:84)
              n0: 896 0x804D8BA: main (gt.c:29)
        n1: 896 0x822060C: luaopen_lpeg (lpeg.c:2399)
         n1: 896 0x804E8D7: gtr_new (gtr.c:87)
          n0: 896 0x804D8BA: main (gt.c:29)
       n0: 28 in 2 places, all below massif's threshold (01.00%)
      n0: 0 in 1 place, below massif's threshold (01.00%)
     n0: 224 in 6 places, all below massif's threshold (01.00%)
    n0: 0 in 2 places, all below massif's threshold (01.00%)
   n1: 2048 0x81F839F: luaS_resize (lstring.c:28)
    n2: 2048 0x81F8550: luaS_newlstr (lstring.c:70)
     n1: 2048 0x820F862: lua_getfield (lapi.c:550)
      n1: 2048 0x820FAA2: luaL_newmetatable (lauxlib.c:113)
       n1: 2048 0x810B923: gt_lua_open_encseq (encseq_lua.c:1023)
        n1: 2048 0x810BB51: gt_lua_open_core (gtcore_lua.c:39)
         n1: 2048 0x810BC41: gt_lua_open_lib (gt_lua.c:36)
          n1: 2048 0x804E8C1: gtr_new (gtr.c:85)
           n0: 2048 0x804D8BA: main (gt.c:29)
     n0: 0 in 2 places, all below massif's threshold (01.00%)
   n2: 1504 0x8200A1D: luaH_new (ltable.c:359)
    n1: 1440 0x8200E02: lua_createtable (lapi.c:581)
     n0: 1440 in 11 places, all below massif's threshold (01.00%)
    n0: 64 in 2 places, all below massif's threshold (01.00%)
   n0: 828 in 5 places, all below massif's threshold (01.00%)
  n0: 348 in 1 place, below massif's threshold (01.00%)
 n1: 8200 0x80EBF86: gt_error_new (error.c:32)
  n0: 8200 0x804D89F: main (gt.c:27)
 n0: 3507 in 38 places, all below massif's threshold (01.00%)
 n3: 3456 0x80E798C: gt_ht_reinit (hashtable.c:103)
  n1: 2432 0x80E7FB9: gt_ht_resize (hashtable.c:128)
   n2: 2432 0x80E88F2: gt_hashtable_add (hashtable.c:246)
    n3: 2304 0x80E89F9: gt_hashmap_add (hashmap.c:90)
     n1: 1024 0x80F3992: gt_toolbox_add (toolbox.c:99)
      n1: 1024 0x804F4CE: gtt_tools (gtt.c:186)
       n1: 1024 0x804E3EC: gtr_register_components (gtr.c:199)
        n0: 1024 0x804D8CC: main (gt.c:34)
     n1: 1024 0x804EECB: gtt_unit_tests (gtt.c:263)
      n1: 1024 0x804E3FF: gtr_register_components (gtr.c:202)
       n0: 1024 0x804D8CC: main (gt.c:34)
     n0: 256 in 5 places, all below massif's threshold (01.00%)
    n0: 128 in 1 place, below massif's threshold (01.00%)
  n1: 768 0x81166B2: gt_hashtable_new_with_start_size (hashtable.c:128)
   n1: 768 0x8116756: gt_hashtable_new (hashtable.c:90)
    n0: 768 in 2 places, all below massif's threshold (01.00%)
  n0: 256 in 1 place, below massif's threshold (01.00%)
 n2: 2368 0x8101508: gt_genome_node_create (genome_node.c:152)
  n1: 2368 0x814B834: gt_feature_node_new (feature_node.c:210)
   n2: 2368 0x8181E66: gt_gff3_parser_parse_genome_nodes (gff3_parser.c:1153)
    n1: 1344 0x8182C22: gff3_in_stream_plain_next (gff3_in_stream_plain.c:150)
     n1: 1344 0x814DC84: gt_node_stream_next (node_stream.c:94)
      n1: 1344 0x814EFF7: add_ids_stream_next (add_ids_stream.c:60)
       n1: 1344 0x814DC84: gt_node_stream_next (node_stream.c:94)
        n1: 1344 0x814EDAE: cds_check_stream_next (cds_check_stream.c:38)
         n1: 1344 0x814DC84: gt_node_stream_next (node_stream.c:94)
          n1: 1344 0x814ECDE: gff3_in_stream_next (gff3_in_stream.c:40)
           n1: 1344 0x814DC84: gt_node_stream_next (node_stream.c:94)
            n1: 1344 0x814E250: gt_node_stream_pull (node_stream.c:116)
             n1: 1344 0x805907D: gt_gff3_runner (gt_gff3.c:276)
              n1: 1344 0x81C4930: gt_tool_run (tool.c:88)
               n1: 1344 0x804E2C6: gtr_run (gtr.c:357)
                n0: 1344 0x804D969: main (gt.c:39)
    n1: 1024 0x8182BDB: gff3_in_stream_plain_next (gff3_in_stream_plain.c:142)
     n1: 1024 0x814DC84: gt_node_stream_next (node_stream.c:94)
      n1: 1024 0x814EFF7: add_ids_stream_next (add_ids_stream.c:60)
       n1: 1024 0x814DC84: gt_node_stream_next (node_stream.c:94)
        n1: 1024 0x814EDAE: cds_check_stream_next (cds_check_stream.c:38)
         n1: 1024 0x814DC84: gt_node_stream_next (node_stream.c:94)
          n1: 1024 0x814ECDE: gff3_in_stream_next (gff3_in_stream.c:40)
           n1: 1024 0x814DC84: gt_node_stream_next (node_stream.c:94)
            n1: 1024 0x814E250: gt_node_stream_pull (node_stream.c:116)
             n1: 1024 0x805907D: gt_gff3_runner (gt_gff3.c:276)
              n1: 1024 0x81C4930: gt_tool_run (tool.c:88)
               n1: 1024 0x804E2C6: gtr_run (gtr.c:357)
                n0: 1024 0x804D969: main (gt.c:39)
  n0: 0 in 1 place, below massif's threshold (01.00%)
 n1: 2201 0x80E6B80: gt_tag_value_map_add (tag_value_map.c:97)
  n1: 2201 0x80FD8A7: gt_feature_node_add_attribute (feature_node.c:574)
   n1: 2201 0x8181564: parse_attributes (gff3_parser.c:989)
    n2: 2201 0x8181EFF: gt_gff3_parser_parse_genome_nodes (gff3_parser.c:1166)
     n1: 1254 0x8182C22: gff3_in_stream_plain_next (gff3_in_stream_plain.c:150)
      n1: 1254 0x814DC84: gt_node_stream_next (node_stream.c:94)
       n1: 1254 0x814EFF7: add_ids_stream_next (add_ids_stream.c:60)
        n1: 1254 0x814DC84: gt_node_stream_next (node_stream.c:94)
         n1: 1254 0x814EDAE: cds_check_stream_next (cds_check_stream.c:38)
          n1: 1254 0x814DC84: gt_node_stream_next (node_stream.c:94)
           n1: 1254 0x814ECDE: gff3_in_stream_next (gff3_in_stream.c:40)
            n1: 1254 0x814DC84: gt_node_stream_next (node_stream.c:94)
             n1: 1254 0x814E250: gt_node_stream_pull (node_stream.c:116)
              n1: 1254 0x805907D: gt_gff3_runner (gt_gff3.c:276)
               n1: 1254 0x81C4930: gt_tool_run (tool.c:88)
                n1: 1254 0x804E2C6: gtr_run (gtr.c:357)
                 n0: 1254 0x804D969: main (gt.c:39)
     n1: 947 0x8182BDB: gff3_in_stream_plain_next (gff3_in_stream_plain.c:142)
      n1: 947 0x814DC84: gt_node_stream_next (node_stream.c:94)
       n1: 947 0x814EFF7: add_ids_stream_next (add_ids_stream.c:60)
        n1: 947 0x814DC84: gt_node_stream_next (node_stream.c:94)
         n1: 947 0x814EDAE: cds_check_stream_next (cds_check_stream.c:38)
          n1: 947 0x814DC84: gt_node_stream_next (node_stream.c:94)
           n1: 947 0x814ECDE: gff3_in_stream_next (gff3_in_stream.c:40)
            n1: 947 0x814DC84: gt_node_stream_next (node_stream.c:94)
             n1: 947 0x814E250: gt_node_stream_pull (node_stream.c:116)
              n1: 947 0x805907D: gt_gff3_runner (gt_gff3.c:276)
               n1: 947 0x81C4930: gt_tool_run (tool.c:88)
                n1: 947 0x804E2C6: gtr_run (gtr.c:357)
                 n0: 947 0x804D969: main (gt.c:39)
 n2: 1856 0x80E79E0: gt_ht_reinit (hashtable.c:112)
  n1: 1280 0x80E7FB9: gt_ht_resize (hashtable.c:128)
   n2: 1280 0x80E88F2: gt_hashtable_add (hashtable.c:246)
    n1: 1152 0x80E89F9: gt_hashmap_add (hashmap.c:90)
     n0: 1152 in 7 places, all below massif's threshold (01.00%)
    n0: 128 in 1 place, below massif's threshold (01.00%)
  n0: 576 in 2 places, all below massif's threshold (01.00%)
 n1: 840 0x81015F4: gt_tool_new (tool.c:41)
  n0: 840 in 41 places, all below massif's threshold (01.00%)
 n1: 832 0x8116627: gt_hashtable_new_with_start_size (hashtable.c:142)
  n1: 832 0x8116756: gt_hashtable_new (hashtable.c:90)
   n0: 832 in 2 places, all below massif's threshold (01.00%)
#-----------
snapshot=31
#-----------
time=15795154874
mem_heap_B=58149
mem_heap_extra_B=12995
mem_stacks_B=0
heap_tree=empty
#-----------
snapshot=32
#-----------
time=16188677076
mem_heap_B=60091
mem_heap_extra_B=13437
mem_stacks_B=0
heap_tree=empty
#-----------
snapshot=33
#-----------
time=16975711157
mem_heap_B=58860
mem_heap_extra_B=13220
mem_stacks_B=0
heap_tree=empty
#-----------
snapshot=34
#-----------
time=17369229660
mem_heap_B=59961
mem_heap_extra_B=13439
mem_stacks_B=0
heap_tree=detailed
n9: 59961 (heap allocation functions) malloc/new/new[], --alloc-fns, etc.
 n2: 37926 0x81F1616: l_alloc (lauxlib.c:635)
  n7: 37578 0x81F823D: luaM_realloc_ (lmem.c:79)
   n4: 10742 0x81F84B8: luaS_newlstr (lstring.c:56)
    n2: 7672 0x81FCE72: lua_setfield (lapi.c:664)
     n2: 6912 0x82100DE: luaL_openlib (lauxlib.c:265)
      n1: 6825 0x8210141: luaL_register (lauxlib.c:231)
       n0: 6825 in 40 places, all below massif's threshold (01.00%)
      n0: 87 in 1 place, below massif's threshold (01.00%)
     n0: 760 in 19 places, all below massif's threshold (01.00%)
    n1: 1279 0x81FD982: lua_pushlstring (lapi.c:448)
     n0: 1279 in 17 places, all below massif's threshold (01.00%)
    n2: 932 0x820F862: lua_getfield (lapi.c:550)
     n1: 799 0x820FAA2: luaL_newmetatable (lauxlib.c:113)
      n0: 799 in 21 places, all below massif's threshold (01.00%)
     n0: 133 in 1 place, below massif's threshold (01.00%)
    n0: 859 in 19 places, all below massif's threshold (01.00%)
   n1: 10724 0x81FB209: resize (ltable.c:284)
    n2: 10724 0x81FBD7B: newkey (ltable.c:348)
     n2: 10696 0x81FCA9D: luaV_settable (ltable.c:503)
      n3: 9968 0x81FCE95: lua_setfield (lapi.c:665)
       n1: 8288 0x82100DE: luaL_openlib (lauxlib.c:265)
        n6: 8288 0x8210141: luaL_register (lauxlib.c:231)
         n0: 2912 in 15 places, all below massif's threshold (01.00%)
         n1: 1792 0x82103E3: luaopen_package (loadlib.c:662)
          n1: 1792 0x8202D47: luaD_precall (ldo.c:319)
           n1: 1792 0x81F74C8: luaD_call (ldo.c:376)
            n1: 1792 0x81F759D: lua_call (lapi.c:782)
             n1: 1792 0x81FE6A3: luaL_openlibs (linit.c:35)
              n1: 1792 0x804E8B6: gtr_new (gtr.c:84)
               n0: 1792 0x804D8BA: main (gt.c:29)
         n1: 896 0x810B740: gt_lua_open_encseq (encseq_lua.c:994)
          n1: 896 0x810BB51: gt_lua_open_core (gtcore_lua.c:39)
           n1: 896 0x810BC41: gt_lua_open_lib (gt_lua.c:36)
            n1: 896 0x804E8C1: gtr_new (gtr.c:85)
             n0: 896 0x804D8BA: main (gt.c:29)
         n1: 896 0x810B8FF: gt_lua_open_encseq (encseq_lua.c:1020)
          n1: 896 0x810BB51: gt_lua_open_core (gtcore_lua.c:39)
           n1: 896 0x810BC41: gt_lua_open_lib (gt_lua.c:36)
            n1: 896 0x804E8C1: gtr_new (gtr.c:85)
             n0: 896 0x804D8BA: main (gt.c:29)
         n1: 896 0x80B2375: gt_lua_open_feature_node_iterator (feature_node_iterator_lua.c:108)
          n1: 896 0x810B5B1: gt_lua_open_extended (gtext_lua.c:40)
           n1: 896 0x810BC49: gt_lua_open_lib (gt_lua.c:37)
            n1: 896 0x804E8C1: gtr_new (gtr.c:85)
             n0: 896 0x804D8BA: main (gt.c:29)
         n1: 896 0x810B49A: gt_lua_open_genome_node (genome_node_lua.c:366)
          n1: 896 0x810B5B9: gt_lua_open_extended (gtext_lua.c:41)
           n1: 896 0x810BC49: gt_lua_open_lib (gt_lua.c:37)
            n1: 896 0x804E8C1: gtr_new (gtr.c:85)
             n0: 896 0x804D8BA: main (gt.c:29)
       n2: 896 0x820FB06: luaL_newmetatable (lauxlib.c:119)
        n1: 896 0x80B1FC9: gt_lua_open_genome_visitor (genome_visitor_lua.c:57)
         n1: 896 0x810B5C9: gt_lua_open_extended (gtext_lua.c:43)
          n1: 896 0x810BC49: gt_lua_open_lib (gt_lua.c:37)
           n1: 896 0x804E8C1: gtr_new (gtr.c:85)
            n0: 896 0x804D8BA: main (gt.c:29)
        n0: 0 in 3 places, all below massif's threshold (01.00%)
       n0: 784 in 24 places, all below massif's threshold (01.00%)
      n0: 728 in 1 place, below massif's threshold (01.00%)
     n0: 28 in 1 place, below massif's threshold (01.00%)
   n2: 6776 0x81FE570: lua_pushcclosure (lfunc.c:24)
    n2: 5960 0x82100C6: luaL_openlib (lauxlib.c:264)
     n1: 5840 0x8210141: luaL_register (lauxlib.c:231)
      n0: 5840 in 42 places, all below massif's threshold (01.00%)
     n0: 120 in 2 places, all below massif's threshold (01.00%)
    n0: 816 in 33 places, all below massif's threshold (01.00%)
   n2: 4956 0x8200BBE: luaH_new (ltable.c:284)
    n2: 4956 0x8200E02: lua_createtable (lapi.c:581)
     n2: 4732 0x820115F: luaL_findtable (lauxlib.c:368)
      n2: 4732 0x820FFFF: luaL_openlib (lauxlib.c:252)
       n3: 4704 0x8210141: luaL_register (lauxlib.c:231)
        n0: 2912 in 9 places, all below massif's threshold (01.00%)
        n1: 896 0x8210780: luaopen_math (lmathlib.c:252)
         n1: 896 0x8202D47: luaD_precall (ldo.c:319)
          n1: 896 0x81F74C8: luaD_call (ldo.c:376)
           n1: 896 0x81F759D: lua_call (lapi.c:782)
            n1: 896 0x81FE6A3: luaL_openlibs (linit.c:35)
             n1: 896 0x804E8B6: gtr_new (gtr.c:84)
              n0: 896 0x804D8BA: main (gt.c:29)
        n1: 896 0x822060C: luaopen_lpeg (lpeg.c:2399)
         n1: 896 0x804E8D7: gtr_new (gtr.c:87)
          n0: 896 0x804D8BA: main (gt.c:29)
       n0: 28 in 2 places, all below massif's threshold (01.00%)
      n0: 0 in 1 place, below massif's threshold (01.00%)
     n0: 224 in 6 places, all below massif's threshold (01.00%)
    n0: 0 in 2 places, all below massif's threshold (01.00%)
   n1: 2048 0x81F839F: luaS_resize (lstring.c:28)
    n2: 2048 0x81F8550: luaS_newlstr (lstring.c:70)
     n1: 2048 0x820F862: lua_getfield (lapi.c:550)
      n1: 2048 0x820FAA2: luaL_newmetatable (lauxlib.c:113)
       n1: 2048 0x810B923: gt_lua_open_encseq (encseq_lua.c:1023)
        n1: 2048 0x810BB51: gt_lua_open_core (gtcore_lua.c:39)
         n1: 2048 0x810BC41: gt_lua_open_lib (gt_lua.c:36)
          n1: 2048 0x804E8C1: gtr_new (gtr.c:85)
           n0: 2048 0x804D8BA: main (gt.c:29)
     n0: 0 in 2 places, all below massif's threshold (01.00%)
   n2: 1504 0x8200A1D: luaH_new (ltable.c:359)
    n1: 1440 0x8200E02: lua_createtable (lapi.c:581)
     n0: 1440 in 11 places, all below massif's threshold (01.00%)
    n0: 64 in 2 places, all below massif's threshold (01.00%)
   n0: 828 in 5 places, all below massif's threshold (01.00%)
  n0: 348 in 1 place, below massif's threshold (01.00%)
 n1: 8200 0x80EBF86: gt_error_new (error.c:32)
  n0: 8200 0x804D89F: main (gt.c:27)
 n3: 3456 0x80E798C: gt_ht_reinit (hashtable.c:103)
  n1: 2432 0x80E7FB9: gt_ht_resize (hashtable.c:128)
   n2: 2432 0x80E88F2: gt_hashtable_add (hashtable.c:246)
    n3: 2304 0x80E89F9: gt_hashmap_add (hashmap.c:90)
     n1: 1024 0x80F3992: gt_toolbox_add (toolbox.c:99)
      n1: 1024 0x804F4CE: gtt_tools (gtt.c:186)
       n1: 1024 0x804E3EC: gtr_register_components (gtr.c:199)
        n0: 1024 0x804D8CC: main (gt.c:34)
     n1: 1024 0x804EECB: gtt_unit_tests (gtt.c:263)
      n1: 1024 0x804E3FF: gtr_register_components (gtr.c:202)
       n0: 1024 0x804D8CC: main (gt.c:34)
     n0: 256 in 5 places, all below massif's threshold (01.00%)
    n0: 128 in 1 place, below massif's threshold (01.00%)
  n1: 768 0x81166B2: gt_hashtable_new_with_start_size (hashtable.c:128)
   n1: 768 0x8116756: gt_hashtable_new (hashtable.c:90)
    n0: 768 in 2 places, all below massif's threshold (01.00%)
  n0: 256 in 1 place, below massif's threshold (01.00%)
 n0: 3403 in 38 places, all below massif's threshold (01.00%)
 n2: 1856 0x80E79E0: gt_ht_reinit (hashtable.c:112)
  n1: 1280 0x80E7FB9: gt_ht_resize (hashtable.c:128)
   n2: 1280 0x80E88F2: gt_hashtable_add (hashtable.c:246)
    n1: 1152 0x80E89F9: gt_hashmap_add (hashmap.c:90)
     n0: 1152 in 7 places, all below massif's threshold (01.00%)
    n0: 128 in 1 place, below massif's threshold (01.00%)
  n0: 576 in 2 places, all below massif's threshold (01.00%)
 n2: 1792 0x8101508: gt_genome_node_create (genome_node.c:152)
  n1: 1792 0x814B834: gt_feature_node_new (feature_node.c:210)
   n2: 1792 0x8181E66: gt_gff3_parser_parse_genome_nodes (gff3_parser.c:1153)
    n1: 960 0x8182C22: gff3_in_stream_plain_next (gff3_in_stream_plain.c:150)
     n1: 960 0x814DC84: gt_node_stream_next (node_stream.c:94)
      n1: 960 0x814EFF7: add_ids_stream_next (add_ids_stream.c:60)
       n1: 960 0x814DC84: gt_node_stream_next (node_stream.c:94)
        n1: 960 0x814EDAE: cds_check_stream_next (cds_check_stream.c:38)
         n1: 960 0x814DC84: gt_node_stream_next (node_stream.c:94)
          n1: 960 0x814ECDE: gff3_in_stream_next (gff3_in_stream.c:40)
           n1: 960 0x814DC84: gt_node_stream_next (node_stream.c:94)
            n1: 960 0x814E250: gt_node_stream_pull (node_stream.c:116)
             n1: 960 0x805907D: gt_gff3_runner (gt_gff3.c:276)
              n1: 960 0x81C4930: gt_tool_run (tool.c:88)
               n1: 960 0x804E2C6: gtr_run (gtr.c:357)
                n0: 960 0x804D969: main (gt.c:39)
    n1: 832 0x8182BDB: gff3_in_stream_plain_next (gff3_in_stream_plain.c:142)
     n1: 832 0x814DC84: gt_node_stream_next (node_stream.c:94)
      n1: 832 0x814EFF7: add_ids_stream_next (add_ids_stream.c:60)
       n1: 832 0x814DC84: gt_node_stream_next (node_stream.c:94)
        n1: 832 0x814EDAE: cds_check_stream_next (cds_check_stream.c:38)
         n1: 832 0x814DC84: gt_node_stream_next (node_stream.c:94)
          n1: 832 0x814ECDE: gff3_in_stream_next (gff3_in_stream.c:40)
           n1: 832 0x814DC84: gt_node_stream_next (node_stream.c:94)
            n1: 832 0x814E250: gt_node_stream_pull (node_stream.c:116)
             n1: 832 0x805907D: gt_gff3_runner (gt_gff3.c:276)
              n1: 832 0x81C4930: gt_tool_run (tool.c:88)
               n1: 832 0x804E2C6: gtr_run (gtr.c:357)
                n0: 832 0x804D969: main (gt.c:39)
  n0: 0 in 1 place, below massif's threshold (01.00%)
 n1: 1656 0x80E6B80: gt_tag_value_map_add (tag_value_map.c:97)
  n1: 1656 0x80FD8A7: gt_feature_node_add_attribute (feature_node.c:574)
   n1: 1656 0x8181564: parse_attributes (gff3_parser.c:989)
    n2: 1656 0x8181EFF: gt_gff3_parser_parse_genome_nodes (gff3_parser.c:1166)
     n1: 883 0x8182C22: gff3_in_stream_plain_next (gff3_in_stream_plain.c:150)
      n1: 883 0x814DC84: gt_node_stream_next (node_stream.c:94)
       n1: 883 0x814EFF7: add_ids_stream_next (add_ids_stream.c:60)
        n1: 883 0x814DC84: gt_node_stream_next (node_stream.c:94)
         n1: 883 0x814EDAE: cds_check_stream_next (cds_check_stream.c:38)
          n1: 883 0x814DC84: gt_node_stream_next (node_stream.c:94)
           n1: 883 0x814ECDE: gff3_in_stream_next (gff3_in_stream.c:40)
            n1: 883 0x814DC84: gt_node_stream_next (node_stream.c:94)
             n1: 883 0x814E250: gt_node_stream_pull (node_stream.c:116)
              n1: 883 0x805907D: gt_gff3_runner (gt_gff3.c:276)
               n1: 883 0x81C4930: gt_tool_run (tool.c:88)
                n1: 883 0x804E2C6: gtr_run (gtr.c:357)
                 n0: 883 0x804D969: main (gt.c:39)
     n1: 773 0x8182BDB: gff3_in_stream_plain_next (gff3_in_stream_plain.c:142)
      n1: 773 0x814DC84: gt_node_stream_next (node_stream.c:94)
       n1: 773 0x814EFF7: add_ids_stream_next (add_ids_stream.c:60)
        n1: 773 0x814DC84: gt_node_stream_next (node_stream.c:94)
         n1: 773 0x814EDAE: cds_check_stream_next (cds_check_stream.c:38)
          n1: 773 0x814DC84: gt_node_stream_next (node_stream.c:94)
           n1: 773 0x814ECDE: gff3_in_stream_next (gff3_in_stream.c:40)
            n1: 773 0x814DC84: gt_node_stream_next (node_stream.c:94)
             n1: 773 0x814E250: gt_node_stream_pull (node_stream.c:116)
              n1: 773 0x805907D: gt_gff3_runner (gt_gff3.c:276)
               n1: 773 0x81C4930: gt_tool_run (tool.c:88)
                n1: 773 0x804E2C6: gtr_run (gtr.c:357)
                 n0: 773 0x804D969: main (gt.c:39)
 n1: 840 0x81015F4: gt_tool_new (tool.c:41)
  n0: 840 in 41 places, all below massif's threshold (01.00%)
 n1: 832 0x8116627: gt_hashtable_new_with_start_size (hashtable.c:142)
  n1: 832 0x8116756: gt_hashtable_new (hashtable.c:90)
   n0: 832 in 2 places, all below massif's threshold (01.00%)
#-----------
snapshot=35
#-----------
time=17762750933
mem_heap_B=58873
mem_heap_extra_B=13199
mem_stacks_B=0
heap_tree=empty
#-----------
snapshot=36
#-----------
time=18353033646
mem_heap_B=58578
mem_heap_extra_B=13126
mem_stacks_B=0
heap_tree=empty
#-----------
snapshot=37
#-----------
time=18746560687
mem_heap_B=58634
mem_heap_extra_B=13126
mem_stacks_B=0
heap_tree=empty
#-----------
snapshot=38
#-----------
time=19140079122
mem_heap_B=59247
mem_heap_extra_B=13361
mem_stacks_B=0
heap_tree=empty
#-----------
snapshot=39
#-----------
time=19730366943
mem_heap_B=57858
mem_heap_extra_B=12934
mem_stacks_B=0
heap_tree=empty
#-----------
snapshot=40
#-----------
time=20123891231
mem_heap_B=58449
mem_heap_extra_B=13119
mem_stacks_B=0
heap_tree=empty
#-----------
snapshot=41
#-----------
time=20517413688
mem_heap_B=58714
mem_heap_extra_B=13222
mem_stacks_B=0
heap_tree=empty
#-----------
snapshot=42
#-----------
time=21107698624
mem_heap_B=58909
mem_heap_extra_B=13227
mem_stacks_B=0
heap_tree=empty
#-----------
snapshot=43
#-----------
time=21501216365
mem_heap_B=59815
mem_heap_extra_B=13401
mem_stacks_B=0
heap_tree=empty
#-----------
snapshot=44
#-----------
time=21894739058
mem_heap_B=59543
mem_heap_extra_B=13321
mem_stacks_B=0
heap_tree=empty
#-----------
snapshot=45
#-----------
time=22288260012
mem_heap_B=59263
mem_heap_extra_B=13265
mem_stacks_B=0
heap_tree=empty
#-----------
snapshot=46
#-----------
time=23046767873
mem_heap_B=64753
mem_heap_extra_B=14759
mem_stacks_B=0
heap_tree=peak
n9: 64753 (heap allocation functions) malloc/new/new[], --alloc-fns, etc.
 n2: 37926 0x81F1616: l_alloc (lauxlib.c:635)
  n7: 37578 0x81F823D: luaM_realloc_ (lmem.c:79)
   n4: 10742 0x81F84B8: luaS_newlstr (lstring.c:56)
    n2: 7672 0x81FCE72: lua_setfield (lapi.c:664)
     n2: 6912 0x82100DE: luaL_openlib (lauxlib.c:265)
      n1: 6825 0x8210141: luaL_register (lauxlib.c:231)
       n0: 6825 in 40 places, all below massif's threshold (01.00%)
      n0: 87 in 1 place, below massif's threshold (01.00%)
     n0: 760 in 19 places, all below massif's threshold (01.00%)
    n1: 1279 0x81FD982: lua_pushlstring (lapi.c:448)
     n0: 1279 in 17 places, all below massif's threshold (01.00%)
    n2: 932 0x820F862: lua_getfield (lapi.c:550)
     n1: 799 0x820FAA2: luaL_newmetatable (lauxlib.c:113)
      n0: 799 in 21 places, all below massif's threshold (01.00%)
     n0: 133 in 1 place, below massif's threshold (01.00%)
    n0: 859 in 19 places, all below massif's threshold (01.00%)
   n1: 10724 0x81FB209: resize (ltable.c:284)
    n2: 10724 0x81FBD7B: newkey (ltable.c:348)
     n2: 10696 0x81FCA9D: luaV_settable (ltable.c:503)
      n3: 9968 0x81FCE95: lua_setfield (lapi.c:665)
       n1: 8288 0x82100DE: luaL_openlib (lauxlib.c:265)
        n6: 8288 0x8210141: luaL_register (lauxlib.c:231)
         n0: 2912 in 15 places, all below massif's threshold (01.00%)
         n1: 1792 0x82103E3: luaopen_package (loadlib.c:662)
          n1: 1792 0x8202D47: luaD_precall (ldo.c:319)
           n1: 1792 0x81F74C8: luaD_call (ldo.c:376)
            n1: 1792 0x81F759D: lua_call (lapi.c:782)
             n1: 1792 0x81FE6A3: luaL_openlibs (linit.c:35)
              n1: 1792 0x804E8B6: gtr_new (gtr.c:84)
               n0: 1792 0x804D8BA: main (gt.c:29)
         n1: 896 0x810B740: gt_lua_open_encseq (encseq_lua.c:994)
          n1: 896 0x810BB51: gt_lua_open_core (gtcore_lua.c:39)
           n1: 896 0x810BC41: gt_lua_open_lib (gt_lua.c:36)
            n1: 896 0x804E8C1: gtr_new (gtr.c:85)
             n0: 896 0x804D8BA: main (gt.c:29)
         n1: 896 0x810B8FF: gt_lua_open_encseq (encseq_lua.c:1020)
          n1: 896 0x810BB51: gt_lua_open_core (gtcore_lua.c:39)
           n1: 896 0x810BC41: gt_lua_open_lib (gt_lua.c:36)
            n1: 896 0x804E8C1: gtr_new (gtr.c:85)
             n0: 896 0x804D8BA: main (gt.c:29)
         n1: 896 0x80B2375: gt_lua_open_feature_node_iterator (feature_node_iterator_lua.c:108)
          n1: 896 0x810B5B1: gt_lua_open_extended (gtext_lua.c:40)
           n1: 896 0x810BC49: gt_lua_open_lib (gt_lua.c:37)
            n1: 896 0x804E8C1: gtr_new (gtr.c:85)
             n0: 896 0x804D8BA: main (gt.c:29)
         n1: 896 0x810B49A: gt_lua_open_genome_node (genome_node_lua.c:366)
          n1: 896 0x810B5B9: gt_lua_open_extended (gtext_lua.c:41)
           n1: 896 0x810BC49: gt_lua_open_lib (gt_lua.c:37)
            n1: 896 0x804E8C1: gtr_new (gtr.c:85)
             n0: 896 0x804D8BA: main (gt.c:29)
       n2: 896 0x820FB06: luaL_newmetatable (lauxlib.c:119)
        n1: 896 0x80B1FC9: gt_lua_open_genome_visitor (genome_visitor_lua.c:57)
         n1: 896 0x810B5C9: gt_lua_open_extended (gtext_lua.c:43)
          n1: 896 0x810BC49: gt_lua_open_lib (gt_lua.c:37)
           n1: 896 0x804E8C1: gtr_new (gtr.c:85)
            n0: 896 0x804D8BA: main (gt.c:29)
        n0: 0 in 3 places, all below massif's threshold (01.00%)
       n0: 784 in 24 places, all below massif's threshold (01.00%)
      n0: 728 in 1 place, below massif's threshold (01.00%)
     n0: 28 in 1 place, below massif's threshold (01.00%)
   n2: 6776 0x81FE570: lua_pushcclosure (lfunc.c:24)
    n2: 5960 0x82100C6: luaL_openlib (lauxlib.c:264)
     n1: 5840 0x8210141: luaL_register (lauxlib.c:231)
      n0: 5840 in 42 places, all below massif's threshold (01.00%)
     n0: 120 in 2 places, all below massif's threshold (01.00%)
    n0: 816 in 33 places, all below massif's threshold (01.00%)
   n2: 4956 0x8200BBE: luaH_new (ltable.c:284)
    n2: 4956 0x8200E02: lua_createtable (lapi.c:581)
     n2: 4732 0x820115F: luaL_findtable (lauxlib.c:368)
      n2: 4732 0x820FFFF: luaL_openlib (lauxlib.c:252)
       n3: 4704 0x8210141: luaL_register (lauxlib.c:231)
        n0: 2912 in 9 places, all below massif's threshold (01.00%)
        n1: 896 0x8210780: luaopen_math (lmathlib.c:252)
         n1: 896 0x8202D47: luaD_precall (ldo.c:319)
          n1: 896 0x81F74C8: luaD_call (ldo.c:376)
           n1: 896 0x81F759D: lua_call (lapi.c:782)
            n1: 896 0x81FE6A3: luaL_openlibs (linit.c:35)
             n1: 896 0x804E8B6: gtr_new (gtr.c:84)
              n0: 896 0x804D8BA: main (gt.c:29)
        n1: 896 0x822060C: luaopen_lpeg (lpeg.c:2399)
         n1: 896 0x804E8D7: gtr_new (gtr.c:87)
          n0: 896 0x804D8BA: main (gt.c:29)
       n0: 28 in 2 places, all below massif's threshold (01.00%)
      n0: 0 in 1 place, below massif's threshold (01.00%)
     n0: 224 in 6 places, all below massif's threshold (01.00%)
    n0: 0 in 2 places, all below massif's threshold (01.00%)
   n1: 2048 0x81F839F: luaS_resize (lstring.c:28)
    n2: 2048 0x81F8550: luaS_newlstr (lstring.c:70)
     n1: 2048 0x820F862: lua_getfield (lapi.c:550)
      n1: 2048 0x820FAA2: luaL_newmetatable (lauxlib.c:113)
       n1: 2048 0x810B923: gt_lua_open_encseq (encseq_lua.c:1023)
        n1: 2048 0x810BB51: gt_lua_open_core (gtcore_lua.c:39)
         n1: 2048 0x810BC41: gt_lua_open_lib (gt_lua.c:36)
          n1: 2048 0x804E8C1: gtr_new (gtr.c:85)
           n0: 2048 0x804D8BA: main (gt.c:29)
     n0: 0 in 2 places, all below massif's threshold (01.00%)
   n2: 1504 0x8200A1D: luaH_new (ltable.c:359)
    n1: 1440 0x8200E02: lua_createtable (lapi.c:581)
     n0: 1440 in 11 places, all below massif's threshold (01.00%)
    n0: 64 in 2 places, all below massif's threshold (01.00%)
   n0: 828 in 5 places, all below massif's threshold (01.00%)
  n0: 348 in 1 place, below massif's threshold (01.00%)
 n1: 8200 0x80EBF86: gt_error_new (error.c:32)
  n0: 8200 0x804D89F: main (gt.c:27)
 n0: 4057 in 38 places, all below massif's threshold (01.00%)
 n2: 3904 0x8101508: gt_genome_node_create (genome_node.c:152)
  n1: 3904 0x814B834: gt_feature_node_new (feature_node.c:210)
   n2: 3904 0x8181E66: gt_gff3_parser_parse_genome_nodes (gff3_parser.c:1153)
    n1: 2176 0x8182C22: gff3_in_stream_plain_next (gff3_in_stream_plain.c:150)
     n1: 2176 0x814DC84: gt_node_stream_next (node_stream.c:94)
      n1: 2176 0x814EFF7: add_ids_stream_next (add_ids_stream.c:60)
       n1: 2176 0x814DC84: gt_node_stream_next (node_stream.c:94)
        n1: 2176 0x814EDAE: cds_check_stream_next (cds_check_stream.c:38)
         n1: 2176 0x814DC84: gt_node_stream_next (node_stream.c:94)
          n1: 2176 0x814ECDE: gff3_in_stream_next (gff3_in_stream.c:40)
           n1: 2176 0x814DC84: gt_node_stream_next (node_stream.c:94)
            n1: 2176 0x814E250: gt_node_stream_pull (node_stream.c:116)
             n1: 2176 0x805907D: gt_gff3_runner (gt_gff3.c:276)
              n1: 2176 0x81C4930: gt_tool_run (tool.c:88)
               n1: 2176 0x804E2C6: gtr_run (gtr.c:357)
                n0: 2176 0x804D969: main (gt.c:39)
    n1: 1728 0x8182BDB: gff3_in_stream_plain_next (gff3_in_stream_plain.c:142)
     n1: 1728 0x814DC84: gt_node_stream_next (node_stream.c:94)
      n1: 1728 0x814EFF7: add_ids_stream_next (add_ids_stream.c:60)
       n1: 1728 0x814DC84: gt_node_stream_next (node_stream.c:94)
        n1: 1728 0x814EDAE: cds_check_stream_next (cds_check_stream.c:38)
         n1: 1728 0x814DC84: gt_node_stream_next (node_stream.c:94)
          n1: 1728 0x814ECDE: gff3_in_stream_next (gff3_in_stream.c:40)
           n1: 1728 0x814DC84: gt_node_stream_next (node_stream.c:94)
            n1: 1728 0x814E250: gt_node_stream_pull (node_stream.c:116)
             n1: 1728 0x805907D: gt_gff3_runner (gt_gff3.c:276)
              n1: 1728 0x81C4930: gt_tool_run (tool.c:88)
               n1: 1728 0x804E2C6: gtr_run (gtr.c:357)
                n0: 1728 0x804D969: main (gt.c:39)
  n0: 0 in 1 place, below massif's threshold (01.00%)
 n1: 3682 0x80E6B80: gt_tag_value_map_add (tag_value_map.c:97)
  n1: 3682 0x80FD8A7: gt_feature_node_add_attribute (feature_node.c:574)
   n1: 3682 0x8181564: parse_attributes (gff3_parser.c:989)
    n2: 3682 0x8181EFF: gt_gff3_parser_parse_genome_nodes (gff3_parser.c:1166)
     n1: 2049 0x8182C22: gff3_in_stream_plain_next (gff3_in_stream_plain.c:150)
      n1: 2049 0x814DC84: gt_node_stream_next (node_stream.c:94)
       n1: 2049 0x814EFF7: add_ids_stream_next (add_ids_stream.c:60)
        n1: 2049 0x814DC84: gt_node_stream_next (node_stream.c:94)
         n1: 2049 0x814EDAE: cds_check_stream_next (cds_check_stream.c:38)
          n1: 2049 0x814DC84: gt_node_stream_next (node_stream.c:94)
           n1: 2049 0x814ECDE: gff3_in_stream_next (gff3_in_stream.c:40)
            n1: 2049 0x814DC84: gt_node_stream_next (node_stream.c:94)
             n1: 2049 0x814E250: gt_node_stream_pull (node_stream.c:116)
              n1: 2049 0x805907D: gt_gff3_runner (gt_gff3.c:276)
               n1: 2049 0x81C4930: gt_tool_run (tool.c:88)
                n1: 2049 0x804E2C6: gtr_run (gtr.c:357)
                 n0: 2049 0x804D969: main (gt.c:39)
     n1: 1633 0x8182BDB: gff3_in_stream_plain_next (gff3_in_stream_plain.c:142)
      n1: 1633 0x814DC84: gt_node_stream_next (node_stream.c:94)
       n1: 1633 0x814EFF7: add_ids_stream_next (add_ids_stream.c:60)
        n1: 1633 0x814DC84: gt_node_stream_next (node_stream.c:94)
         n1: 1633 0x814EDAE: cds_check_stream_next (cds_check_stream.c:38)
          n1: 1633 0x814DC84: gt_node_stream_next (node_stream.c:94)
           n1: 1633 0x814ECDE: gff3_in_stream_next (gff3_in_stream.c:40)
            n1: 1633 0x814DC84: gt_node_stream_next (node_stream.c:94)
             n1: 1633 0x814E250: gt_node_stream_pull (node_stream.c:116)
              n1: 1633 0x805907D: gt_gff3_runner (gt_gff3.c:276)
               n1: 1633 0x81C4930: gt_tool_run (tool.c:88)
                n1: 1633 0x804E2C6: gtr_run (gtr.c:357)
                 n0: 1633 0x804D969: main (gt.c:39)
 n2: 3456 0x80E798C: gt_ht_reinit (hashtable.c:103)
  n1: 2432 0x80E7FB9: gt_ht_resize (hashtable.c:128)
   n2: 2432 0x80E88F2: gt_hashtable_add (hashtable.c:246)
    n3: 2304 0x80E89F9: gt_hashmap_add (hashmap.c:90)
     n1: 1024 0x80F3992: gt_toolbox_add (toolbox.c:99)
      n1: 1024 0x804F4CE: gtt_tools (gtt.c:186)
       n1: 1024 0x804E3EC: gtr_register_components (gtr.c:199)
        n0: 1024 0x804D8CC: main (gt.c:34)
     n1: 1024 0x804EECB: gtt_unit_tests (gtt.c:263)
      n1: 1024 0x804E3FF: gtr_register_components (gtr.c:202)
       n0: 1024 0x804D8CC: main (gt.c:34)
     n0: 256 in 5 places, all below massif's threshold (01.00%)
    n0: 128 in 1 place, below massif's threshold (01.00%)
  n0: 1024 in 2 places, all below massif's threshold (01.00%)
 n2: 1856 0x80E79E0: gt_ht_reinit (hashtable.c:112)
  n1: 1280 0x80E7FB9: gt_ht_resize (hashtable.c:128)
   n2: 1280 0x80E88F2: gt_hashtable_add (hashtable.c:246)
    n1: 1152 0x80E89F9: gt_hashmap_add (hashmap.c:90)
     n0: 1152 in 7 places, all below massif's threshold (01.00%)
    n0: 128 in 1 place, below massif's threshold (01.00%)
  n0: 576 in 2 places, all below massif's threshold (01.00%)
 n1: 840 0x81015F4: gt_tool_new (tool.c:41)
  n0: 840 in 41 places, all below massif's threshold (01.00%)
 n1: 832 0x8116627: gt_hashtable_new_with_start_size (hashtable.c:142)
  n1: 832 0x8116756: gt_hashtable_new (hashtable.c:90)
   n0: 832 in 2 places, all below massif's threshold (01.00%)
#-----------
snapshot=47
#-----------
time=23440285489
mem_heap_B=60200
mem_heap_extra_B=13544
mem_stacks_B=0
heap_tree=empty
#-----------
snapshot=48
#-----------
time=24030568033
mem_heap_B=58783
mem_heap_extra_B=13161
mem_stacks_B=0
heap_tree=empty
#-----------
snapshot=49
#-----------
time=24424088085
mem_heap_B=59114
mem_heap_extra_B=13238
mem_stacks_B=0
heap_tree=empty
#-----------
snapshot=50
#-----------
time=24714572732
mem_heap_B=59937
mem_heap_extra_B=13503
mem_stacks_B=0
heap_tree=empty
#-----------
snapshot=51
#-----------
time=25005056537
mem_heap_B=58977
mem_heap_extra_B=13279
mem_stacks_B=0
heap_tree=empty
#-----------
snapshot=52
#-----------
time=25295542070
mem_heap_B=61222
mem_heap_extra_B=13794
mem_stacks_B=0
heap_tree=detailed
n9: 61222 (heap allocation functions) malloc/new/new[], --alloc-fns, etc.
 n2: 37926 0x81F1616: l_alloc (lauxlib.c:635)
  n7: 37578 0x81F823D: luaM_realloc_ (lmem.c:79)
   n4: 10742 0x81F84B8: luaS_newlstr (lstring.c:56)
    n2: 7672 0x81FCE72: lua_setfield (lapi.c:664)
     n2: 6912 0x82100DE: luaL_openlib (lauxlib.c:265)
      n1: 6825 0x8210141: luaL_register (lauxlib.c:231)
       n0: 6825 in 40 places, all below massif's threshold (01.00%)
      n0: 87 in 1 place, below massif's threshold (01.00%)
     n0: 760 in 19 places, all below massif's threshold (01.00%)
    n1: 1279 0x81FD982: lua_pushlstring (lapi.c:448)
     n0: 1279 in 17 places, all below massif's threshold (01.00%)
    n2: 932 0x820F862: lua_getfield (lapi.c:550)
     n1: 799 0x820FAA2: luaL_newmetatable (lauxlib.c:113)
      n0: 799 in 21 places, all below massif's threshold (01.00%)
     n0: 133 in 1 place, below massif's threshold (01.00%)
    n0: 859 in 19 places, all below massif's threshold (01.00%)
   n1: 10724 0x81FB209: resize (ltable.c:284)
    n2: 10724 0x81FBD7B: newkey (ltable.c:348)
     n2: 10696 0x81FCA9D: luaV_settable (ltable.c:503)
      n3: 9968 0x81FCE95: lua_setfield (lapi.c:665)
       n1: 8288 0x82100DE: luaL_openlib (lauxlib.c:265)
        n6: 8288 0x8210141: luaL_register (lauxlib.c:231)
         n0: 2912 in 15 places, all below massif's threshold (01.00%)
         n1: 1792 0x82103E3: luaopen_package (loadlib.c:662)
          n1: 1792 0x8202D47: luaD_precall (ldo.c:319)
           n1: 1792 0x81F74C8: luaD_call (ldo.c:376)
            n1: 1792 0x81F759D: lua_call (lapi.c:782)
             n1: 1792 0x81FE6A3: luaL_openlibs (linit.c:35)
              n1: 1792 0x804E8B6: gtr_new (gtr.c:84)
               n0: 1792 0x804D8BA: main (gt.c:29)
         n1: 896 0x810B740: gt_lua_open_encseq (encseq_lua.c:994)
          n1: 896 0x810BB51: gt_lua_open_core (gtcore_lua.c:39)
           n1: 896 0x810BC41: gt_lua_open_lib (gt_lua.c:36)
            n1: 896 0x804E8C1: gtr_new (gtr.c:85)
             n0: 896 0x804D8BA: main (gt.c:29)
         n1: 896 0x810B8FF: gt_lua_open_encseq (encseq_lua.c:1020)
          n1: 896 0x810BB51: gt_lua_open_core (gtcore_lua.c:39)
           n1: 896 0x810BC41: gt_lua_open_lib (gt_lua.c:36)
            n1: 896 0x804E8C1: gtr_new (gtr.c:85)
             n0: 896 0x804D8BA: main (gt.c:29)
         n1: 896 0x80B2375: gt_lua_open_feature_node_iterator (feature_node_iterator_lua.c:108)
          n1: 896 0x810B5B1: gt_lua_open_extended (gtext_lua.c:40)
           n1: 896 0x810BC49: gt_lua_open_lib (gt_lua.c:37)
            n1: 896 0x804E8C1: gtr_new (gtr.c:85)
             n0: 896 0x804D8BA: main (gt.c:29)
         n1: 896 0x810B49A: gt_lua_open_genome_node (genome_node_lua.c:366)
          n1: 896 0x810B5B9: gt_lua_open_extended (gtext_lua.c:41)
           n1: 896 0x810BC49: gt_lua_open_lib (gt_lua.c:37)
            n1: 896 0x804E8C1: gtr_new (gtr.c:85)
             n0: 896 0x804D8BA: main (gt.c:29)
       n2: 896 0x820FB06: luaL_newmetatable (lauxlib.c:119)
        n1: 896 0x80B1FC9: gt_lua_open_genome_visitor (genome_visitor_lua.c:57)
         n1: 896 0x810B5C9: gt_lua_open_extended (gtext_lua.c:43)
          n1: 896 0x810BC49: gt_lua_open_lib (gt_lua.c:37)
           n1: 896 0x804E8C1: gtr_new (gtr.c:85)
            n0: 896 0x804D8BA: main (gt.c:29)
        n0: 0 in 3 places, all below massif's threshold (01.00%)
       n0: 784 in 24 places, all below massif's threshold (01.00%)
      n0: 728 in 1 place, below massif's threshold (01.00%)
     n0: 28 in 1 place, below massif's threshold (01.00%)
   n2: 6776 0x81FE570: lua_pushcclosure (lfunc.c:24)
    n2: 5960 0x82100C6: luaL_openlib (lauxlib.c:264)
     n1: 5840 0x8210141: luaL_register (lauxlib.c:231)
      n0: 5840 in 42 places, all below massif's threshold (01.00%)
     n0: 120 in 2 places, all below massif's threshold (01.00%)
    n0: 816 in 33 places, all below massif's threshold (01.00%)
   n2: 4956 0x8200BBE: luaH_new (ltable.c:284)
    n2: 4956 0x8200E02: lua_createtable (lapi.c:581)
     n2: 4732 0x820115F: luaL_findtable (lauxlib.c:368)
      n2: 4732 0x820FFFF: luaL_openlib (lauxlib.c:252)
       n3: 4704 0x8210141: luaL_register (lauxlib.c:231)
        n0: 2912 in 9 places, all below massif's threshold (01.00%)
        n1: 896 0x8210780: luaopen_math (lmathlib.c:252)
         n1: 896 0x8202D47: luaD_precall (ldo.c:319)
          n1: 896 0x81F74C8: luaD_call (ldo.c:376)
           n1: 896 0x81F759D: lua_call (lapi.c:782)
            n1: 896 0x81FE6A3: luaL_openlibs (linit.c:35)
             n1: 896 0x804E8B6: gtr_new (gtr.c:84)
              n0: 896 0x804D8BA: main (gt.c:29)
        n1: 896 0x822060C: luaopen_lpeg (lpeg.c:2399)
         n1: 896 0x804E8D7: gtr_new (gtr.c:87)
          n0: 896 0x804D8BA: main (gt.c:29)
       n0: 28 in 2 places, all below massif's threshold (01.00%)
      n0: 0 in 1 place, below massif's threshold (01.00%)
     n0: 224 in 6 places, all below massif's threshold (01.00%)
    n0: 0 in 2 places, all below massif's threshold (01.00%)
   n1: 2048 0x81F839F: luaS_resize (lstring.c:28)
    n2: 2048 0x81F8550: luaS_newlstr (lstring.c:70)
     n1: 2048 0x820F862: lua_getfield (lapi.c:550)
      n1: 2048 0x820FAA2: luaL_newmetatable (lauxlib.c:113)
       n1: 2048 0x810B923: gt_lua_open_encseq (encseq_lua.c:1023)
        n1: 2048 0x810BB51: gt_lua_open_core (gtcore_lua.c:39)
         n1: 2048 0x810BC41: gt_lua_open_lib (gt_lua.c:36)
          n1: 2048 0x804E8C1: gtr_new (gtr.c:85)
           n0: 2048 0x804D8BA: main (gt.c:29)
     n0: 0 in 2 places, all below massif's threshold (01.00%)
   n2: 1504 0x8200A1D: luaH_new (ltable.c:359)
    n1: 1440 0x8200E02: lua_createtable (lapi.c:581)
     n0: 1440 in 11 places, all below massif's threshold (01.00%)
    n0: 64 in 2 places, all below massif's threshold (01.00%)
   n0: 828 in 5 places, all below massif's threshold (01.00%)
  n0: 348 in 1 place, below massif's threshold (01.00%)
 n1: 8200 0x80EBF86: gt_error_new (error.c:32)
  n0: 8200 0x804D89F: main (gt.c:27)
 n0: 3507 in 38 places, all below massif's threshold (01.00%)
 n3: 3456 0x80E798C: gt_ht_reinit (hashtable.c:103)
  n1: 2432 0x80E7FB9: gt_ht_resize (hashtable.c:128)
   n2: 2432 0x80E88F2: gt_hashtable_add (hashtable.c:246)
    n3: 2304 0x80E89F9: gt_hashmap_add (hashmap.c:90)
     n1: 1024 0x80F3992: gt_toolbox_add (toolbox.c:99)
      n1: 1024 0x804F4CE: gtt_tools (gtt.c:186)
       n1: 1024 0x804E3EC: gtr_register_components (gtr.c:199)
        n0: 1024 0x804D8CC: main (gt.c:34)
     n1: 1024 0x804EECB: gtt_unit_tests (gtt.c:263)
      n1: 1024 0x804E3FF: gtr_register_components (gtr.c:202)
       n0: 1024 0x804D8CC: main (gt.c:34)
     n0: 256 in 5 places, all below massif's threshold (01.00%)
    n0: 128 in 1 place, below massif's threshold (01.00%)
  n1: 768 0x81166B2: gt_hashtable_new_with_start_size (hashtable.c:128)
   n1: 768 0x8116756: gt_hashtable_new (hashtable.c:90)
    n0: 768 in 2 places, all below massif's threshold (01.00%)
  n0: 256 in 1 place, below massif's threshold (01.00%)
 n2: 2368 0x8101508: gt_genome_node_create (genome_node.c:152)
  n1: 2368 0x814B834: gt_feature_node_new (feature_node.c:210)
   n2: 2368 0x8181E66: gt_gff3_parser_parse_genome_nodes (gff3_parser.c:1153)
    n1: 1344 0x8182C22: gff3_in_stream_plain_next (gff3_in_stream_plain.c:150)
     n1: 1344 0x814DC84: gt_node_stream_next (node_stream.c:94)
      n1: 1344 0x814EFF7: add_ids_stream_next (add_ids_stream.c:60)
       n1: 1344 0x814DC84: gt_node_stream_next (node_stream.c:94)
        n1: 1344 0x814EDAE: cds_check_stream_next (cds_check_stream.c:38)
         n1: 1344 0x814DC84: gt_node_stream_next (node_stream.c:94)
          n1: 1344 0x814ECDE: gff3_in_stream_next (gff3_in_stream.c:40)
           n1: 1344 0x814DC84: gt_node_stream_next (node_stream.c:94)
            n1: 1344 0x814E250: gt_node_stream_pull (node_stream.c:116)
             n1: 1344 0x805907D: gt_gff3_runner (gt_gff3.c:276)
              n1: 1344 0x81C4930: gt_tool_run (tool.c:88)
               n1: 1344 0x804E2C6: gtr_run (gtr.c:357)
                n0: 1344 0x804D969: main (gt.c:39)
    n1: 1024 0x8182BDB: gff3_in_stream_plain_next (gff3_in_stream_plain.c:142)
     n1: 1024 0x814DC84: gt_node_stream_next (node_stream.c:94)
      n1: 1024 0x814EFF7: add_ids_stream_next (add_ids_stream.c:60)
       n1: 1024 0x814DC84: gt_node_stream_next (node_stream.c:94)
        n1: 1024 0x814EDAE: cds_check_stream_next (cds_check_stream.c:38)
         n1: 1024 0x814DC84: gt_node_stream_next (node_stream.c:94)
          n1: 1024 0x814ECDE: gff3_in_stream_next (gff3_in_stream.c:40)
           n1: 1024 0x814DC84: gt_node_stream_next (node_stream.c:94)
            n1: 1024 0x814E250: gt_node_stream_pull (node_stream.c:116)
             n1: 1024 0x805907D: gt_gff3_runner (gt_gff3.c:276)
              n1: 1024 0x81C4930: gt_tool_run (tool.c:88)
               n1: 1024 0x804E2C6: gtr_run (gtr.c:357)
                n0: 1024 0x804D969: main (gt.c:39)
  n0: 0 in 1 place, below massif's threshold (01.00%)
 n1: 2237 0x80E6B80: gt_tag_value_map_add (tag_value_map.c:97)
  n1: 2237 0x80FD8A7: gt_feature_node_add_attribute (feature_node.c:574)
   n1: 2237 0x8181564: parse_attributes (gff3_parser.c:989)
    n2: 2237 0x8181EFF: gt_gff3_parser_parse_genome_nodes (gff3_parser.c:1166)
     n1: 1260 0x8182C22: gff3_in_stream_plain_next (gff3_in_stream_plain.c:150)
      n1: 1260 0x814DC84: gt_node_stream_next (node_stream.c:94)
       n1: 1260 0x814EFF7: add_ids_stream_next (add_ids_stream.c:60)
        n1: 1260 0x814DC84: gt_node_stream_next (node_stream.c:94)
         n1: 1260 0x814EDAE: cds_check_stream_next (cds_check_stream.c:38)
          n1: 1260 0x814DC84: gt_node_stream_next (node_stream.c:94)
           n1: 1260 0x814ECDE: gff3_in_stream_next (gff3_in_stream.c:40)
            n1: 1260 0x814DC84: gt_node_stream_next (node_stream.c:94)
             n1: 1260 0x814E250: gt_node_stream_pull (node_stream.c:116)
              n1: 1260 0x805907D: gt_gff3_runner (gt_gff3.c:276)
               n1: 1260 0x81C4930: gt_tool_run (tool.c:88)
                n1: 1260 0x804E2C6: gtr_run (gtr.c:357)
                 n0: 1260 0x804D969: main (gt.c:39)
     n1: 977 0x8182BDB: gff3_in_stream_plain_next (gff3_in_stream_plain.c:142)
      n1: 977 0x814DC84: gt_node_stream_next (node_stream.c:94)
       n1: 977 0x814EFF7: add_ids_stream_next (add_ids_stream.c:60)
        n1: 977 0x814DC84: gt_node_stream_next (node_stream.c:94)
         n1: 977 0x814EDAE: cds_check_stream_next (cds_check_stream.c:38)
          n1: 977 0x814DC84: gt_node_stream_next (node_stream.c:94)
           n1: 977 0x814ECDE: gff3_in_stream_next (gff3_in_stream.c:40)
            n1: 977 0x814DC84: gt_node_stream_next (node_stream.c:94)
             n1: 977 0x814E250: gt_node_stream_pull (node_stream.c:116)
              n1: 977 0x805907D: gt_gff3_runner (gt_gff3.c:276)
               n1: 977 0x81C4930: gt_tool_run (tool.c:88)
                n1: 977 0x804E2C6: gtr_run (gtr.c:357)
                 n0: 977 0x804D969: main (gt.c:39)
 n2: 1856 0x80E79E0: gt_ht_reinit (hashtable.c:112)
  n1: 1280 0x80E7FB9: gt_ht_resize (hashtable.c:128)
   n2: 1280 0x80E88F2: gt_hashtable_add (hashtable.c:246)
    n1: 1152 0x80E89F9: gt_hashmap_add (hashmap.c:90)
     n0: 1152 in 7 places, all below massif's threshold (01.00%)
    n0: 128 in 1 place, below massif's threshold (01.00%)
  n0: 576 in 2 places, all below massif's threshold (01.00%)
 n1: 840 0x81015F4: gt_tool_new (tool.c:41)
  n0: 840 in 41 places, all below massif's threshold (01.00%)
 n1: 832 0x8116627: gt_hashtable_new_with_start_size (hashtable.c:142)
  n1: 832 0x8116756: gt_hashtable_new (hashtable.c:90)
   n0: 832 in 2 places, all below massif's threshold (01.00%)
#-----------
snapshot=53
#-----------
time=25586026037
mem_heap_B=58186
mem_heap_extra_B=13094
mem_stacks_B=0
heap_tree=empty
#-----------
snapshot=54
#-----------
time=25876510160
mem_heap_B=59237
mem_heap_extra_B=13387
mem_stacks_B=0
heap_tree=empty
#-----------
snapshot=55
#-----------
time=26166994277
mem_heap_B=59022
mem_heap_extra_B=13218
mem_stacks_B=0
heap_tree=empty
#-----------
snapshot=56
#-----------
time=26457478901
mem_heap_B=58903
mem_heap_extra_B=13281
mem_stacks_B=0
heap_tree=empty
#-----------
snapshot=57
#-----------
time=26747967767
mem_heap_B=59128
mem_heap_extra_B=13224
mem_stacks_B=0
heap_tree=empty
#-----------
snapshot=58
#-----------
time=27038456169
mem_heap_B=58415
mem_heap_extra_B=13097
mem_stacks_B=0
heap_tree=empty
#-----------
snapshot=59
#-----------
time=27328940437
mem_heap_B=59137
mem_heap_extra_B=13255
mem_stacks_B=0
heap_tree=empty
#-----------
snapshot=60
#-----------
time=27619433730
mem_heap_B=59011
mem_heap_extra_B=13205
mem_stacks_B=0
heap_tree=empty
#-----------
snapshot=61
#-----------
time=27909917612
mem_heap_B=59293
mem_heap_extra_B=13331
mem_stacks_B=0
heap_tree=empty
#-----------
snapshot=62
#-----------
time=28200401395
mem_heap_B=61023
mem_heap_extra_B=13761
mem_stacks_B=0
heap_tree=detailed
n9: 61023 (heap allocation functions) malloc/new/new[], --alloc-fns, etc.
 n2: 37926 0x81F1616: l_alloc (lauxlib.c:635)
  n7: 37578 0x81F823D: luaM_realloc_ (lmem.c:79)
   n4: 10742 0x81F84B8: luaS_newlstr (lstring.c:56)
    n2: 7672 0x81FCE72: lua_setfield (lapi.c:664)
     n2: 6912 0x82100DE: luaL_openlib (lauxlib.c:265)
      n1: 6825 0x8210141: luaL_register (lauxlib.c:231)
       n0: 6825 in 40 places, all below massif's threshold (01.00%)
      n0: 87 in 1 place, below massif's threshold (01.00%)
     n0: 760 in 19 places, all below massif's threshold (01.00%)
    n1: 1279 0x81FD982: lua_pushlstring (lapi.c:448)
     n0: 1279 in 17 places, all below massif's threshold (01.00%)
    n2: 932 0x820F862: lua_getfield (lapi.c:550)
     n1: 799 0x820FAA2: luaL_newmetatable (lauxlib.c:113)
      n0: 799 in 21 places, all below massif's threshold (01.00%)
     n0: 133 in 1 place, below massif's threshold (01.00%)
    n0: 859 in 19 places, all below massif's threshold (01.00%)
   n1: 10724 0x81FB209: resize (ltable.c:284)
    n2: 10724 0x81FBD7B: newkey (ltable.c:348)
     n2: 10696 0x81FCA9D: luaV_settable (ltable.c:503)
      n3: 9968 0x81FCE95: lua_setfield (lapi.c:665)
       n1: 8288 0x82100DE: luaL_openlib (lauxlib.c:265)
        n6: 8288 0x8210141: luaL_register (lauxlib.c:231)
         n0: 2912 in 15 places, all below massif's threshold (01.00%)
         n1: 1792 0x82103E3: luaopen_package (loadlib.c:662)
          n1: 1792 0x8202D47: luaD_precall (ldo.c:319)
           n1: 1792 0x81F74C8: luaD_call (ldo.c:376)
            n1: 1792 0x81F759D: lua_call (lapi.c:782)
             n1: 1792 0x81FE6A3: luaL_openlibs (linit.c:35)
              n1: 1792 0x804E8B6: gtr_new (gtr.c:84)
               n0: 1792 0x804D8BA: main (gt.c:29)
         n1: 896 0x810B740: gt_lua_open_encseq (encseq_lua.c:994)
          n1: 896 0x810BB51: gt_lua_open_core (gtcore_lua.c:39)
           n1: 896 0x810BC41: gt_lua_open_lib (gt_lua.c:36)
            n1: 896 0x804E8C1: gtr_new (gtr.c:85)
             n0: 896 0x804D8BA: main (gt.c:29)
         n1: 896 0x810B8FF: gt_lua_open_encseq (encseq_lua.c:1020)
          n1: 896 0x810BB51: gt_lua_open_core (gtcore_lua.c:39)
           n1: 896 0x810BC41: gt_lua_open_lib (gt_lua.c:36)
            n1: 896 0x804E8C1: gtr_new (gtr.c:85)
             n0: 896 0x804D8BA: main (gt.c:29)
         n1: 896 0x80B2375: gt_lua_open_feature_node_iterator (feature_node_iterator_lua.c:108)
          n1: 896 0x810B5B1: gt_lua_open_extended (gtext_lua.c:40)
           n1: 896 0x810BC49: gt_lua_open_lib (gt_lua.c:37)
            n1: 896 0x804E8C1: gtr_new (gtr.c:85)
             n0: 896 0x804D8BA: main (gt.c:29)
         n1: 896 0x810B49A: gt_lua_open_genome_node (genome_node_lua.c:366)
          n1: 896 0x810B5B9: gt_lua_open_extended (gtext_lua.c:41)
           n1: 896 0x810BC49: gt_lua_open_lib (gt_lua.c:37)
            n1: 896 0x804E8C1: gtr_new (gtr.c:85)
             n0: 896 0x804D8BA: main (gt.c:29)
       n2: 896 0x820FB06: luaL_newmetatable (lauxlib.c:119)
        n1: 896 0x80B1FC9: gt_lua_open_genome_visitor (genome_visitor_lua.c:57)
         n1: 896 0x810B5C9: gt_lua_open_extended (gtext_lua.c:43)
          n1: 896 0x810BC49: gt_lua_open_lib (gt_lua.c:37)
           n1: 896 0x804E8C1: gtr_new (gtr.c:85)
            n0: 896 0x804D8BA: main (gt.c:29)
        n0: 0 in 3 places, all below massif's threshold (01.00%)
       n0: 784 in 24 places, all below massif's threshold (01.00%)
      n0: 728 in 1 place, below massif's threshold (01.00%)
     n0: 28 in 1 place, below massif's threshold (01.00%)
   n2: 6776 0x81FE570: lua_pushcclosure (lfunc.c:24)
    n2: 5960 0x82100C6: luaL_openlib (lauxlib.c:264)
     n1: 5840 0x8210141: luaL_register (lauxlib.c:231)
      n0: 5840 in 42 places, all below massif's threshold (01.00%)
     n0: 120 in 2 places, all below massif's threshold (01.00%)
    n0: 816 in 33 places, all below massif's threshold (01.00%)
   n2: 4956 0x8200BBE: luaH_new (ltable.c:284)
    n2: 4956 0x8200E02: lua_createtable (lapi.c:581)
     n2: 4732 0x820115F: luaL_findtable (lauxlib.c:368)
      n2: 4732 0x820FFFF: luaL_openlib (lauxlib.c:252)
       n3: 4704 0x8210141: luaL_register (lauxlib.c:231)
        n0: 2912 in 9 places, all below massif's threshold (01.00%)
        n1: 896 0x8210780: luaopen_math (lmathlib.c:252)
         n1: 896 0x8202D47: luaD_precall (ldo.c:319)
          n1: 896 0x81F74C8: luaD_call (ldo.c:376)
           n1: 896 0x81F759D: lua_call (lapi.c:782)
            n1: 896 0x81FE6A3: luaL_openlibs (linit.c:35)
             n1: 896 0x804E8B6: gtr_new (gtr.c:84)
              n0: 896 0x804D8BA: main (gt.c:29)
        n1: 896 0x822060C: luaopen_lpeg (lpeg.c:2399)
         n1: 896 0x804E8D7: gtr_new (gtr.c:87)
          n0: 896 0x804D8BA: main (gt.c:29)
       n0: 28 in 2 places, all below massif's threshold (01.00%)
      n0: 0 in 1 place, below massif's threshold (01.00%)
     n0: 224 in 6 places, all below massif's threshold (01.00%)
    n0: 0 in 2 places, all below massif's threshold (01.00%)
   n1: 2048 0x81F839F: luaS_resize (lstring.c:28)
    n2: 2048 0x81F8550: luaS_newlstr (lstring.c:70)
     n1: 2048 0x820F862: lua_getfield (lapi.c:550)
      n1: 2048 0x820FAA2: luaL_newmetatable (lauxlib.c:113)
       n1: 2048 0x810B923: gt_lua_open_encseq (encseq_lua.c:1023)
        n1: 2048 0x810BB51: gt_lua_open_core (gtcore_lua.c:39)
         n1: 2048 0x810BC41: gt_lua_open_lib (gt_lua.c:36)
          n1: 2048 0x804E8C1: gtr_new (gtr.c:85)
           n0: 2048 0x804D8BA: main (gt.c:29)
     n0: 0 in 2 places, all below massif's threshold (01.00%)
   n2: 1504 0x8200A1D: luaH_new (ltable.c:359)
    n1: 1440 0x8200E02: lua_createtable (lapi.c:581)
     n0: 1440 in 11 places, all below massif's threshold (01.00%)
    n0: 64 in 2 places, all below massif's threshold (01.00%)
   n0: 828 in 5 places, all below massif's threshold (01.00%)
  n0: 348 in 1 place, below massif's threshold (01.00%)
 n1: 8200 0x80EBF86: gt_error_new (error.c:32)
  n0: 8200 0x804D89F: main (gt.c:27)
 n0: 3591 in 38 places, all below massif's threshold (01.00%)
 n3: 3456 0x80E798C: gt_ht_reinit (hashtable.c:103)
  n1: 2432 0x80E7FB9: gt_ht_resize (hashtable.c:128)
   n2: 2432 0x80E88F2: gt_hashtable_add (hashtable.c:246)
    n3: 2304 0x80E89F9: gt_hashmap_add (hashmap.c:90)
     n1: 1024 0x80F3992: gt_toolbox_add (toolbox.c:99)
      n1: 1024 0x804F4CE: gtt_tools (gtt.c:186)
       n1: 1024 0x804E3EC: gtr_register_components (gtr.c:199)
        n0: 1024 0x804D8CC: main (gt.c:34)
     n1: 1024 0x804EECB: gtt_unit_tests (gtt.c:263)
      n1: 1024 0x804E3FF: gtr_register_components (gtr.c:202)
       n0: 1024 0x804D8CC: main (gt.c:34)
     n0: 256 in 5 places, all below massif's threshold (01.00%)
    n0: 128 in 1 place, below massif's threshold (01.00%)
  n1: 768 0x81166B2: gt_hashtable_new_with_start_size (hashtable.c:128)
   n1: 768 0x8116756: gt_hashtable_new (hashtable.c:90)
    n0: 768 in 2 places, all below massif's threshold (01.00%)
  n0: 256 in 1 place, below massif's threshold (01.00%)
 n2: 2240 0x8101508: gt_genome_node_create (genome_node.c:152)
  n1: 2240 0x814B834: gt_feature_node_new (feature_node.c:210)
   n2: 2240 0x8181E66: gt_gff3_parser_parse_genome_nodes (gff3_parser.c:1153)
    n1: 1280 0x8182C22: gff3_in_stream_plain_next (gff3_in_stream_plain.c:150)
     n1: 1280 0x814DC84: gt_node_stream_next (node_stream.c:94)
      n1: 1280 0x814EFF7: add_ids_stream_next (add_ids_stream.c:60)
       n1: 1280 0x814DC84: gt_node_stream_next (node_stream.c:94)
        n1: 1280 0x814EDAE: cds_check_stream_next (cds_check_stream.c:38)
         n1: 1280 0x814DC84: gt_node_stream_next (node_stream.c:94)
          n1: 1280 0x814ECDE: gff3_in_stream_next (gff3_in_stream.c:40)
           n1: 1280 0x814DC84: gt_node_stream_next (node_stream.c:94)
            n1: 1280 0x814E250: gt_node_stream_pull (node_stream.c:116)
             n1: 1280 0x805907D: gt_gff3_runner (gt_gff3.c:276)
              n1: 1280 0x81C4930: gt_tool_run (tool.c:88)
               n1: 1280 0x804E2C6: gtr_run (gtr.c:357)
                n0: 1280 0x804D969: main (gt.c:39)
    n1: 960 0x8182BDB: gff3_in_stream_plain_next (gff3_in_stream_plain.c:142)
     n1: 960 0x814DC84: gt_node_stream_next (node_stream.c:94)
      n1: 960 0x814EFF7: add_ids_stream_next (add_ids_stream.c:60)
       n1: 960 0x814DC84: gt_node_stream_next (node_stream.c:94)
        n1: 960 0x814EDAE: cds_check_stream_next (cds_check_stream.c:38)
         n1: 960 0x814DC84: gt_node_stream_next (node_stream.c:94)
          n1: 960 0x814ECDE: gff3_in_stream_next (gff3_in_stream.c:40)
           n1: 960 0x814DC84: gt_node_stream_next (node_stream.c:94)
            n1: 960 0x814E250: gt_node_stream_pull (node_stream.c:116)
             n1: 960 0x805907D: gt_gff3_runner (gt_gff3.c:276)
              n1: 960 0x81C4930: gt_tool_run (tool.c:88)
               n1: 960 0x804E2C6: gtr_run (gtr.c:357)
                n0: 960 0x804D969: main (gt.c:39)
  n0: 0 in 1 place, below massif's threshold (01.00%)
 n1: 2082 0x80E6B80: gt_tag_value_map_add (tag_value_map.c:97)
  n1: 2082 0x80FD8A7: gt_feature_node_add_attribute (feature_node.c:574)
   n1: 2082 0x8181564: parse_attributes (gff3_parser.c:989)
    n2: 2082 0x8181EFF: gt_gff3_parser_parse_genome_nodes (gff3_parser.c:1166)
     n1: 1185 0x8182C22: gff3_in_stream_plain_next (gff3_in_stream_plain.c:150)
      n1: 1185 0x814DC84: gt_node_stream_next (node_stream.c:94)
       n1: 1185 0x814EFF7: add_ids_stream_next (add_ids_stream.c:60)
        n1: 1185 0x814DC84: gt_node_stream_next (node_stream.c:94)
         n1: 1185 0x814EDAE: cds_check_stream_next (cds_check_stream.c:38)
          n1: 1185 0x814DC84: gt_node_stream_next (node_stream.c:94)
           n1: 1185 0x814ECDE: gff3_in_stream_next (gff3_in_stream.c:40)
            n1: 1185 0x814DC84: gt_node_stream_next (node_stream.c:94)
             n1: 1185 0x814E250: gt_node_stream_pull (node_stream.c:116)
              n1: 1185 0x805907D: gt_gff3_runner (gt_gff3.c:276)
               n1: 1185 0x81C4930: gt_tool_run (tool.c:88)
                n1: 1185 0x804E2C6: gtr_run (gtr.c:357)
                 n0: 1185 0x804D969: main (gt.c:39)
     n1: 897 0x8182BDB: gff3_in_stream_plain_next (gff3_in_stream_plain.c:142)
      n1: 897 0x814DC84: gt_node_stream_next (node_stream.c:94)
       n1: 897 0x814EFF7: add_ids_stream_next (add_ids_stream.c:60)
        n1: 897 0x814DC84: gt_node_stream_next (node_stream.c:94)
         n1: 897 0x814EDAE: cds_check_stream_next (cds_check_stream.c:38)
          n1: 897 0x814DC84: gt_node_stream_next (node_stream.c:94)
           n1: 897 0x814ECDE: gff3_in_stream_next (gff3_in_stream.c:40)
            n1: 897 0x814DC84: gt_node_stream_next (node_stream.c:94)
             n1: 897 0x814E250: gt_node_stream_pull (node_stream.c:116)
              n1: 897 0x805907D: gt_gff3_runner (gt_gff3.c:276)
               n1: 897 0x81C4930: gt_tool_run (tool.c:88)
                n1: 897 0x804E2C6: gtr_run (gtr.c:357)
                 n0: 897 0x804D969: main (gt.c:39)
 n2: 1856 0x80E79E0: gt_ht_reinit (hashtable.c:112)
  n1: 1280 0x80E7FB9: gt_ht_resize (hashtable.c:128)
   n2: 1280 0x80E88F2: gt_hashtable_add (hashtable.c:246)
    n1: 1152 0x80E89F9: gt_hashmap_add (hashmap.c:90)
     n0: 1152 in 7 places, all below massif's threshold (01.00%)
    n0: 128 in 1 place, below massif's threshold (01.00%)
  n0: 576 in 2 places, all below massif's threshold (01.00%)
 n1: 840 0x81015F4: gt_tool_new (tool.c:41)
  n0: 840 in 41 places, all below massif's threshold (01.00%)
 n1: 832 0x8116627: gt_hashtable_new_with_start_size (hashtable.c:142)
  n1: 832 0x8116756: gt_hashtable_new (hashtable.c:90)
   n0: 832 in 2 places, all below massif's threshold (01.00%)
#-----------
snapshot=63
#-----------
time=28490885325
mem_heap_B=60218
mem_heap_extra_B=13566
mem_stacks_B=0
heap_tree=empty
#-----------
snapshot=64
#-----------
time=28781369387
mem_heap_B=60392
mem_heap_extra_B=13576
mem_stacks_B=0
heap_tree=empty
#-----------
snapshot=65
#-----------
time=29071853163
mem_heap_B=58580
mem_heap_extra_B=13084
mem_stacks_B=0
heap_tree=empty
#-----------
snapshot=66
#-----------
time=29362337110
mem_heap_B=58187
mem_heap_extra_B=13005
mem_stacks_B=0
heap_tree=empty
#-----------
snapshot=67
#-----------
time=29652822050
mem_heap_B=57997
mem_heap_extra_B=13035
mem_stacks_B=0
heap_tree=empty
#-----------
snapshot=68
#-----------
time=29943306614
mem_heap_B=59910
mem_heap_extra_B=13474
mem_stacks_B=0
heap_tree=empty
#-----------
snapshot=69
#-----------
time=30233790642
mem_heap_B=58613
mem_heap_extra_B=13235
mem_stacks_B=0
heap_tree=empty
