desc: --alloc-fn=gt_malloc --alloc-fn=gt_calloc --alloc-fn=gt_realloc --alloc-fn=xmalloc --alloc-fn=xcalloc --alloc-fn=xrealloc --massif-out-file=gt-64bit_tair.gff3.out
cmd: ./gt-64bit gff3 -show no tair.gff3
time_unit: i
#-----------
snapshot=0
#-----------
time=0
mem_heap_B=0
mem_heap_extra_B=0
mem_stacks_B=0
heap_tree=empty
#-----------
snapshot=1
#-----------
time=245047020
mem_heap_B=150331
mem_heap_extra_B=29453
mem_stacks_B=0
heap_tree=empty
#-----------
snapshot=2
#-----------
time=445791070
mem_heap_B=140666
mem_heap_extra_B=27526
mem_stacks_B=0
heap_tree=empty
#-----------
snapshot=3
#-----------
time=579691016
mem_heap_B=135725
mem_heap_extra_B=26179
mem_stacks_B=0
heap_tree=empty
#-----------
snapshot=4
#-----------
time=789528533
mem_heap_B=131208
mem_heap_extra_B=24728
mem_stacks_B=0
heap_tree=empty
#-----------
snapshot=5
#-----------
time=959229635
mem_heap_B=143840
mem_heap_extra_B=28512
mem_stacks_B=0
heap_tree=empty
#-----------
snapshot=6
#-----------
time=1177278433
mem_heap_B=145498
mem_heap_extra_B=29182
mem_stacks_B=0
heap_tree=detailed
n8: 145498 (heap allocation functions) malloc/new/new[], --alloc-fns, etc.
 n7: 94187 0x5A687A: luaM_realloc_ (lmem.c:79)
  n1: 23080 0x5A97A2: resize (ltable.c:284)
   n3: 23080 0x5AA481: newkey (ltable.c:348)
    n2: 17920 0x5AB176: luaV_settable (ltable.c:503)
     n2: 16800 0x5AB55E: lua_setfield (lapi.c:665)
      n3: 14400 0x5BCE1A: luaL_openlib (lauxlib.c:265)
       n0: 9280 in 23 places, all below massif's threshold (01.00%)
       n1: 2560 0x5BD03F: luaopen_package (loadlib.c:662)
        n1: 2560 0x5B136F: luaD_precall (ldo.c:319)
         n1: 2560 0x5A5B02: luaD_call (ldo.c:376)
          n1: 2560 0x5A5BC4: lua_call (lapi.c:782)
           n1: 2560 0x5ACE46: luaL_openlibs (linit.c:35)
            n1: 2560 0x40D548: gtr_new (gtr.c:84)
             n0: 2560 0x40C7BC: main (gt.c:29)
       n1: 2560 0x468549: gt_lua_open_feature_stream (feature_stream_lua.c:55)
        n1: 2560 0x4BD873: gt_lua_open_annotationsketch (annotationsketch_lua.c:42)
         n1: 2560 0x4BDDB3: gt_lua_open_lib (gt_lua.c:39)
          n1: 2560 0x40D551: gtr_new (gtr.c:85)
           n0: 2560 0x40C7BC: main (gt.c:29)
      n0: 2400 in 30 places, all below massif's threshold (01.00%)
     n0: 1120 in 1 place, below massif's threshold (01.00%)
    n1: 5120 0x5AADD5: luaX_newstring (ltable.c:527)
     n2: 5120 0x5C179F: llex (llex.c:426)
      n1: 5120 0x5C7243: constructor (llex.c:453)
       n1: 5120 0x5C5FB1: subexpr (lparser.c:761)
        n1: 5120 0x5C69F8: recfield (lparser.c:857)
         n1: 5120 0x5C7028: constructor (lparser.c:524)
          n1: 5120 0x5C5FB1: subexpr (lparser.c:761)
           n1: 5120 0x5C8B00: assignment (lparser.c:857)
            n1: 5120 0x5C1E9F: statement (lparser.c:1233)
             n1: 5120 0x5C477F: luaY_parser (lparser.c:1330)
              n1: 5120 0x5ACB22: f_parser (ldo.c:497)
               n1: 5120 0x5A0675: luaD_rawrunprotected (ldo.c:116)
                n1: 5120 0x5AD3D7: lua_load (ldo.c:463)
                 n1: 5120 0x5AE85E: luaL_loadfile (lauxlib.c:581)
                  n1: 5120 0x4BD05E: gt_style_load_file (style.c:194)
                   n1: 5120 0x40D655: gtr_new (gtr.c:105)
                    n0: 5120 0x40C7BC: main (gt.c:29)
      n0: 0 in 3 places, all below massif's threshold (01.00%)
    n0: 40 in 3 places, all below massif's threshold (01.00%)
  n3: 21240 0x5AF219: luaH_new (ltable.c:284)
   n1: 14160 0x5A40C8: luaV_execute (lvm.c:460)
    n1: 14160 0x5A5B4B: luaD_call (ldo.c:377)
     n1: 14160 0x5A0675: luaD_rawrunprotected (ldo.c:116)
      n1: 14160 0x5A8703: lua_pcall (ldo.c:463)
       n1: 14160 0x4BD0DC: gt_style_load_file (style.c:194)
        n1: 14160 0x40D655: gtr_new (gtr.c:105)
         n0: 14160 0x40C7BC: main (gt.c:29)
   n2: 7080 0x5AF54C: lua_createtable (lapi.c:581)
    n2: 6760 0x5AF829: luaL_findtable (lauxlib.c:368)
     n1: 6760 0x5BCD5F: luaL_openlib (lauxlib.c:252)
      n0: 6760 in 13 places, all below massif's threshold (01.00%)
     n0: 0 in 1 place, below massif's threshold (01.00%)
    n0: 320 in 6 places, all below massif's threshold (01.00%)
   n0: 0 in 2 places, all below massif's threshold (01.00%)
  n3: 17611 0x5A6B2C: luaS_newlstr (lstring.c:56)
   n2: 11053 0x5AB53C: lua_setfield (lapi.c:664)
    n1: 10019 0x5BCE1A: luaL_openlib (lauxlib.c:265)
     n0: 10019 in 52 places, all below massif's threshold (01.00%)
    n0: 1034 in 22 places, all below massif's threshold (01.00%)
   n0: 4339 in 26 places, all below massif's threshold (01.00%)
   n1: 2219 0x5AAD45: luaX_newstring (llex.c:119)
    n2: 2219 0x5C179F: llex (llex.c:426)
     n1: 2101 0x5C7243: constructor (llex.c:453)
      n1: 2101 0x5C5FB1: subexpr (lparser.c:761)
       n0: 2101 in 2 places, all below massif's threshold (01.00%)
     n0: 118 in 2 places, all below massif's threshold (01.00%)
  n2: 14528 0x5ACD2E: lua_pushcclosure (lfunc.c:24)
   n1: 12880 0x5BCE07: luaL_openlib (lauxlib.c:264)
    n0: 12880 in 55 places, all below massif's threshold (01.00%)
   n0: 1648 in 38 places, all below massif's threshold (01.00%)
  n3: 7744 0x5AF0F3: luaH_new (ltable.c:359)
   n1: 4352 0x5A40C8: luaV_execute (lvm.c:460)
    n1: 4352 0x5A5B4B: luaD_call (ldo.c:377)
     n1: 4352 0x5A0675: luaD_rawrunprotected (ldo.c:116)
      n1: 4352 0x5A8703: lua_pcall (ldo.c:463)
       n1: 4352 0x4BD0DC: gt_style_load_file (style.c:194)
        n1: 4352 0x40D655: gtr_new (gtr.c:105)
         n0: 4352 0x40C7BC: main (gt.c:29)
   n1: 3200 0x5AF54C: lua_createtable (lapi.c:581)
    n0: 3200 in 11 places, all below massif's threshold (01.00%)
   n0: 192 in 3 places, all below massif's threshold (01.00%)
  n0: 5888 in 13 places, all below massif's threshold (01.00%)
  n1: 4096 0x5A6905: luaS_resize (lstring.c:28)
   n2: 4096 0x5A6BB0: luaS_newlstr (lstring.c:70)
    n1: 4096 0x5BC6BC: lua_getfield (lapi.c:550)
     n1: 4096 0x5BC907: luaL_newmetatable (lauxlib.c:113)
      n1: 4096 0x4BDB1B: gt_lua_open_encseq (encseq_lua.c:1023)
       n1: 4096 0x4BDCDB: gt_lua_open_core (gtcore_lua.c:39)
        n1: 4096 0x4BDDA3: gt_lua_open_lib (gt_lua.c:36)
         n1: 4096 0x40D551: gtr_new (gtr.c:85)
          n0: 4096 0x40C7BC: main (gt.c:29)
    n0: 0 in 2 places, all below massif's threshold (01.00%)
 n2: 16200 0x4B3BC4: gt_genome_node_create (genome_node.c:152)
  n2: 16200 0x503109: gt_feature_node_new (feature_node.c:210)
   n2: 15720 0x5467BA: gt_gff3_parser_parse_genome_nodes (gff3_parser.c:1153)
    n1: 10800 0x547427: gff3_in_stream_plain_next (gff3_in_stream_plain.c:150)
     n1: 10800 0x507BDC: gt_node_stream_next (node_stream.c:94)
      n1: 10800 0x508E45: add_ids_stream_next (add_ids_stream.c:60)
       n1: 10800 0x507BDC: gt_node_stream_next (node_stream.c:94)
        n1: 10800 0x508C2D: cds_check_stream_next (cds_check_stream.c:38)
         n1: 10800 0x507BDC: gt_node_stream_next (node_stream.c:94)
          n1: 10800 0x507BDC: gt_node_stream_next (node_stream.c:94)
           n1: 10800 0x50812B: gt_node_stream_pull (node_stream.c:116)
            n1: 10800 0x41613F: gt_gff3_runner (gt_gff3.c:276)
             n1: 10800 0x5757C9: gt_tool_run (tool.c:88)
              n1: 10800 0x40D071: gtr_run (gtr.c:357)
               n0: 10800 0x40C86A: main (gt.c:39)
    n1: 4920 0x5473F1: gff3_in_stream_plain_next (gff3_in_stream_plain.c:142)
     n1: 4920 0x507BDC: gt_node_stream_next (node_stream.c:94)
      n1: 4920 0x508E45: add_ids_stream_next (add_ids_stream.c:60)
       n1: 4920 0x507BDC: gt_node_stream_next (node_stream.c:94)
        n1: 4920 0x508C2D: cds_check_stream_next (cds_check_stream.c:38)
         n1: 4920 0x507BDC: gt_node_stream_next (node_stream.c:94)
          n1: 4920 0x507BDC: gt_node_stream_next (node_stream.c:94)
           n1: 4920 0x50812B: gt_node_stream_pull (node_stream.c:116)
            n1: 4920 0x41613F: gt_gff3_runner (gt_gff3.c:276)
             n1: 4920 0x5757C9: gt_tool_run (tool.c:88)
              n1: 4920 0x40D071: gtr_run (gtr.c:357)
               n0: 4920 0x40C86A: main (gt.c:39)
   n0: 480 in 1 place, below massif's threshold (01.00%)
  n0: 0 in 1 place, below massif's threshold (01.00%)
 n0: 11712 in 49 places, all below massif's threshold (01.00%)
 n0: 8208 0x40C7A6: main (gt.c:27)
 n2: 6784 0x49A4BD: gt_ht_reinit (hashtable.c:103)
  n1: 4608 0x49AA0F: gt_ht_resize (hashtable.c:128)
   n2: 4608 0x49B596: gt_hashtable_add (hashtable.c:246)
    n3: 4096 0x49B688: gt_hashmap_add (hashmap.c:90)
     n1: 2048 0x40E063: gtt_tools (gtt.c:186)
      n1: 2048 0x40D159: gtr_register_components (gtr.c:199)
       n0: 2048 0x40C7D0: main (gt.c:34)
     n1: 2048 0x40DAB6: gtt_unit_tests (gtt.c:263)
      n1: 2048 0x40D16B: gtr_register_components (gtr.c:202)
       n0: 2048 0x40C7D0: main (gt.c:34)
     n0: 0 in 6 places, all below massif's threshold (01.00%)
    n0: 512 in 1 place, below massif's threshold (01.00%)
  n0: 2176 in 2 places, all below massif's threshold (01.00%)
 n1: 4128 0x4A4BD0: gt_dlist_add (dlist.c:85)
  n2: 4128 0x4A5010: gt_feature_node_add_child (feature_node.c:970)
   n1: 3864 0x544CEA: process_parent_attr (gff3_parser.c:637)
    n1: 3864 0x54585E: parse_attributes (gff3_parser.c:1001)
     n2: 3864 0x546855: gt_gff3_parser_parse_genome_nodes (gff3_parser.c:1166)
      n1: 2664 0x547427: gff3_in_stream_plain_next (gff3_in_stream_plain.c:150)
       n1: 2664 0x507BDC: gt_node_stream_next (node_stream.c:94)
        n1: 2664 0x508E45: add_ids_stream_next (add_ids_stream.c:60)
         n1: 2664 0x507BDC: gt_node_stream_next (node_stream.c:94)
          n1: 2664 0x508C2D: cds_check_stream_next (cds_check_stream.c:38)
           n1: 2664 0x507BDC: gt_node_stream_next (node_stream.c:94)
            n1: 2664 0x507BDC: gt_node_stream_next (node_stream.c:94)
             n1: 2664 0x50812B: gt_node_stream_pull (node_stream.c:116)
              n1: 2664 0x41613F: gt_gff3_runner (gt_gff3.c:276)
               n1: 2664 0x5757C9: gt_tool_run (tool.c:88)
                n1: 2664 0x40D071: gtr_run (gtr.c:357)
                 n0: 2664 0x40C86A: main (gt.c:39)
      n0: 1200 in 1 place, below massif's threshold (01.00%)
   n0: 264 in 1 place, below massif's threshold (01.00%)
 n1: 2423 0x4AFA3A: gt_tag_value_map_new (tag_value_map.c:40)
  n1: 2423 0x4B0519: gt_feature_node_add_attribute (feature_node.c:572)
   n1: 2423 0x545E41: parse_attributes (gff3_parser.c:989)
    n1: 2423 0x546855: gt_gff3_parser_parse_genome_nodes (gff3_parser.c:1166)
     n0: 2423 in 2 places, all below massif's threshold (01.00%)
 n1: 1856 0x49A4F5: gt_ht_reinit (hashtable.c:112)
  n0: 1856 in 3 places, all below massif's threshold (01.00%)
#-----------
snapshot=7
#-----------
time=1483085550
mem_heap_B=135469
mem_heap_extra_B=25843
mem_stacks_B=0
heap_tree=empty
#-----------
snapshot=8
#-----------
time=1694101287
mem_heap_B=145036
mem_heap_extra_B=29036
mem_stacks_B=0
heap_tree=detailed
n8: 145036 (heap allocation functions) malloc/new/new[], --alloc-fns, etc.
 n7: 94187 0x5A687A: luaM_realloc_ (lmem.c:79)
  n1: 23080 0x5A97A2: resize (ltable.c:284)
   n3: 23080 0x5AA481: newkey (ltable.c:348)
    n2: 17920 0x5AB176: luaV_settable (ltable.c:503)
     n2: 16800 0x5AB55E: lua_setfield (lapi.c:665)
      n3: 14400 0x5BCE1A: luaL_openlib (lauxlib.c:265)
       n0: 9280 in 23 places, all below massif's threshold (01.00%)
       n1: 2560 0x5BD03F: luaopen_package (loadlib.c:662)
        n1: 2560 0x5B136F: luaD_precall (ldo.c:319)
         n1: 2560 0x5A5B02: luaD_call (ldo.c:376)
          n1: 2560 0x5A5BC4: lua_call (lapi.c:782)
           n1: 2560 0x5ACE46: luaL_openlibs (linit.c:35)
            n1: 2560 0x40D548: gtr_new (gtr.c:84)
             n0: 2560 0x40C7BC: main (gt.c:29)
       n1: 2560 0x468549: gt_lua_open_feature_stream (feature_stream_lua.c:55)
        n1: 2560 0x4BD873: gt_lua_open_annotationsketch (annotationsketch_lua.c:42)
         n1: 2560 0x4BDDB3: gt_lua_open_lib (gt_lua.c:39)
          n1: 2560 0x40D551: gtr_new (gtr.c:85)
           n0: 2560 0x40C7BC: main (gt.c:29)
      n0: 2400 in 30 places, all below massif's threshold (01.00%)
     n0: 1120 in 1 place, below massif's threshold (01.00%)
    n1: 5120 0x5AADD5: luaX_newstring (ltable.c:527)
     n2: 5120 0x5C179F: llex (llex.c:426)
      n1: 5120 0x5C7243: constructor (llex.c:453)
       n1: 5120 0x5C5FB1: subexpr (lparser.c:761)
        n1: 5120 0x5C69F8: recfield (lparser.c:857)
         n1: 5120 0x5C7028: constructor (lparser.c:524)
          n1: 5120 0x5C5FB1: subexpr (lparser.c:761)
           n1: 5120 0x5C8B00: assignment (lparser.c:857)
            n1: 5120 0x5C1E9F: statement (lparser.c:1233)
             n1: 5120 0x5C477F: luaY_parser (lparser.c:1330)
              n1: 5120 0x5ACB22: f_parser (ldo.c:497)
               n1: 5120 0x5A0675: luaD_rawrunprotected (ldo.c:116)
                n1: 5120 0x5AD3D7: lua_load (ldo.c:463)
                 n1: 5120 0x5AE85E: luaL_loadfile (lauxlib.c:581)
                  n1: 5120 0x4BD05E: gt_style_load_file (style.c:194)
                   n1: 5120 0x40D655: gtr_new (gtr.c:105)
                    n0: 5120 0x40C7BC: main (gt.c:29)
      n0: 0 in 3 places, all below massif's threshold (01.00%)
    n0: 40 in 3 places, all below massif's threshold (01.00%)
  n3: 21240 0x5AF219: luaH_new (ltable.c:284)
   n1: 14160 0x5A40C8: luaV_execute (lvm.c:460)
    n1: 14160 0x5A5B4B: luaD_call (ldo.c:377)
     n1: 14160 0x5A0675: luaD_rawrunprotected (ldo.c:116)
      n1: 14160 0x5A8703: lua_pcall (ldo.c:463)
       n1: 14160 0x4BD0DC: gt_style_load_file (style.c:194)
        n1: 14160 0x40D655: gtr_new (gtr.c:105)
         n0: 14160 0x40C7BC: main (gt.c:29)
   n2: 7080 0x5AF54C: lua_createtable (lapi.c:581)
    n2: 6760 0x5AF829: luaL_findtable (lauxlib.c:368)
     n1: 6760 0x5BCD5F: luaL_openlib (lauxlib.c:252)
      n0: 6760 in 13 places, all below massif's threshold (01.00%)
     n0: 0 in 1 place, below massif's threshold (01.00%)
    n0: 320 in 6 places, all below massif's threshold (01.00%)
   n0: 0 in 2 places, all below massif's threshold (01.00%)
  n3: 17611 0x5A6B2C: luaS_newlstr (lstring.c:56)
   n2: 11053 0x5AB53C: lua_setfield (lapi.c:664)
    n1: 10019 0x5BCE1A: luaL_openlib (lauxlib.c:265)
     n0: 10019 in 52 places, all below massif's threshold (01.00%)
    n0: 1034 in 22 places, all below massif's threshold (01.00%)
   n0: 4339 in 26 places, all below massif's threshold (01.00%)
   n1: 2219 0x5AAD45: luaX_newstring (llex.c:119)
    n2: 2219 0x5C179F: llex (llex.c:426)
     n1: 2101 0x5C7243: constructor (llex.c:453)
      n1: 2101 0x5C5FB1: subexpr (lparser.c:761)
       n0: 2101 in 2 places, all below massif's threshold (01.00%)
     n0: 118 in 2 places, all below massif's threshold (01.00%)
  n2: 14528 0x5ACD2E: lua_pushcclosure (lfunc.c:24)
   n1: 12880 0x5BCE07: luaL_openlib (lauxlib.c:264)
    n0: 12880 in 55 places, all below massif's threshold (01.00%)
   n0: 1648 in 38 places, all below massif's threshold (01.00%)
  n3: 7744 0x5AF0F3: luaH_new (ltable.c:359)
   n1: 4352 0x5A40C8: luaV_execute (lvm.c:460)
    n1: 4352 0x5A5B4B: luaD_call (ldo.c:377)
     n1: 4352 0x5A0675: luaD_rawrunprotected (ldo.c:116)
      n1: 4352 0x5A8703: lua_pcall (ldo.c:463)
       n1: 4352 0x4BD0DC: gt_style_load_file (style.c:194)
        n1: 4352 0x40D655: gtr_new (gtr.c:105)
         n0: 4352 0x40C7BC: main (gt.c:29)
   n1: 3200 0x5AF54C: lua_createtable (lapi.c:581)
    n0: 3200 in 11 places, all below massif's threshold (01.00%)
   n0: 192 in 3 places, all below massif's threshold (01.00%)
  n0: 5888 in 13 places, all below massif's threshold (01.00%)
  n1: 4096 0x5A6905: luaS_resize (lstring.c:28)
   n2: 4096 0x5A6BB0: luaS_newlstr (lstring.c:70)
    n1: 4096 0x5BC6BC: lua_getfield (lapi.c:550)
     n1: 4096 0x5BC907: luaL_newmetatable (lauxlib.c:113)
      n1: 4096 0x4BDB1B: gt_lua_open_encseq (encseq_lua.c:1023)
       n1: 4096 0x4BDCDB: gt_lua_open_core (gtcore_lua.c:39)
        n1: 4096 0x4BDDA3: gt_lua_open_lib (gt_lua.c:36)
         n1: 4096 0x40D551: gtr_new (gtr.c:85)
          n0: 4096 0x40C7BC: main (gt.c:29)
    n0: 0 in 2 places, all below massif's threshold (01.00%)
 n2: 15720 0x4B3BC4: gt_genome_node_create (genome_node.c:152)
  n2: 15720 0x503109: gt_feature_node_new (feature_node.c:210)
   n2: 15120 0x5467BA: gt_gff3_parser_parse_genome_nodes (gff3_parser.c:1153)
    n1: 11400 0x547427: gff3_in_stream_plain_next (gff3_in_stream_plain.c:150)
     n1: 11400 0x507BDC: gt_node_stream_next (node_stream.c:94)
      n1: 11400 0x508E45: add_ids_stream_next (add_ids_stream.c:60)
       n1: 11400 0x507BDC: gt_node_stream_next (node_stream.c:94)
        n1: 11400 0x508C2D: cds_check_stream_next (cds_check_stream.c:38)
         n1: 11400 0x507BDC: gt_node_stream_next (node_stream.c:94)
          n1: 11400 0x507BDC: gt_node_stream_next (node_stream.c:94)
           n1: 11400 0x50812B: gt_node_stream_pull (node_stream.c:116)
            n1: 11400 0x41613F: gt_gff3_runner (gt_gff3.c:276)
             n1: 11400 0x5757C9: gt_tool_run (tool.c:88)
              n1: 11400 0x40D071: gtr_run (gtr.c:357)
               n0: 11400 0x40C86A: main (gt.c:39)
    n1: 3720 0x5473F1: gff3_in_stream_plain_next (gff3_in_stream_plain.c:142)
     n1: 3720 0x507BDC: gt_node_stream_next (node_stream.c:94)
      n1: 3720 0x508E45: add_ids_stream_next (add_ids_stream.c:60)
       n1: 3720 0x507BDC: gt_node_stream_next (node_stream.c:94)
        n1: 3720 0x508C2D: cds_check_stream_next (cds_check_stream.c:38)
         n1: 3720 0x507BDC: gt_node_stream_next (node_stream.c:94)
          n1: 3720 0x507BDC: gt_node_stream_next (node_stream.c:94)
           n1: 3720 0x50812B: gt_node_stream_pull (node_stream.c:116)
            n1: 3720 0x41613F: gt_gff3_runner (gt_gff3.c:276)
             n1: 3720 0x5757C9: gt_tool_run (tool.c:88)
              n1: 3720 0x40D071: gtr_run (gtr.c:357)
               n0: 3720 0x40C86A: main (gt.c:39)
   n0: 600 in 1 place, below massif's threshold (01.00%)
  n0: 0 in 1 place, below massif's threshold (01.00%)
 n0: 11789 in 49 places, all below massif's threshold (01.00%)
 n0: 8208 0x40C7A6: main (gt.c:27)
 n2: 6784 0x49A4BD: gt_ht_reinit (hashtable.c:103)
  n1: 4608 0x49AA0F: gt_ht_resize (hashtable.c:128)
   n2: 4608 0x49B596: gt_hashtable_add (hashtable.c:246)
    n3: 4096 0x49B688: gt_hashmap_add (hashmap.c:90)
     n1: 2048 0x40E063: gtt_tools (gtt.c:186)
      n1: 2048 0x40D159: gtr_register_components (gtr.c:199)
       n0: 2048 0x40C7D0: main (gt.c:34)
     n1: 2048 0x40DAB6: gtt_unit_tests (gtt.c:263)
      n1: 2048 0x40D16B: gtr_register_components (gtr.c:202)
       n0: 2048 0x40C7D0: main (gt.c:34)
     n0: 0 in 6 places, all below massif's threshold (01.00%)
    n0: 512 in 1 place, below massif's threshold (01.00%)
  n0: 2176 in 2 places, all below massif's threshold (01.00%)
 n1: 4104 0x4A4BD0: gt_dlist_add (dlist.c:85)
  n2: 4104 0x4A5010: gt_feature_node_add_child (feature_node.c:970)
   n1: 3840 0x544CEA: process_parent_attr (gff3_parser.c:637)
    n1: 3840 0x54585E: parse_attributes (gff3_parser.c:1001)
     n2: 3840 0x546855: gt_gff3_parser_parse_genome_nodes (gff3_parser.c:1166)
      n1: 3024 0x547427: gff3_in_stream_plain_next (gff3_in_stream_plain.c:150)
       n1: 3024 0x507BDC: gt_node_stream_next (node_stream.c:94)
        n1: 3024 0x508E45: add_ids_stream_next (add_ids_stream.c:60)
         n1: 3024 0x507BDC: gt_node_stream_next (node_stream.c:94)
          n1: 3024 0x508C2D: cds_check_stream_next (cds_check_stream.c:38)
           n1: 3024 0x507BDC: gt_node_stream_next (node_stream.c:94)
            n1: 3024 0x507BDC: gt_node_stream_next (node_stream.c:94)
             n1: 3024 0x50812B: gt_node_stream_pull (node_stream.c:116)
              n1: 3024 0x41613F: gt_gff3_runner (gt_gff3.c:276)
               n1: 3024 0x5757C9: gt_tool_run (tool.c:88)
                n1: 3024 0x40D071: gtr_run (gtr.c:357)
                 n0: 3024 0x40C86A: main (gt.c:39)
      n0: 816 in 1 place, below massif's threshold (01.00%)
   n0: 264 in 1 place, below massif's threshold (01.00%)
 n1: 2388 0x4AFA3A: gt_tag_value_map_new (tag_value_map.c:40)
  n1: 2388 0x4B0519: gt_feature_node_add_attribute (feature_node.c:572)
   n1: 2388 0x545E41: parse_attributes (gff3_parser.c:989)
    n2: 2388 0x546855: gt_gff3_parser_parse_genome_nodes (gff3_parser.c:1166)
     n1: 1906 0x547427: gff3_in_stream_plain_next (gff3_in_stream_plain.c:150)
      n1: 1906 0x507BDC: gt_node_stream_next (node_stream.c:94)
       n1: 1906 0x508E45: add_ids_stream_next (add_ids_stream.c:60)
        n1: 1906 0x507BDC: gt_node_stream_next (node_stream.c:94)
         n1: 1906 0x508C2D: cds_check_stream_next (cds_check_stream.c:38)
          n1: 1906 0x507BDC: gt_node_stream_next (node_stream.c:94)
           n1: 1906 0x507BDC: gt_node_stream_next (node_stream.c:94)
            n1: 1906 0x50812B: gt_node_stream_pull (node_stream.c:116)
             n1: 1906 0x41613F: gt_gff3_runner (gt_gff3.c:276)
              n1: 1906 0x5757C9: gt_tool_run (tool.c:88)
               n1: 1906 0x40D071: gtr_run (gtr.c:357)
                n0: 1906 0x40C86A: main (gt.c:39)
     n0: 482 in 1 place, below massif's threshold (01.00%)
 n1: 1856 0x49A4F5: gt_ht_reinit (hashtable.c:112)
  n0: 1856 in 3 places, all below massif's threshold (01.00%)
#-----------
snapshot=9
#-----------
time=1920500131
mem_heap_B=235233
mem_heap_extra_B=57975
mem_stacks_B=0
heap_tree=peak
n7: 235233 (heap allocation functions) malloc/new/new[], --alloc-fns, etc.
 n7: 94187 0x5A687A: luaM_realloc_ (lmem.c:79)
  n1: 23080 0x5A97A2: resize (ltable.c:284)
   n3: 23080 0x5AA481: newkey (ltable.c:348)
    n2: 17920 0x5AB176: luaV_settable (ltable.c:503)
     n2: 16800 0x5AB55E: lua_setfield (lapi.c:665)
      n1: 14400 0x5BCE1A: luaL_openlib (lauxlib.c:265)
       n0: 14400 in 25 places, all below massif's threshold (01.00%)
      n0: 2400 in 30 places, all below massif's threshold (01.00%)
     n0: 1120 in 1 place, below massif's threshold (01.00%)
    n1: 5120 0x5AADD5: luaX_newstring (ltable.c:527)
     n2: 5120 0x5C179F: llex (llex.c:426)
      n1: 5120 0x5C7243: constructor (llex.c:453)
       n1: 5120 0x5C5FB1: subexpr (lparser.c:761)
        n1: 5120 0x5C69F8: recfield (lparser.c:857)
         n1: 5120 0x5C7028: constructor (lparser.c:524)
          n1: 5120 0x5C5FB1: subexpr (lparser.c:761)
           n1: 5120 0x5C8B00: assignment (lparser.c:857)
            n1: 5120 0x5C1E9F: statement (lparser.c:1233)
             n1: 5120 0x5C477F: luaY_parser (lparser.c:1330)
              n1: 5120 0x5ACB22: f_parser (ldo.c:497)
               n1: 5120 0x5A0675: luaD_rawrunprotected (ldo.c:116)
                n1: 5120 0x5AD3D7: lua_load (ldo.c:463)
                 n1: 5120 0x5AE85E: luaL_loadfile (lauxlib.c:581)
                  n1: 5120 0x4BD05E: gt_style_load_file (style.c:194)
                   n1: 5120 0x40D655: gtr_new (gtr.c:105)
                    n0: 5120 0x40C7BC: main (gt.c:29)
      n0: 0 in 3 places, all below massif's threshold (01.00%)
    n0: 40 in 3 places, all below massif's threshold (01.00%)
  n3: 21240 0x5AF219: luaH_new (ltable.c:284)
   n1: 14160 0x5A40C8: luaV_execute (lvm.c:460)
    n1: 14160 0x5A5B4B: luaD_call (ldo.c:377)
     n1: 14160 0x5A0675: luaD_rawrunprotected (ldo.c:116)
      n1: 14160 0x5A8703: lua_pcall (ldo.c:463)
       n1: 14160 0x4BD0DC: gt_style_load_file (style.c:194)
        n1: 14160 0x40D655: gtr_new (gtr.c:105)
         n0: 14160 0x40C7BC: main (gt.c:29)
   n2: 7080 0x5AF54C: lua_createtable (lapi.c:581)
    n2: 6760 0x5AF829: luaL_findtable (lauxlib.c:368)
     n1: 6760 0x5BCD5F: luaL_openlib (lauxlib.c:252)
      n0: 6760 in 13 places, all below massif's threshold (01.00%)
     n0: 0 in 1 place, below massif's threshold (01.00%)
    n0: 320 in 6 places, all below massif's threshold (01.00%)
   n0: 0 in 2 places, all below massif's threshold (01.00%)
  n2: 17611 0x5A6B2C: luaS_newlstr (lstring.c:56)
   n2: 11053 0x5AB53C: lua_setfield (lapi.c:664)
    n1: 10019 0x5BCE1A: luaL_openlib (lauxlib.c:265)
     n0: 10019 in 52 places, all below massif's threshold (01.00%)
    n0: 1034 in 22 places, all below massif's threshold (01.00%)
   n0: 6558 in 27 places, all below massif's threshold (01.00%)
  n2: 14528 0x5ACD2E: lua_pushcclosure (lfunc.c:24)
   n1: 12880 0x5BCE07: luaL_openlib (lauxlib.c:264)
    n0: 12880 in 55 places, all below massif's threshold (01.00%)
   n0: 1648 in 38 places, all below massif's threshold (01.00%)
  n3: 7744 0x5AF0F3: luaH_new (ltable.c:359)
   n1: 4352 0x5A40C8: luaV_execute (lvm.c:460)
    n1: 4352 0x5A5B4B: luaD_call (ldo.c:377)
     n1: 4352 0x5A0675: luaD_rawrunprotected (ldo.c:116)
      n1: 4352 0x5A8703: lua_pcall (ldo.c:463)
       n1: 4352 0x4BD0DC: gt_style_load_file (style.c:194)
        n1: 4352 0x40D655: gtr_new (gtr.c:105)
         n0: 4352 0x40C7BC: main (gt.c:29)
   n1: 3200 0x5AF54C: lua_createtable (lapi.c:581)
    n0: 3200 in 11 places, all below massif's threshold (01.00%)
   n0: 192 in 3 places, all below massif's threshold (01.00%)
  n0: 5888 in 13 places, all below massif's threshold (01.00%)
  n1: 4096 0x5A6905: luaS_resize (lstring.c:28)
   n2: 4096 0x5A6BB0: luaS_newlstr (lstring.c:70)
    n1: 4096 0x5BC6BC: lua_getfield (lapi.c:550)
     n1: 4096 0x5BC907: luaL_newmetatable (lauxlib.c:113)
      n1: 4096 0x4BDB1B: gt_lua_open_encseq (encseq_lua.c:1023)
       n1: 4096 0x4BDCDB: gt_lua_open_core (gtcore_lua.c:39)
        n1: 4096 0x4BDDA3: gt_lua_open_lib (gt_lua.c:36)
         n1: 4096 0x40D551: gtr_new (gtr.c:85)
          n0: 4096 0x40C7BC: main (gt.c:29)
    n0: 0 in 2 places, all below massif's threshold (01.00%)
 n2: 75600 0x4B3BC4: gt_genome_node_create (genome_node.c:152)
  n2: 75600 0x503109: gt_feature_node_new (feature_node.c:210)
   n2: 74760 0x5467BA: gt_gff3_parser_parse_genome_nodes (gff3_parser.c:1153)
    n1: 51600 0x547427: gff3_in_stream_plain_next (gff3_in_stream_plain.c:150)
     n1: 51600 0x507BDC: gt_node_stream_next (node_stream.c:94)
      n1: 51600 0x508E45: add_ids_stream_next (add_ids_stream.c:60)
       n1: 51600 0x507BDC: gt_node_stream_next (node_stream.c:94)
        n1: 51600 0x508C2D: cds_check_stream_next (cds_check_stream.c:38)
         n1: 51600 0x507BDC: gt_node_stream_next (node_stream.c:94)
          n1: 51600 0x507BDC: gt_node_stream_next (node_stream.c:94)
           n1: 51600 0x50812B: gt_node_stream_pull (node_stream.c:116)
            n1: 51600 0x41613F: gt_gff3_runner (gt_gff3.c:276)
             n1: 51600 0x5757C9: gt_tool_run (tool.c:88)
              n1: 51600 0x40D071: gtr_run (gtr.c:357)
               n0: 51600 0x40C86A: main (gt.c:39)
    n1: 23160 0x5473F1: gff3_in_stream_plain_next (gff3_in_stream_plain.c:142)
     n1: 23160 0x507BDC: gt_node_stream_next (node_stream.c:94)
      n1: 23160 0x508E45: add_ids_stream_next (add_ids_stream.c:60)
       n1: 23160 0x507BDC: gt_node_stream_next (node_stream.c:94)
        n1: 23160 0x508C2D: cds_check_stream_next (cds_check_stream.c:38)
         n1: 23160 0x507BDC: gt_node_stream_next (node_stream.c:94)
          n1: 23160 0x507BDC: gt_node_stream_next (node_stream.c:94)
           n1: 23160 0x50812B: gt_node_stream_pull (node_stream.c:116)
            n1: 23160 0x41613F: gt_gff3_runner (gt_gff3.c:276)
             n1: 23160 0x5757C9: gt_tool_run (tool.c:88)
              n1: 23160 0x40D071: gtr_run (gtr.c:357)
               n0: 23160 0x40C86A: main (gt.c:39)
   n0: 840 in 1 place, below massif's threshold (01.00%)
  n0: 0 in 1 place, below massif's threshold (01.00%)
 n1: 21168 0x4A4BD0: gt_dlist_add (dlist.c:85)
  n2: 21168 0x4A5010: gt_feature_node_add_child (feature_node.c:970)
   n1: 20592 0x544CEA: process_parent_attr (gff3_parser.c:637)
    n1: 20592 0x54585E: parse_attributes (gff3_parser.c:1001)
     n2: 20592 0x546855: gt_gff3_parser_parse_genome_nodes (gff3_parser.c:1166)
      n1: 14424 0x547427: gff3_in_stream_plain_next (gff3_in_stream_plain.c:150)
       n1: 14424 0x507BDC: gt_node_stream_next (node_stream.c:94)
        n1: 14424 0x508E45: add_ids_stream_next (add_ids_stream.c:60)
         n1: 14424 0x507BDC: gt_node_stream_next (node_stream.c:94)
          n1: 14424 0x508C2D: cds_check_stream_next (cds_check_stream.c:38)
           n1: 14424 0x507BDC: gt_node_stream_next (node_stream.c:94)
            n1: 14424 0x507BDC: gt_node_stream_next (node_stream.c:94)
             n1: 14424 0x50812B: gt_node_stream_pull (node_stream.c:116)
              n1: 14424 0x41613F: gt_gff3_runner (gt_gff3.c:276)
               n1: 14424 0x5757C9: gt_tool_run (tool.c:88)
                n1: 14424 0x40D071: gtr_run (gtr.c:357)
                 n0: 14424 0x40C86A: main (gt.c:39)
      n1: 6168 0x5473F1: gff3_in_stream_plain_next (gff3_in_stream_plain.c:142)
       n1: 6168 0x507BDC: gt_node_stream_next (node_stream.c:94)
        n1: 6168 0x508E45: add_ids_stream_next (add_ids_stream.c:60)
         n1: 6168 0x507BDC: gt_node_stream_next (node_stream.c:94)
          n1: 6168 0x508C2D: cds_check_stream_next (cds_check_stream.c:38)
           n1: 6168 0x507BDC: gt_node_stream_next (node_stream.c:94)
            n1: 6168 0x507BDC: gt_node_stream_next (node_stream.c:94)
             n1: 6168 0x50812B: gt_node_stream_pull (node_stream.c:116)
              n1: 6168 0x41613F: gt_gff3_runner (gt_gff3.c:276)
               n1: 6168 0x5757C9: gt_tool_run (tool.c:88)
                n1: 6168 0x40D071: gtr_run (gtr.c:357)
                 n0: 6168 0x40C86A: main (gt.c:39)
   n0: 576 in 1 place, below massif's threshold (01.00%)
 n0: 16284 in 50 places, all below massif's threshold (01.00%)
 n1: 13002 0x4AFA3A: gt_tag_value_map_new (tag_value_map.c:40)
  n1: 13002 0x4B0519: gt_feature_node_add_attribute (feature_node.c:572)
   n1: 13002 0x545E41: parse_attributes (gff3_parser.c:989)
    n2: 13002 0x546855: gt_gff3_parser_parse_genome_nodes (gff3_parser.c:1166)
     n1: 9122 0x547427: gff3_in_stream_plain_next (gff3_in_stream_plain.c:150)
      n1: 9122 0x507BDC: gt_node_stream_next (node_stream.c:94)
       n1: 9122 0x508E45: add_ids_stream_next (add_ids_stream.c:60)
        n1: 9122 0x507BDC: gt_node_stream_next (node_stream.c:94)
         n1: 9122 0x508C2D: cds_check_stream_next (cds_check_stream.c:38)
          n1: 9122 0x507BDC: gt_node_stream_next (node_stream.c:94)
           n1: 9122 0x507BDC: gt_node_stream_next (node_stream.c:94)
            n1: 9122 0x50812B: gt_node_stream_pull (node_stream.c:116)
             n1: 9122 0x41613F: gt_gff3_runner (gt_gff3.c:276)
              n1: 9122 0x5757C9: gt_tool_run (tool.c:88)
               n1: 9122 0x40D071: gtr_run (gtr.c:357)
                n0: 9122 0x40C86A: main (gt.c:39)
     n1: 3880 0x5473F1: gff3_in_stream_plain_next (gff3_in_stream_plain.c:142)
      n1: 3880 0x507BDC: gt_node_stream_next (node_stream.c:94)
       n1: 3880 0x508E45: add_ids_stream_next (add_ids_stream.c:60)
        n1: 3880 0x507BDC: gt_node_stream_next (node_stream.c:94)
         n1: 3880 0x508C2D: cds_check_stream_next (cds_check_stream.c:38)
          n1: 3880 0x507BDC: gt_node_stream_next (node_stream.c:94)
           n1: 3880 0x507BDC: gt_node_stream_next (node_stream.c:94)
            n1: 3880 0x50812B: gt_node_stream_pull (node_stream.c:116)
             n1: 3880 0x41613F: gt_gff3_runner (gt_gff3.c:276)
              n1: 3880 0x5757C9: gt_tool_run (tool.c:88)
               n1: 3880 0x40D071: gtr_run (gtr.c:357)
                n0: 3880 0x40C86A: main (gt.c:39)
 n0: 8208 0x40C7A6: main (gt.c:27)
 n2: 6784 0x49A4BD: gt_ht_reinit (hashtable.c:103)
  n1: 4608 0x49AA0F: gt_ht_resize (hashtable.c:128)
   n2: 4608 0x49B596: gt_hashtable_add (hashtable.c:246)
    n1: 4096 0x49B688: gt_hashmap_add (hashmap.c:90)
     n0: 4096 in 8 places, all below massif's threshold (01.00%)
    n0: 512 in 1 place, below massif's threshold (01.00%)
  n0: 2176 in 2 places, all below massif's threshold (01.00%)
#-----------
snapshot=10
#-----------
time=2177439174
mem_heap_B=129666
mem_heap_extra_B=24046
mem_stacks_B=0
heap_tree=empty
#-----------
snapshot=11
#-----------
time=2434385713
mem_heap_B=139877
mem_heap_extra_B=27323
mem_stacks_B=0
heap_tree=empty
#-----------
snapshot=12
#-----------
time=2675050022
mem_heap_B=139584
mem_heap_extra_B=27416
mem_stacks_B=0
heap_tree=empty
#-----------
snapshot=13
#-----------
time=2808752207
mem_heap_B=148777
mem_heap_extra_B=30039
mem_stacks_B=0
heap_tree=empty
#-----------
snapshot=14
#-----------
time=2995942458
mem_heap_B=131430
mem_heap_extra_B=24730
mem_stacks_B=0
heap_tree=empty
#-----------
snapshot=15
#-----------
time=3156387521
mem_heap_B=133618
mem_heap_extra_B=25446
mem_stacks_B=0
heap_tree=empty
#-----------
snapshot=16
#-----------
time=3423806986
mem_heap_B=132944
mem_heap_extra_B=25088
mem_stacks_B=0
heap_tree=empty
#-----------
snapshot=17
#-----------
time=3637728277
mem_heap_B=127557
mem_heap_extra_B=23323
mem_stacks_B=0
heap_tree=empty
#-----------
snapshot=18
#-----------
time=3771438000
mem_heap_B=136876
mem_heap_extra_B=26348
mem_stacks_B=0
heap_tree=empty
#-----------
snapshot=19
#-----------
time=3985552891
mem_heap_B=149670
mem_heap_extra_B=30290
mem_stacks_B=0
heap_tree=empty
#-----------
snapshot=20
#-----------
time=4285310284
mem_heap_B=159796
mem_heap_extra_B=33500
mem_stacks_B=0
heap_tree=empty
#-----------
snapshot=21
#-----------
time=4499427221
mem_heap_B=164591
mem_heap_extra_B=35073
mem_stacks_B=0
heap_tree=empty
#-----------
snapshot=22
#-----------
time=4627899440
mem_heap_B=134314
mem_heap_extra_B=25590
mem_stacks_B=0
heap_tree=empty
#-----------
snapshot=23
#-----------
time=4927668713
mem_heap_B=183262
mem_heap_extra_B=40866
mem_stacks_B=0
heap_tree=empty
#-----------
snapshot=24
#-----------
time=5141787699
mem_heap_B=136673
mem_heap_extra_B=26223
mem_stacks_B=0
heap_tree=empty
#-----------
snapshot=25
#-----------
time=5313077573
mem_heap_B=143715
mem_heap_extra_B=28477
mem_stacks_B=0
heap_tree=detailed
n8: 143715 (heap allocation functions) malloc/new/new[], --alloc-fns, etc.
 n7: 94187 0x5A687A: luaM_realloc_ (lmem.c:79)
  n1: 23080 0x5A97A2: resize (ltable.c:284)
   n3: 23080 0x5AA481: newkey (ltable.c:348)
    n2: 17920 0x5AB176: luaV_settable (ltable.c:503)
     n2: 16800 0x5AB55E: lua_setfield (lapi.c:665)
      n3: 14400 0x5BCE1A: luaL_openlib (lauxlib.c:265)
       n0: 9280 in 23 places, all below massif's threshold (01.00%)
       n1: 2560 0x5BD03F: luaopen_package (loadlib.c:662)
        n1: 2560 0x5B136F: luaD_precall (ldo.c:319)
         n1: 2560 0x5A5B02: luaD_call (ldo.c:376)
          n1: 2560 0x5A5BC4: lua_call (lapi.c:782)
           n1: 2560 0x5ACE46: luaL_openlibs (linit.c:35)
            n1: 2560 0x40D548: gtr_new (gtr.c:84)
             n0: 2560 0x40C7BC: main (gt.c:29)
       n1: 2560 0x468549: gt_lua_open_feature_stream (feature_stream_lua.c:55)
        n1: 2560 0x4BD873: gt_lua_open_annotationsketch (annotationsketch_lua.c:42)
         n1: 2560 0x4BDDB3: gt_lua_open_lib (gt_lua.c:39)
          n1: 2560 0x40D551: gtr_new (gtr.c:85)
           n0: 2560 0x40C7BC: main (gt.c:29)
      n0: 2400 in 30 places, all below massif's threshold (01.00%)
     n0: 1120 in 1 place, below massif's threshold (01.00%)
    n1: 5120 0x5AADD5: luaX_newstring (ltable.c:527)
     n2: 5120 0x5C179F: llex (llex.c:426)
      n1: 5120 0x5C7243: constructor (llex.c:453)
       n1: 5120 0x5C5FB1: subexpr (lparser.c:761)
        n1: 5120 0x5C69F8: recfield (lparser.c:857)
         n1: 5120 0x5C7028: constructor (lparser.c:524)
          n1: 5120 0x5C5FB1: subexpr (lparser.c:761)
           n1: 5120 0x5C8B00: assignment (lparser.c:857)
            n1: 5120 0x5C1E9F: statement (lparser.c:1233)
             n1: 5120 0x5C477F: luaY_parser (lparser.c:1330)
              n1: 5120 0x5ACB22: f_parser (ldo.c:497)
               n1: 5120 0x5A0675: luaD_rawrunprotected (ldo.c:116)
                n1: 5120 0x5AD3D7: lua_load (ldo.c:463)
                 n1: 5120 0x5AE85E: luaL_loadfile (lauxlib.c:581)
                  n1: 5120 0x4BD05E: gt_style_load_file (style.c:194)
                   n1: 5120 0x40D655: gtr_new (gtr.c:105)
                    n0: 5120 0x40C7BC: main (gt.c:29)
      n0: 0 in 3 places, all below massif's threshold (01.00%)
    n0: 40 in 3 places, all below massif's threshold (01.00%)
  n3: 21240 0x5AF219: luaH_new (ltable.c:284)
   n1: 14160 0x5A40C8: luaV_execute (lvm.c:460)
    n1: 14160 0x5A5B4B: luaD_call (ldo.c:377)
     n1: 14160 0x5A0675: luaD_rawrunprotected (ldo.c:116)
      n1: 14160 0x5A8703: lua_pcall (ldo.c:463)
       n1: 14160 0x4BD0DC: gt_style_load_file (style.c:194)
        n1: 14160 0x40D655: gtr_new (gtr.c:105)
         n0: 14160 0x40C7BC: main (gt.c:29)
   n2: 7080 0x5AF54C: lua_createtable (lapi.c:581)
    n2: 6760 0x5AF829: luaL_findtable (lauxlib.c:368)
     n1: 6760 0x5BCD5F: luaL_openlib (lauxlib.c:252)
      n0: 6760 in 13 places, all below massif's threshold (01.00%)
     n0: 0 in 1 place, below massif's threshold (01.00%)
    n0: 320 in 6 places, all below massif's threshold (01.00%)
   n0: 0 in 2 places, all below massif's threshold (01.00%)
  n3: 17611 0x5A6B2C: luaS_newlstr (lstring.c:56)
   n2: 11053 0x5AB53C: lua_setfield (lapi.c:664)
    n1: 10019 0x5BCE1A: luaL_openlib (lauxlib.c:265)
     n0: 10019 in 52 places, all below massif's threshold (01.00%)
    n0: 1034 in 22 places, all below massif's threshold (01.00%)
   n0: 4339 in 26 places, all below massif's threshold (01.00%)
   n1: 2219 0x5AAD45: luaX_newstring (llex.c:119)
    n2: 2219 0x5C179F: llex (llex.c:426)
     n1: 2101 0x5C7243: constructor (llex.c:453)
      n1: 2101 0x5C5FB1: subexpr (lparser.c:761)
       n0: 2101 in 2 places, all below massif's threshold (01.00%)
     n0: 118 in 2 places, all below massif's threshold (01.00%)
  n2: 14528 0x5ACD2E: lua_pushcclosure (lfunc.c:24)
   n1: 12880 0x5BCE07: luaL_openlib (lauxlib.c:264)
    n0: 12880 in 55 places, all below massif's threshold (01.00%)
   n0: 1648 in 38 places, all below massif's threshold (01.00%)
  n3: 7744 0x5AF0F3: luaH_new (ltable.c:359)
   n1: 4352 0x5A40C8: luaV_execute (lvm.c:460)
    n1: 4352 0x5A5B4B: luaD_call (ldo.c:377)
     n1: 4352 0x5A0675: luaD_rawrunprotected (ldo.c:116)
      n1: 4352 0x5A8703: lua_pcall (ldo.c:463)
       n1: 4352 0x4BD0DC: gt_style_load_file (style.c:194)
        n1: 4352 0x40D655: gtr_new (gtr.c:105)
         n0: 4352 0x40C7BC: main (gt.c:29)
   n1: 3200 0x5AF54C: lua_createtable (lapi.c:581)
    n0: 3200 in 11 places, all below massif's threshold (01.00%)
   n0: 192 in 3 places, all below massif's threshold (01.00%)
  n0: 5888 in 13 places, all below massif's threshold (01.00%)
  n1: 4096 0x5A6905: luaS_resize (lstring.c:28)
   n2: 4096 0x5A6BB0: luaS_newlstr (lstring.c:70)
    n1: 4096 0x5BC6BC: lua_getfield (lapi.c:550)
     n1: 4096 0x5BC907: luaL_newmetatable (lauxlib.c:113)
      n1: 4096 0x4BDB1B: gt_lua_open_encseq (encseq_lua.c:1023)
       n1: 4096 0x4BDCDB: gt_lua_open_core (gtcore_lua.c:39)
        n1: 4096 0x4BDDA3: gt_lua_open_lib (gt_lua.c:36)
         n1: 4096 0x40D551: gtr_new (gtr.c:85)
          n0: 4096 0x40C7BC: main (gt.c:29)
    n0: 0 in 2 places, all below massif's threshold (01.00%)
 n2: 14520 0x4B3BC4: gt_genome_node_create (genome_node.c:152)
  n2: 14520 0x503109: gt_feature_node_new (feature_node.c:210)
   n2: 13920 0x5467BA: gt_gff3_parser_parse_genome_nodes (gff3_parser.c:1153)
    n1: 11160 0x5473F1: gff3_in_stream_plain_next (gff3_in_stream_plain.c:142)
     n1: 11160 0x507BDC: gt_node_stream_next (node_stream.c:94)
      n1: 11160 0x508E45: add_ids_stream_next (add_ids_stream.c:60)
       n1: 11160 0x507BDC: gt_node_stream_next (node_stream.c:94)
        n1: 11160 0x508C2D: cds_check_stream_next (cds_check_stream.c:38)
         n1: 11160 0x507BDC: gt_node_stream_next (node_stream.c:94)
          n1: 11160 0x507BDC: gt_node_stream_next (node_stream.c:94)
           n1: 11160 0x50812B: gt_node_stream_pull (node_stream.c:116)
            n1: 11160 0x41613F: gt_gff3_runner (gt_gff3.c:276)
             n1: 11160 0x5757C9: gt_tool_run (tool.c:88)
              n1: 11160 0x40D071: gtr_run (gtr.c:357)
               n0: 11160 0x40C86A: main (gt.c:39)
    n1: 2760 0x547427: gff3_in_stream_plain_next (gff3_in_stream_plain.c:150)
     n1: 2760 0x507BDC: gt_node_stream_next (node_stream.c:94)
      n1: 2760 0x508E45: add_ids_stream_next (add_ids_stream.c:60)
       n1: 2760 0x507BDC: gt_node_stream_next (node_stream.c:94)
        n1: 2760 0x508C2D: cds_check_stream_next (cds_check_stream.c:38)
         n1: 2760 0x507BDC: gt_node_stream_next (node_stream.c:94)
          n1: 2760 0x507BDC: gt_node_stream_next (node_stream.c:94)
           n1: 2760 0x50812B: gt_node_stream_pull (node_stream.c:116)
            n1: 2760 0x41613F: gt_gff3_runner (gt_gff3.c:276)
             n1: 2760 0x5757C9: gt_tool_run (tool.c:88)
              n1: 2760 0x40D071: gtr_run (gtr.c:357)
               n0: 2760 0x40C86A: main (gt.c:39)
   n0: 600 in 1 place, below massif's threshold (01.00%)
  n0: 0 in 1 place, below massif's threshold (01.00%)
 n0: 12418 in 49 places, all below massif's threshold (01.00%)
 n0: 8208 0x40C7A6: main (gt.c:27)
 n2: 6784 0x49A4BD: gt_ht_reinit (hashtable.c:103)
  n1: 4608 0x49AA0F: gt_ht_resize (hashtable.c:128)
   n2: 4608 0x49B596: gt_hashtable_add (hashtable.c:246)
    n3: 4096 0x49B688: gt_hashmap_add (hashmap.c:90)
     n1: 2048 0x40E063: gtt_tools (gtt.c:186)
      n1: 2048 0x40D159: gtr_register_components (gtr.c:199)
       n0: 2048 0x40C7D0: main (gt.c:34)
     n1: 2048 0x40DAB6: gtt_unit_tests (gtt.c:263)
      n1: 2048 0x40D16B: gtr_register_components (gtr.c:202)
       n0: 2048 0x40C7D0: main (gt.c:34)
     n0: 0 in 6 places, all below massif's threshold (01.00%)
    n0: 512 in 1 place, below massif's threshold (01.00%)
  n0: 2176 in 2 places, all below massif's threshold (01.00%)
 n1: 3600 0x4A4BD0: gt_dlist_add (dlist.c:85)
  n2: 3600 0x4A5010: gt_feature_node_add_child (feature_node.c:970)
   n1: 3312 0x544CEA: process_parent_attr (gff3_parser.c:637)
    n1: 3312 0x54585E: parse_attributes (gff3_parser.c:1001)
     n2: 3312 0x546855: gt_gff3_parser_parse_genome_nodes (gff3_parser.c:1166)
      n1: 2760 0x5473F1: gff3_in_stream_plain_next (gff3_in_stream_plain.c:142)
       n1: 2760 0x507BDC: gt_node_stream_next (node_stream.c:94)
        n1: 2760 0x508E45: add_ids_stream_next (add_ids_stream.c:60)
         n1: 2760 0x507BDC: gt_node_stream_next (node_stream.c:94)
          n1: 2760 0x508C2D: cds_check_stream_next (cds_check_stream.c:38)
           n1: 2760 0x507BDC: gt_node_stream_next (node_stream.c:94)
            n1: 2760 0x507BDC: gt_node_stream_next (node_stream.c:94)
             n1: 2760 0x50812B: gt_node_stream_pull (node_stream.c:116)
              n1: 2760 0x41613F: gt_gff3_runner (gt_gff3.c:276)
               n1: 2760 0x5757C9: gt_tool_run (tool.c:88)
                n1: 2760 0x40D071: gtr_run (gtr.c:357)
                 n0: 2760 0x40C86A: main (gt.c:39)
      n0: 552 in 1 place, below massif's threshold (01.00%)
   n0: 288 in 1 place, below massif's threshold (01.00%)
 n1: 2142 0x4AFA3A: gt_tag_value_map_new (tag_value_map.c:40)
  n1: 2142 0x4B0519: gt_feature_node_add_attribute (feature_node.c:572)
   n1: 2142 0x545E41: parse_attributes (gff3_parser.c:989)
    n2: 2142 0x546855: gt_gff3_parser_parse_genome_nodes (gff3_parser.c:1166)
     n1: 1812 0x5473F1: gff3_in_stream_plain_next (gff3_in_stream_plain.c:142)
      n1: 1812 0x507BDC: gt_node_stream_next (node_stream.c:94)
       n1: 1812 0x508E45: add_ids_stream_next (add_ids_stream.c:60)
        n1: 1812 0x507BDC: gt_node_stream_next (node_stream.c:94)
         n1: 1812 0x508C2D: cds_check_stream_next (cds_check_stream.c:38)
          n1: 1812 0x507BDC: gt_node_stream_next (node_stream.c:94)
           n1: 1812 0x507BDC: gt_node_stream_next (node_stream.c:94)
            n1: 1812 0x50812B: gt_node_stream_pull (node_stream.c:116)
             n1: 1812 0x41613F: gt_gff3_runner (gt_gff3.c:276)
              n1: 1812 0x5757C9: gt_tool_run (tool.c:88)
               n1: 1812 0x40D071: gtr_run (gtr.c:357)
                n0: 1812 0x40C86A: main (gt.c:39)
     n0: 330 in 1 place, below massif's threshold (01.00%)
 n1: 1856 0x49A4F5: gt_ht_reinit (hashtable.c:112)
  n0: 1856 in 3 places, all below massif's threshold (01.00%)
#-----------
snapshot=26
#-----------
time=5570008918
mem_heap_B=142407
mem_heap_extra_B=27945
mem_stacks_B=0
heap_tree=empty
#-----------
snapshot=27
#-----------
time=5741307359
mem_heap_B=145835
mem_heap_extra_B=29173
mem_stacks_B=0
heap_tree=detailed
n8: 145835 (heap allocation functions) malloc/new/new[], --alloc-fns, etc.
 n7: 94187 0x5A687A: luaM_realloc_ (lmem.c:79)
  n1: 23080 0x5A97A2: resize (ltable.c:284)
   n3: 23080 0x5AA481: newkey (ltable.c:348)
    n2: 17920 0x5AB176: luaV_settable (ltable.c:503)
     n2: 16800 0x5AB55E: lua_setfield (lapi.c:665)
      n3: 14400 0x5BCE1A: luaL_openlib (lauxlib.c:265)
       n0: 9280 in 23 places, all below massif's threshold (01.00%)
       n1: 2560 0x5BD03F: luaopen_package (loadlib.c:662)
        n1: 2560 0x5B136F: luaD_precall (ldo.c:319)
         n1: 2560 0x5A5B02: luaD_call (ldo.c:376)
          n1: 2560 0x5A5BC4: lua_call (lapi.c:782)
           n1: 2560 0x5ACE46: luaL_openlibs (linit.c:35)
            n1: 2560 0x40D548: gtr_new (gtr.c:84)
             n0: 2560 0x40C7BC: main (gt.c:29)
       n1: 2560 0x468549: gt_lua_open_feature_stream (feature_stream_lua.c:55)
        n1: 2560 0x4BD873: gt_lua_open_annotationsketch (annotationsketch_lua.c:42)
         n1: 2560 0x4BDDB3: gt_lua_open_lib (gt_lua.c:39)
          n1: 2560 0x40D551: gtr_new (gtr.c:85)
           n0: 2560 0x40C7BC: main (gt.c:29)
      n0: 2400 in 30 places, all below massif's threshold (01.00%)
     n0: 1120 in 1 place, below massif's threshold (01.00%)
    n1: 5120 0x5AADD5: luaX_newstring (ltable.c:527)
     n2: 5120 0x5C179F: llex (llex.c:426)
      n1: 5120 0x5C7243: constructor (llex.c:453)
       n1: 5120 0x5C5FB1: subexpr (lparser.c:761)
        n1: 5120 0x5C69F8: recfield (lparser.c:857)
         n1: 5120 0x5C7028: constructor (lparser.c:524)
          n1: 5120 0x5C5FB1: subexpr (lparser.c:761)
           n1: 5120 0x5C8B00: assignment (lparser.c:857)
            n1: 5120 0x5C1E9F: statement (lparser.c:1233)
             n1: 5120 0x5C477F: luaY_parser (lparser.c:1330)
              n1: 5120 0x5ACB22: f_parser (ldo.c:497)
               n1: 5120 0x5A0675: luaD_rawrunprotected (ldo.c:116)
                n1: 5120 0x5AD3D7: lua_load (ldo.c:463)
                 n1: 5120 0x5AE85E: luaL_loadfile (lauxlib.c:581)
                  n1: 5120 0x4BD05E: gt_style_load_file (style.c:194)
                   n1: 5120 0x40D655: gtr_new (gtr.c:105)
                    n0: 5120 0x40C7BC: main (gt.c:29)
      n0: 0 in 3 places, all below massif's threshold (01.00%)
    n0: 40 in 3 places, all below massif's threshold (01.00%)
  n3: 21240 0x5AF219: luaH_new (ltable.c:284)
   n1: 14160 0x5A40C8: luaV_execute (lvm.c:460)
    n1: 14160 0x5A5B4B: luaD_call (ldo.c:377)
     n1: 14160 0x5A0675: luaD_rawrunprotected (ldo.c:116)
      n1: 14160 0x5A8703: lua_pcall (ldo.c:463)
       n1: 14160 0x4BD0DC: gt_style_load_file (style.c:194)
        n1: 14160 0x40D655: gtr_new (gtr.c:105)
         n0: 14160 0x40C7BC: main (gt.c:29)
   n2: 7080 0x5AF54C: lua_createtable (lapi.c:581)
    n2: 6760 0x5AF829: luaL_findtable (lauxlib.c:368)
     n1: 6760 0x5BCD5F: luaL_openlib (lauxlib.c:252)
      n0: 6760 in 13 places, all below massif's threshold (01.00%)
     n0: 0 in 1 place, below massif's threshold (01.00%)
    n0: 320 in 6 places, all below massif's threshold (01.00%)
   n0: 0 in 2 places, all below massif's threshold (01.00%)
  n3: 17611 0x5A6B2C: luaS_newlstr (lstring.c:56)
   n2: 11053 0x5AB53C: lua_setfield (lapi.c:664)
    n1: 10019 0x5BCE1A: luaL_openlib (lauxlib.c:265)
     n0: 10019 in 52 places, all below massif's threshold (01.00%)
    n0: 1034 in 22 places, all below massif's threshold (01.00%)
   n0: 4339 in 26 places, all below massif's threshold (01.00%)
   n1: 2219 0x5AAD45: luaX_newstring (llex.c:119)
    n2: 2219 0x5C179F: llex (llex.c:426)
     n1: 2101 0x5C7243: constructor (llex.c:453)
      n1: 2101 0x5C5FB1: subexpr (lparser.c:761)
       n0: 2101 in 2 places, all below massif's threshold (01.00%)
     n0: 118 in 2 places, all below massif's threshold (01.00%)
  n2: 14528 0x5ACD2E: lua_pushcclosure (lfunc.c:24)
   n1: 12880 0x5BCE07: luaL_openlib (lauxlib.c:264)
    n0: 12880 in 55 places, all below massif's threshold (01.00%)
   n0: 1648 in 38 places, all below massif's threshold (01.00%)
  n3: 7744 0x5AF0F3: luaH_new (ltable.c:359)
   n1: 4352 0x5A40C8: luaV_execute (lvm.c:460)
    n1: 4352 0x5A5B4B: luaD_call (ldo.c:377)
     n1: 4352 0x5A0675: luaD_rawrunprotected (ldo.c:116)
      n1: 4352 0x5A8703: lua_pcall (ldo.c:463)
       n1: 4352 0x4BD0DC: gt_style_load_file (style.c:194)
        n1: 4352 0x40D655: gtr_new (gtr.c:105)
         n0: 4352 0x40C7BC: main (gt.c:29)
   n1: 3200 0x5AF54C: lua_createtable (lapi.c:581)
    n0: 3200 in 11 places, all below massif's threshold (01.00%)
   n0: 192 in 3 places, all below massif's threshold (01.00%)
  n0: 5888 in 13 places, all below massif's threshold (01.00%)
  n1: 4096 0x5A6905: luaS_resize (lstring.c:28)
   n2: 4096 0x5A6BB0: luaS_newlstr (lstring.c:70)
    n1: 4096 0x5BC6BC: lua_getfield (lapi.c:550)
     n1: 4096 0x5BC907: luaL_newmetatable (lauxlib.c:113)
      n1: 4096 0x4BDB1B: gt_lua_open_encseq (encseq_lua.c:1023)
       n1: 4096 0x4BDCDB: gt_lua_open_core (gtcore_lua.c:39)
        n1: 4096 0x4BDDA3: gt_lua_open_lib (gt_lua.c:36)
         n1: 4096 0x40D551: gtr_new (gtr.c:85)
          n0: 4096 0x40C7BC: main (gt.c:29)
    n0: 0 in 2 places, all below massif's threshold (01.00%)
 n2: 16080 0x4B3BC4: gt_genome_node_create (genome_node.c:152)
  n2: 16080 0x503109: gt_feature_node_new (feature_node.c:210)
   n2: 15480 0x5467BA: gt_gff3_parser_parse_genome_nodes (gff3_parser.c:1153)
    n1: 7800 0x547427: gff3_in_stream_plain_next (gff3_in_stream_plain.c:150)
     n1: 7800 0x507BDC: gt_node_stream_next (node_stream.c:94)
      n1: 7800 0x508E45: add_ids_stream_next (add_ids_stream.c:60)
       n1: 7800 0x507BDC: gt_node_stream_next (node_stream.c:94)
        n1: 7800 0x508C2D: cds_check_stream_next (cds_check_stream.c:38)
         n1: 7800 0x507BDC: gt_node_stream_next (node_stream.c:94)
          n1: 7800 0x507BDC: gt_node_stream_next (node_stream.c:94)
           n1: 7800 0x50812B: gt_node_stream_pull (node_stream.c:116)
            n1: 7800 0x41613F: gt_gff3_runner (gt_gff3.c:276)
             n1: 7800 0x5757C9: gt_tool_run (tool.c:88)
              n1: 7800 0x40D071: gtr_run (gtr.c:357)
               n0: 7800 0x40C86A: main (gt.c:39)
    n1: 7680 0x5473F1: gff3_in_stream_plain_next (gff3_in_stream_plain.c:142)
     n1: 7680 0x507BDC: gt_node_stream_next (node_stream.c:94)
      n1: 7680 0x508E45: add_ids_stream_next (add_ids_stream.c:60)
       n1: 7680 0x507BDC: gt_node_stream_next (node_stream.c:94)
        n1: 7680 0x508C2D: cds_check_stream_next (cds_check_stream.c:38)
         n1: 7680 0x507BDC: gt_node_stream_next (node_stream.c:94)
          n1: 7680 0x507BDC: gt_node_stream_next (node_stream.c:94)
           n1: 7680 0x50812B: gt_node_stream_pull (node_stream.c:116)
            n1: 7680 0x41613F: gt_gff3_runner (gt_gff3.c:276)
             n1: 7680 0x5757C9: gt_tool_run (tool.c:88)
              n1: 7680 0x40D071: gtr_run (gtr.c:357)
               n0: 7680 0x40C86A: main (gt.c:39)
   n0: 600 in 1 place, below massif's threshold (01.00%)
  n0: 0 in 1 place, below massif's threshold (01.00%)
 n0: 12060 in 49 places, all below massif's threshold (01.00%)
 n0: 8208 0x40C7A6: main (gt.c:27)
 n2: 6784 0x49A4BD: gt_ht_reinit (hashtable.c:103)
  n1: 4608 0x49AA0F: gt_ht_resize (hashtable.c:128)
   n2: 4608 0x49B596: gt_hashtable_add (hashtable.c:246)
    n3: 4096 0x49B688: gt_hashmap_add (hashmap.c:90)
     n1: 2048 0x40E063: gtt_tools (gtt.c:186)
      n1: 2048 0x40D159: gtr_register_components (gtr.c:199)
       n0: 2048 0x40C7D0: main (gt.c:34)
     n1: 2048 0x40DAB6: gtt_unit_tests (gtt.c:263)
      n1: 2048 0x40D16B: gtr_register_components (gtr.c:202)
       n0: 2048 0x40C7D0: main (gt.c:34)
     n0: 0 in 6 places, all below massif's threshold (01.00%)
    n0: 512 in 1 place, below massif's threshold (01.00%)
  n0: 2176 in 2 places, all below massif's threshold (01.00%)
 n1: 4128 0x4A4BD0: gt_dlist_add (dlist.c:85)
  n2: 4128 0x4A5010: gt_feature_node_add_child (feature_node.c:970)
   n1: 3840 0x544CEA: process_parent_attr (gff3_parser.c:637)
    n1: 3840 0x54585E: parse_attributes (gff3_parser.c:1001)
     n2: 3840 0x546855: gt_gff3_parser_parse_genome_nodes (gff3_parser.c:1166)
      n1: 2016 0x547427: gff3_in_stream_plain_next (gff3_in_stream_plain.c:150)
       n1: 2016 0x507BDC: gt_node_stream_next (node_stream.c:94)
        n1: 2016 0x508E45: add_ids_stream_next (add_ids_stream.c:60)
         n1: 2016 0x507BDC: gt_node_stream_next (node_stream.c:94)
          n1: 2016 0x508C2D: cds_check_stream_next (cds_check_stream.c:38)
           n1: 2016 0x507BDC: gt_node_stream_next (node_stream.c:94)
            n1: 2016 0x507BDC: gt_node_stream_next (node_stream.c:94)
             n1: 2016 0x50812B: gt_node_stream_pull (node_stream.c:116)
              n1: 2016 0x41613F: gt_gff3_runner (gt_gff3.c:276)
               n1: 2016 0x5757C9: gt_tool_run (tool.c:88)
                n1: 2016 0x40D071: gtr_run (gtr.c:357)
                 n0: 2016 0x40C86A: main (gt.c:39)
      n1: 1824 0x5473F1: gff3_in_stream_plain_next (gff3_in_stream_plain.c:142)
       n1: 1824 0x507BDC: gt_node_stream_next (node_stream.c:94)
        n1: 1824 0x508E45: add_ids_stream_next (add_ids_stream.c:60)
         n1: 1824 0x507BDC: gt_node_stream_next (node_stream.c:94)
          n1: 1824 0x508C2D: cds_check_stream_next (cds_check_stream.c:38)
           n1: 1824 0x507BDC: gt_node_stream_next (node_stream.c:94)
            n1: 1824 0x507BDC: gt_node_stream_next (node_stream.c:94)
             n1: 1824 0x50812B: gt_node_stream_pull (node_stream.c:116)
              n1: 1824 0x41613F: gt_gff3_runner (gt_gff3.c:276)
               n1: 1824 0x5757C9: gt_tool_run (tool.c:88)
                n1: 1824 0x40D071: gtr_run (gtr.c:357)
                 n0: 1824 0x40C86A: main (gt.c:39)
   n0: 288 in 1 place, below massif's threshold (01.00%)
 n1: 2532 0x4AFA3A: gt_tag_value_map_new (tag_value_map.c:40)
  n1: 2532 0x4B0519: gt_feature_node_add_attribute (feature_node.c:572)
   n1: 2532 0x545E41: parse_attributes (gff3_parser.c:989)
    n1: 2532 0x546855: gt_gff3_parser_parse_genome_nodes (gff3_parser.c:1166)
     n0: 2532 in 2 places, all below massif's threshold (01.00%)
 n1: 1856 0x49A4F5: gt_ht_reinit (hashtable.c:112)
  n0: 1856 in 3 places, all below massif's threshold (01.00%)
#-----------
snapshot=28
#-----------
time=5912600313
mem_heap_B=131707
mem_heap_extra_B=24461
mem_stacks_B=0
heap_tree=empty
#-----------
snapshot=29
#-----------
time=6153278457
mem_heap_B=133080
mem_heap_extra_B=25056
mem_stacks_B=0
heap_tree=empty
#-----------
snapshot=30
#-----------
time=6313730282
mem_heap_B=158575
mem_heap_extra_B=33225
mem_stacks_B=0
heap_tree=empty
#-----------
snapshot=31
#-----------
time=6474188156
mem_heap_B=133478
mem_heap_extra_B=25322
mem_stacks_B=0
heap_tree=empty
#-----------
snapshot=32
#-----------
time=6634640627
mem_heap_B=136310
mem_heap_extra_B=26034
mem_stacks_B=0
heap_tree=empty
#-----------
snapshot=33
#-----------
time=6875320854
mem_heap_B=141808
mem_heap_extra_B=27824
mem_stacks_B=0
heap_tree=empty
#-----------
snapshot=34
#-----------
time=7116001529
mem_heap_B=137976
mem_heap_extra_B=26704
mem_stacks_B=0
heap_tree=empty
#-----------
snapshot=35
#-----------
time=7276456107
mem_heap_B=135707
mem_heap_extra_B=26053
mem_stacks_B=0
heap_tree=empty
#-----------
snapshot=36
#-----------
time=7436907866
mem_heap_B=146839
mem_heap_extra_B=29401
mem_stacks_B=0
heap_tree=empty
#-----------
snapshot=37
#-----------
time=7677585966
mem_heap_B=140743
mem_heap_extra_B=27521
mem_stacks_B=0
heap_tree=empty
#-----------
snapshot=38
#-----------
time=7838037919
mem_heap_B=144142
mem_heap_extra_B=28562
mem_stacks_B=0
heap_tree=empty
#-----------
snapshot=39
#-----------
time=7998489489
mem_heap_B=140607
mem_heap_extra_B=27257
mem_stacks_B=0
heap_tree=detailed
n9: 140607 (heap allocation functions) malloc/new/new[], --alloc-fns, etc.
 n7: 94187 0x5A687A: luaM_realloc_ (lmem.c:79)
  n1: 23080 0x5A97A2: resize (ltable.c:284)
   n3: 23080 0x5AA481: newkey (ltable.c:348)
    n2: 17920 0x5AB176: luaV_settable (ltable.c:503)
     n2: 16800 0x5AB55E: lua_setfield (lapi.c:665)
      n3: 14400 0x5BCE1A: luaL_openlib (lauxlib.c:265)
       n0: 9280 in 23 places, all below massif's threshold (01.00%)
       n1: 2560 0x5BD03F: luaopen_package (loadlib.c:662)
        n1: 2560 0x5B136F: luaD_precall (ldo.c:319)
         n1: 2560 0x5A5B02: luaD_call (ldo.c:376)
          n1: 2560 0x5A5BC4: lua_call (lapi.c:782)
           n1: 2560 0x5ACE46: luaL_openlibs (linit.c:35)
            n1: 2560 0x40D548: gtr_new (gtr.c:84)
             n0: 2560 0x40C7BC: main (gt.c:29)
       n1: 2560 0x468549: gt_lua_open_feature_stream (feature_stream_lua.c:55)
        n1: 2560 0x4BD873: gt_lua_open_annotationsketch (annotationsketch_lua.c:42)
         n1: 2560 0x4BDDB3: gt_lua_open_lib (gt_lua.c:39)
          n1: 2560 0x40D551: gtr_new (gtr.c:85)
           n0: 2560 0x40C7BC: main (gt.c:29)
      n0: 2400 in 30 places, all below massif's threshold (01.00%)
     n0: 1120 in 1 place, below massif's threshold (01.00%)
    n1: 5120 0x5AADD5: luaX_newstring (ltable.c:527)
     n2: 5120 0x5C179F: llex (llex.c:426)
      n1: 5120 0x5C7243: constructor (llex.c:453)
       n1: 5120 0x5C5FB1: subexpr (lparser.c:761)
        n1: 5120 0x5C69F8: recfield (lparser.c:857)
         n1: 5120 0x5C7028: constructor (lparser.c:524)
          n1: 5120 0x5C5FB1: subexpr (lparser.c:761)
           n1: 5120 0x5C8B00: assignment (lparser.c:857)
            n1: 5120 0x5C1E9F: statement (lparser.c:1233)
             n1: 5120 0x5C477F: luaY_parser (lparser.c:1330)
              n1: 5120 0x5ACB22: f_parser (ldo.c:497)
               n1: 5120 0x5A0675: luaD_rawrunprotected (ldo.c:116)
                n1: 5120 0x5AD3D7: lua_load (ldo.c:463)
                 n1: 5120 0x5AE85E: luaL_loadfile (lauxlib.c:581)
                  n1: 5120 0x4BD05E: gt_style_load_file (style.c:194)
                   n1: 5120 0x40D655: gtr_new (gtr.c:105)
                    n0: 5120 0x40C7BC: main (gt.c:29)
      n0: 0 in 3 places, all below massif's threshold (01.00%)
    n0: 40 in 3 places, all below massif's threshold (01.00%)
  n3: 21240 0x5AF219: luaH_new (ltable.c:284)
   n1: 14160 0x5A40C8: luaV_execute (lvm.c:460)
    n1: 14160 0x5A5B4B: luaD_call (ldo.c:377)
     n1: 14160 0x5A0675: luaD_rawrunprotected (ldo.c:116)
      n1: 14160 0x5A8703: lua_pcall (ldo.c:463)
       n1: 14160 0x4BD0DC: gt_style_load_file (style.c:194)
        n1: 14160 0x40D655: gtr_new (gtr.c:105)
         n0: 14160 0x40C7BC: main (gt.c:29)
   n2: 7080 0x5AF54C: lua_createtable (lapi.c:581)
    n2: 6760 0x5AF829: luaL_findtable (lauxlib.c:368)
     n1: 6760 0x5BCD5F: luaL_openlib (lauxlib.c:252)
      n0: 6760 in 13 places, all below massif's threshold (01.00%)
     n0: 0 in 1 place, below massif's threshold (01.00%)
    n0: 320 in 6 places, all below massif's threshold (01.00%)
   n0: 0 in 2 places, all below massif's threshold (01.00%)
  n3: 17611 0x5A6B2C: luaS_newlstr (lstring.c:56)
   n2: 11053 0x5AB53C: lua_setfield (lapi.c:664)
    n1: 10019 0x5BCE1A: luaL_openlib (lauxlib.c:265)
     n0: 10019 in 52 places, all below massif's threshold (01.00%)
    n0: 1034 in 22 places, all below massif's threshold (01.00%)
   n0: 4339 in 26 places, all below massif's threshold (01.00%)
   n1: 2219 0x5AAD45: luaX_newstring (llex.c:119)
    n2: 2219 0x5C179F: llex (llex.c:426)
     n1: 2101 0x5C7243: constructor (llex.c:453)
      n1: 2101 0x5C5FB1: subexpr (lparser.c:761)
       n0: 2101 in 2 places, all below massif's threshold (01.00%)
     n0: 118 in 2 places, all below massif's threshold (01.00%)
  n2: 14528 0x5ACD2E: lua_pushcclosure (lfunc.c:24)
   n1: 12880 0x5BCE07: luaL_openlib (lauxlib.c:264)
    n0: 12880 in 55 places, all below massif's threshold (01.00%)
   n0: 1648 in 38 places, all below massif's threshold (01.00%)
  n3: 7744 0x5AF0F3: luaH_new (ltable.c:359)
   n1: 4352 0x5A40C8: luaV_execute (lvm.c:460)
    n1: 4352 0x5A5B4B: luaD_call (ldo.c:377)
     n1: 4352 0x5A0675: luaD_rawrunprotected (ldo.c:116)
      n1: 4352 0x5A8703: lua_pcall (ldo.c:463)
       n1: 4352 0x4BD0DC: gt_style_load_file (style.c:194)
        n1: 4352 0x40D655: gtr_new (gtr.c:105)
         n0: 4352 0x40C7BC: main (gt.c:29)
   n1: 3200 0x5AF54C: lua_createtable (lapi.c:581)
    n0: 3200 in 11 places, all below massif's threshold (01.00%)
   n0: 192 in 3 places, all below massif's threshold (01.00%)
  n0: 5888 in 13 places, all below massif's threshold (01.00%)
  n1: 4096 0x5A6905: luaS_resize (lstring.c:28)
   n2: 4096 0x5A6BB0: luaS_newlstr (lstring.c:70)
    n1: 4096 0x5BC6BC: lua_getfield (lapi.c:550)
     n1: 4096 0x5BC907: luaL_newmetatable (lauxlib.c:113)
      n1: 4096 0x4BDB1B: gt_lua_open_encseq (encseq_lua.c:1023)
       n1: 4096 0x4BDCDB: gt_lua_open_core (gtcore_lua.c:39)
        n1: 4096 0x4BDDA3: gt_lua_open_lib (gt_lua.c:36)
         n1: 4096 0x40D551: gtr_new (gtr.c:85)
          n0: 4096 0x40C7BC: main (gt.c:29)
    n0: 0 in 2 places, all below massif's threshold (01.00%)
 n2: 12720 0x4B3BC4: gt_genome_node_create (genome_node.c:152)
  n2: 12720 0x503109: gt_feature_node_new (feature_node.c:210)
   n2: 12000 0x5467BA: gt_gff3_parser_parse_genome_nodes (gff3_parser.c:1153)
    n1: 7320 0x547427: gff3_in_stream_plain_next (gff3_in_stream_plain.c:150)
     n1: 7320 0x507BDC: gt_node_stream_next (node_stream.c:94)
      n1: 7320 0x508E45: add_ids_stream_next (add_ids_stream.c:60)
       n1: 7320 0x507BDC: gt_node_stream_next (node_stream.c:94)
        n1: 7320 0x508C2D: cds_check_stream_next (cds_check_stream.c:38)
         n1: 7320 0x507BDC: gt_node_stream_next (node_stream.c:94)
          n1: 7320 0x507BDC: gt_node_stream_next (node_stream.c:94)
           n1: 7320 0x50812B: gt_node_stream_pull (node_stream.c:116)
            n1: 7320 0x41613F: gt_gff3_runner (gt_gff3.c:276)
             n1: 7320 0x5757C9: gt_tool_run (tool.c:88)
              n1: 7320 0x40D071: gtr_run (gtr.c:357)
               n0: 7320 0x40C86A: main (gt.c:39)
    n1: 4680 0x5473F1: gff3_in_stream_plain_next (gff3_in_stream_plain.c:142)
     n1: 4680 0x507BDC: gt_node_stream_next (node_stream.c:94)
      n1: 4680 0x508E45: add_ids_stream_next (add_ids_stream.c:60)
       n1: 4680 0x507BDC: gt_node_stream_next (node_stream.c:94)
        n1: 4680 0x508C2D: cds_check_stream_next (cds_check_stream.c:38)
         n1: 4680 0x507BDC: gt_node_stream_next (node_stream.c:94)
          n1: 4680 0x507BDC: gt_node_stream_next (node_stream.c:94)
           n1: 4680 0x50812B: gt_node_stream_pull (node_stream.c:116)
            n1: 4680 0x41613F: gt_gff3_runner (gt_gff3.c:276)
             n1: 4680 0x5757C9: gt_tool_run (tool.c:88)
              n1: 4680 0x40D071: gtr_run (gtr.c:357)
               n0: 4680 0x40C86A: main (gt.c:39)
   n0: 720 in 1 place, below massif's threshold (01.00%)
  n0: 0 in 1 place, below massif's threshold (01.00%)
 n0: 9951 in 48 places, all below massif's threshold (01.00%)
 n0: 8208 0x40C7A6: main (gt.c:27)
 n2: 6784 0x49A4BD: gt_ht_reinit (hashtable.c:103)
  n1: 4608 0x49AA0F: gt_ht_resize (hashtable.c:128)
   n2: 4608 0x49B596: gt_hashtable_add (hashtable.c:246)
    n3: 4096 0x49B688: gt_hashmap_add (hashmap.c:90)
     n1: 2048 0x40E063: gtt_tools (gtt.c:186)
      n1: 2048 0x40D159: gtr_register_components (gtr.c:199)
       n0: 2048 0x40C7D0: main (gt.c:34)
     n1: 2048 0x40DAB6: gtt_unit_tests (gtt.c:263)
      n1: 2048 0x40D16B: gtr_register_components (gtr.c:202)
       n0: 2048 0x40C7D0: main (gt.c:34)
     n0: 0 in 6 places, all below massif's threshold (01.00%)
    n0: 512 in 1 place, below massif's threshold (01.00%)
  n0: 2176 in 2 places, all below massif's threshold (01.00%)
 n1: 3216 0x4A4BD0: gt_dlist_add (dlist.c:85)
  n2: 3216 0x4A5010: gt_feature_node_add_child (feature_node.c:970)
   n1: 2880 0x544CEA: process_parent_attr (gff3_parser.c:637)
    n1: 2880 0x54585E: parse_attributes (gff3_parser.c:1001)
     n2: 2880 0x546855: gt_gff3_parser_parse_genome_nodes (gff3_parser.c:1166)
      n1: 1800 0x547427: gff3_in_stream_plain_next (gff3_in_stream_plain.c:150)
       n1: 1800 0x507BDC: gt_node_stream_next (node_stream.c:94)
        n1: 1800 0x508E45: add_ids_stream_next (add_ids_stream.c:60)
         n1: 1800 0x507BDC: gt_node_stream_next (node_stream.c:94)
          n1: 1800 0x508C2D: cds_check_stream_next (cds_check_stream.c:38)
           n1: 1800 0x507BDC: gt_node_stream_next (node_stream.c:94)
            n1: 1800 0x507BDC: gt_node_stream_next (node_stream.c:94)
             n1: 1800 0x50812B: gt_node_stream_pull (node_stream.c:116)
              n1: 1800 0x41613F: gt_gff3_runner (gt_gff3.c:276)
               n1: 1800 0x5757C9: gt_tool_run (tool.c:88)
                n1: 1800 0x40D071: gtr_run (gtr.c:357)
                 n0: 1800 0x40C86A: main (gt.c:39)
      n0: 1080 in 1 place, below massif's threshold (01.00%)
   n0: 336 in 1 place, below massif's threshold (01.00%)
 n1: 1965 0x4AFA3A: gt_tag_value_map_new (tag_value_map.c:40)
  n1: 1965 0x4B0519: gt_feature_node_add_attribute (feature_node.c:572)
   n1: 1965 0x545E41: parse_attributes (gff3_parser.c:989)
    n1: 1965 0x546855: gt_gff3_parser_parse_genome_nodes (gff3_parser.c:1166)
     n0: 1965 in 2 places, all below massif's threshold (01.00%)
 n1: 1856 0x49A4F5: gt_ht_reinit (hashtable.c:112)
  n0: 1856 in 3 places, all below massif's threshold (01.00%)
 n1: 1720 0x4B3C9C: gt_tool_new (tool.c:41)
  n0: 1720 in 43 places, all below massif's threshold (01.00%)
#-----------
snapshot=40
#-----------
time=8239172384
mem_heap_B=148208
mem_heap_extra_B=29920
mem_stacks_B=0
heap_tree=empty
#-----------
snapshot=41
#-----------
time=8399625639
mem_heap_B=137715
mem_heap_extra_B=26589
mem_stacks_B=0
heap_tree=empty
#-----------
snapshot=42
#-----------
time=8560076737
mem_heap_B=145482
mem_heap_extra_B=29006
mem_stacks_B=0
heap_tree=empty
#-----------
snapshot=43
#-----------
time=8720534781
mem_heap_B=138075
mem_heap_extra_B=26685
mem_stacks_B=0
heap_tree=empty
#-----------
snapshot=44
#-----------
time=8961211851
mem_heap_B=141520
mem_heap_extra_B=27672
mem_stacks_B=0
heap_tree=empty
#-----------
snapshot=45
#-----------
time=9201894689
mem_heap_B=146401
mem_heap_extra_B=29143
mem_stacks_B=0
heap_tree=empty
#-----------
snapshot=46
#-----------
time=9442573737
mem_heap_B=140812
mem_heap_extra_B=27716
mem_stacks_B=0
heap_tree=empty
#-----------
snapshot=47
#-----------
time=9603026530
mem_heap_B=143449
mem_heap_extra_B=28367
mem_stacks_B=0
heap_tree=detailed
n9: 143449 (heap allocation functions) malloc/new/new[], --alloc-fns, etc.
 n7: 94187 0x5A687A: luaM_realloc_ (lmem.c:79)
  n1: 23080 0x5A97A2: resize (ltable.c:284)
   n3: 23080 0x5AA481: newkey (ltable.c:348)
    n2: 17920 0x5AB176: luaV_settable (ltable.c:503)
     n2: 16800 0x5AB55E: lua_setfield (lapi.c:665)
      n3: 14400 0x5BCE1A: luaL_openlib (lauxlib.c:265)
       n0: 9280 in 23 places, all below massif's threshold (01.00%)
       n1: 2560 0x5BD03F: luaopen_package (loadlib.c:662)
        n1: 2560 0x5B136F: luaD_precall (ldo.c:319)
         n1: 2560 0x5A5B02: luaD_call (ldo.c:376)
          n1: 2560 0x5A5BC4: lua_call (lapi.c:782)
           n1: 2560 0x5ACE46: luaL_openlibs (linit.c:35)
            n1: 2560 0x40D548: gtr_new (gtr.c:84)
             n0: 2560 0x40C7BC: main (gt.c:29)
       n1: 2560 0x468549: gt_lua_open_feature_stream (feature_stream_lua.c:55)
        n1: 2560 0x4BD873: gt_lua_open_annotationsketch (annotationsketch_lua.c:42)
         n1: 2560 0x4BDDB3: gt_lua_open_lib (gt_lua.c:39)
          n1: 2560 0x40D551: gtr_new (gtr.c:85)
           n0: 2560 0x40C7BC: main (gt.c:29)
      n0: 2400 in 30 places, all below massif's threshold (01.00%)
     n0: 1120 in 1 place, below massif's threshold (01.00%)
    n1: 5120 0x5AADD5: luaX_newstring (ltable.c:527)
     n2: 5120 0x5C179F: llex (llex.c:426)
      n1: 5120 0x5C7243: constructor (llex.c:453)
       n1: 5120 0x5C5FB1: subexpr (lparser.c:761)
        n1: 5120 0x5C69F8: recfield (lparser.c:857)
         n1: 5120 0x5C7028: constructor (lparser.c:524)
          n1: 5120 0x5C5FB1: subexpr (lparser.c:761)
           n1: 5120 0x5C8B00: assignment (lparser.c:857)
            n1: 5120 0x5C1E9F: statement (lparser.c:1233)
             n1: 5120 0x5C477F: luaY_parser (lparser.c:1330)
              n1: 5120 0x5ACB22: f_parser (ldo.c:497)
               n1: 5120 0x5A0675: luaD_rawrunprotected (ldo.c:116)
                n1: 5120 0x5AD3D7: lua_load (ldo.c:463)
                 n1: 5120 0x5AE85E: luaL_loadfile (lauxlib.c:581)
                  n1: 5120 0x4BD05E: gt_style_load_file (style.c:194)
                   n1: 5120 0x40D655: gtr_new (gtr.c:105)
                    n0: 5120 0x40C7BC: main (gt.c:29)
      n0: 0 in 3 places, all below massif's threshold (01.00%)
    n0: 40 in 3 places, all below massif's threshold (01.00%)
  n3: 21240 0x5AF219: luaH_new (ltable.c:284)
   n1: 14160 0x5A40C8: luaV_execute (lvm.c:460)
    n1: 14160 0x5A5B4B: luaD_call (ldo.c:377)
     n1: 14160 0x5A0675: luaD_rawrunprotected (ldo.c:116)
      n1: 14160 0x5A8703: lua_pcall (ldo.c:463)
       n1: 14160 0x4BD0DC: gt_style_load_file (style.c:194)
        n1: 14160 0x40D655: gtr_new (gtr.c:105)
         n0: 14160 0x40C7BC: main (gt.c:29)
   n2: 7080 0x5AF54C: lua_createtable (lapi.c:581)
    n2: 6760 0x5AF829: luaL_findtable (lauxlib.c:368)
     n1: 6760 0x5BCD5F: luaL_openlib (lauxlib.c:252)
      n0: 6760 in 13 places, all below massif's threshold (01.00%)
     n0: 0 in 1 place, below massif's threshold (01.00%)
    n0: 320 in 6 places, all below massif's threshold (01.00%)
   n0: 0 in 2 places, all below massif's threshold (01.00%)
  n3: 17611 0x5A6B2C: luaS_newlstr (lstring.c:56)
   n2: 11053 0x5AB53C: lua_setfield (lapi.c:664)
    n1: 10019 0x5BCE1A: luaL_openlib (lauxlib.c:265)
     n0: 10019 in 52 places, all below massif's threshold (01.00%)
    n0: 1034 in 22 places, all below massif's threshold (01.00%)
   n0: 4339 in 26 places, all below massif's threshold (01.00%)
   n1: 2219 0x5AAD45: luaX_newstring (llex.c:119)
    n2: 2219 0x5C179F: llex (llex.c:426)
     n1: 2101 0x5C7243: constructor (llex.c:453)
      n1: 2101 0x5C5FB1: subexpr (lparser.c:761)
       n0: 2101 in 2 places, all below massif's threshold (01.00%)
     n0: 118 in 2 places, all below massif's threshold (01.00%)
  n2: 14528 0x5ACD2E: lua_pushcclosure (lfunc.c:24)
   n1: 12880 0x5BCE07: luaL_openlib (lauxlib.c:264)
    n0: 12880 in 55 places, all below massif's threshold (01.00%)
   n0: 1648 in 38 places, all below massif's threshold (01.00%)
  n3: 7744 0x5AF0F3: luaH_new (ltable.c:359)
   n1: 4352 0x5A40C8: luaV_execute (lvm.c:460)
    n1: 4352 0x5A5B4B: luaD_call (ldo.c:377)
     n1: 4352 0x5A0675: luaD_rawrunprotected (ldo.c:116)
      n1: 4352 0x5A8703: lua_pcall (ldo.c:463)
       n1: 4352 0x4BD0DC: gt_style_load_file (style.c:194)
        n1: 4352 0x40D655: gtr_new (gtr.c:105)
         n0: 4352 0x40C7BC: main (gt.c:29)
   n1: 3200 0x5AF54C: lua_createtable (lapi.c:581)
    n0: 3200 in 11 places, all below massif's threshold (01.00%)
   n0: 192 in 3 places, all below massif's threshold (01.00%)
  n0: 5888 in 13 places, all below massif's threshold (01.00%)
  n1: 4096 0x5A6905: luaS_resize (lstring.c:28)
   n2: 4096 0x5A6BB0: luaS_newlstr (lstring.c:70)
    n1: 4096 0x5BC6BC: lua_getfield (lapi.c:550)
     n1: 4096 0x5BC907: luaL_newmetatable (lauxlib.c:113)
      n1: 4096 0x4BDB1B: gt_lua_open_encseq (encseq_lua.c:1023)
       n1: 4096 0x4BDCDB: gt_lua_open_core (gtcore_lua.c:39)
        n1: 4096 0x4BDDA3: gt_lua_open_lib (gt_lua.c:36)
         n1: 4096 0x40D551: gtr_new (gtr.c:85)
          n0: 4096 0x40C7BC: main (gt.c:29)
    n0: 0 in 2 places, all below massif's threshold (01.00%)
 n2: 14280 0x4B3BC4: gt_genome_node_create (genome_node.c:152)
  n2: 14280 0x503109: gt_feature_node_new (feature_node.c:210)
   n2: 13680 0x5467BA: gt_gff3_parser_parse_genome_nodes (gff3_parser.c:1153)
    n1: 11040 0x547427: gff3_in_stream_plain_next (gff3_in_stream_plain.c:150)
     n1: 11040 0x507BDC: gt_node_stream_next (node_stream.c:94)
      n1: 11040 0x508E45: add_ids_stream_next (add_ids_stream.c:60)
       n1: 11040 0x507BDC: gt_node_stream_next (node_stream.c:94)
        n1: 11040 0x508C2D: cds_check_stream_next (cds_check_stream.c:38)
         n1: 11040 0x507BDC: gt_node_stream_next (node_stream.c:94)
          n1: 11040 0x507BDC: gt_node_stream_next (node_stream.c:94)
           n1: 11040 0x50812B: gt_node_stream_pull (node_stream.c:116)
            n1: 11040 0x41613F: gt_gff3_runner (gt_gff3.c:276)
             n1: 11040 0x5757C9: gt_tool_run (tool.c:88)
              n1: 11040 0x40D071: gtr_run (gtr.c:357)
               n0: 11040 0x40C86A: main (gt.c:39)
    n1: 2640 0x5473F1: gff3_in_stream_plain_next (gff3_in_stream_plain.c:142)
     n1: 2640 0x507BDC: gt_node_stream_next (node_stream.c:94)
      n1: 2640 0x508E45: add_ids_stream_next (add_ids_stream.c:60)
       n1: 2640 0x507BDC: gt_node_stream_next (node_stream.c:94)
        n1: 2640 0x508C2D: cds_check_stream_next (cds_check_stream.c:38)
         n1: 2640 0x507BDC: gt_node_stream_next (node_stream.c:94)
          n1: 2640 0x507BDC: gt_node_stream_next (node_stream.c:94)
           n1: 2640 0x50812B: gt_node_stream_pull (node_stream.c:116)
            n1: 2640 0x41613F: gt_gff3_runner (gt_gff3.c:276)
             n1: 2640 0x5757C9: gt_tool_run (tool.c:88)
              n1: 2640 0x40D071: gtr_run (gtr.c:357)
               n0: 2640 0x40C86A: main (gt.c:39)
   n0: 600 in 1 place, below massif's threshold (01.00%)
  n0: 0 in 1 place, below massif's threshold (01.00%)
 n0: 10438 in 48 places, all below massif's threshold (01.00%)
 n0: 8208 0x40C7A6: main (gt.c:27)
 n2: 6784 0x49A4BD: gt_ht_reinit (hashtable.c:103)
  n1: 4608 0x49AA0F: gt_ht_resize (hashtable.c:128)
   n2: 4608 0x49B596: gt_hashtable_add (hashtable.c:246)
    n3: 4096 0x49B688: gt_hashmap_add (hashmap.c:90)
     n1: 2048 0x40E063: gtt_tools (gtt.c:186)
      n1: 2048 0x40D159: gtr_register_components (gtr.c:199)
       n0: 2048 0x40C7D0: main (gt.c:34)
     n1: 2048 0x40DAB6: gtt_unit_tests (gtt.c:263)
      n1: 2048 0x40D16B: gtr_register_components (gtr.c:202)
       n0: 2048 0x40C7D0: main (gt.c:34)
     n0: 0 in 6 places, all below massif's threshold (01.00%)
    n0: 512 in 1 place, below massif's threshold (01.00%)
  n0: 2176 in 2 places, all below massif's threshold (01.00%)
 n1: 3720 0x4A4BD0: gt_dlist_add (dlist.c:85)
  n2: 3720 0x4A5010: gt_feature_node_add_child (feature_node.c:970)
   n1: 3456 0x544CEA: process_parent_attr (gff3_parser.c:637)
    n1: 3456 0x54585E: parse_attributes (gff3_parser.c:1001)
     n2: 3456 0x546855: gt_gff3_parser_parse_genome_nodes (gff3_parser.c:1166)
      n1: 2904 0x547427: gff3_in_stream_plain_next (gff3_in_stream_plain.c:150)
       n1: 2904 0x507BDC: gt_node_stream_next (node_stream.c:94)
        n1: 2904 0x508E45: add_ids_stream_next (add_ids_stream.c:60)
         n1: 2904 0x507BDC: gt_node_stream_next (node_stream.c:94)
          n1: 2904 0x508C2D: cds_check_stream_next (cds_check_stream.c:38)
           n1: 2904 0x507BDC: gt_node_stream_next (node_stream.c:94)
            n1: 2904 0x507BDC: gt_node_stream_next (node_stream.c:94)
             n1: 2904 0x50812B: gt_node_stream_pull (node_stream.c:116)
              n1: 2904 0x41613F: gt_gff3_runner (gt_gff3.c:276)
               n1: 2904 0x5757C9: gt_tool_run (tool.c:88)
                n1: 2904 0x40D071: gtr_run (gtr.c:357)
                 n0: 2904 0x40C86A: main (gt.c:39)
      n0: 552 in 1 place, below massif's threshold (01.00%)
   n0: 264 in 1 place, below massif's threshold (01.00%)
 n1: 2256 0x4AFA3A: gt_tag_value_map_new (tag_value_map.c:40)
  n1: 2256 0x4B0519: gt_feature_node_add_attribute (feature_node.c:572)
   n1: 2256 0x545E41: parse_attributes (gff3_parser.c:989)
    n2: 2256 0x546855: gt_gff3_parser_parse_genome_nodes (gff3_parser.c:1166)
     n1: 1926 0x547427: gff3_in_stream_plain_next (gff3_in_stream_plain.c:150)
      n1: 1926 0x507BDC: gt_node_stream_next (node_stream.c:94)
       n1: 1926 0x508E45: add_ids_stream_next (add_ids_stream.c:60)
        n1: 1926 0x507BDC: gt_node_stream_next (node_stream.c:94)
         n1: 1926 0x508C2D: cds_check_stream_next (cds_check_stream.c:38)
          n1: 1926 0x507BDC: gt_node_stream_next (node_stream.c:94)
           n1: 1926 0x507BDC: gt_node_stream_next (node_stream.c:94)
            n1: 1926 0x50812B: gt_node_stream_pull (node_stream.c:116)
             n1: 1926 0x41613F: gt_gff3_runner (gt_gff3.c:276)
              n1: 1926 0x5757C9: gt_tool_run (tool.c:88)
               n1: 1926 0x40D071: gtr_run (gtr.c:357)
                n0: 1926 0x40C86A: main (gt.c:39)
     n0: 330 in 1 place, below massif's threshold (01.00%)
 n1: 1856 0x49A4F5: gt_ht_reinit (hashtable.c:112)
  n0: 1856 in 3 places, all below massif's threshold (01.00%)
 n1: 1720 0x4B3C9C: gt_tool_new (tool.c:41)
  n0: 1720 in 43 places, all below massif's threshold (01.00%)
#-----------
snapshot=48
#-----------
time=9763481960
mem_heap_B=134801
mem_heap_extra_B=25575
mem_stacks_B=0
heap_tree=empty
#-----------
snapshot=49
#-----------
time=9923933161
mem_heap_B=150706
mem_heap_extra_B=30726
mem_stacks_B=0
heap_tree=empty
#-----------
snapshot=50
#-----------
time=10052406053
mem_heap_B=166879
mem_heap_extra_B=35633
mem_stacks_B=0
heap_tree=empty
#-----------
snapshot=51
#-----------
time=10180878317
mem_heap_B=136284
mem_heap_extra_B=26148
mem_stacks_B=0
heap_tree=empty
#-----------
snapshot=52
#-----------
time=10309350740
mem_heap_B=151890
mem_heap_extra_B=31118
mem_stacks_B=0
heap_tree=empty
#-----------
snapshot=53
#-----------
time=10437822961
mem_heap_B=139801
mem_heap_extra_B=27319
mem_stacks_B=0
heap_tree=empty
#-----------
snapshot=54
#-----------
time=10566295497
mem_heap_B=149371
mem_heap_extra_B=30053
mem_stacks_B=0
heap_tree=empty
#-----------
snapshot=55
#-----------
time=10694767876
mem_heap_B=145598
mem_heap_extra_B=29066
mem_stacks_B=0
heap_tree=detailed
n8: 145598 (heap allocation functions) malloc/new/new[], --alloc-fns, etc.
 n7: 94187 0x5A687A: luaM_realloc_ (lmem.c:79)
  n1: 23080 0x5A97A2: resize (ltable.c:284)
   n3: 23080 0x5AA481: newkey (ltable.c:348)
    n2: 17920 0x5AB176: luaV_settable (ltable.c:503)
     n2: 16800 0x5AB55E: lua_setfield (lapi.c:665)
      n3: 14400 0x5BCE1A: luaL_openlib (lauxlib.c:265)
       n0: 9280 in 23 places, all below massif's threshold (01.00%)
       n1: 2560 0x5BD03F: luaopen_package (loadlib.c:662)
        n1: 2560 0x5B136F: luaD_precall (ldo.c:319)
         n1: 2560 0x5A5B02: luaD_call (ldo.c:376)
          n1: 2560 0x5A5BC4: lua_call (lapi.c:782)
           n1: 2560 0x5ACE46: luaL_openlibs (linit.c:35)
            n1: 2560 0x40D548: gtr_new (gtr.c:84)
             n0: 2560 0x40C7BC: main (gt.c:29)
       n1: 2560 0x468549: gt_lua_open_feature_stream (feature_stream_lua.c:55)
        n1: 2560 0x4BD873: gt_lua_open_annotationsketch (annotationsketch_lua.c:42)
         n1: 2560 0x4BDDB3: gt_lua_open_lib (gt_lua.c:39)
          n1: 2560 0x40D551: gtr_new (gtr.c:85)
           n0: 2560 0x40C7BC: main (gt.c:29)
      n0: 2400 in 30 places, all below massif's threshold (01.00%)
     n0: 1120 in 1 place, below massif's threshold (01.00%)
    n1: 5120 0x5AADD5: luaX_newstring (ltable.c:527)
     n2: 5120 0x5C179F: llex (llex.c:426)
      n1: 5120 0x5C7243: constructor (llex.c:453)
       n1: 5120 0x5C5FB1: subexpr (lparser.c:761)
        n1: 5120 0x5C69F8: recfield (lparser.c:857)
         n1: 5120 0x5C7028: constructor (lparser.c:524)
          n1: 5120 0x5C5FB1: subexpr (lparser.c:761)
           n1: 5120 0x5C8B00: assignment (lparser.c:857)
            n1: 5120 0x5C1E9F: statement (lparser.c:1233)
             n1: 5120 0x5C477F: luaY_parser (lparser.c:1330)
              n1: 5120 0x5ACB22: f_parser (ldo.c:497)
               n1: 5120 0x5A0675: luaD_rawrunprotected (ldo.c:116)
                n1: 5120 0x5AD3D7: lua_load (ldo.c:463)
                 n1: 5120 0x5AE85E: luaL_loadfile (lauxlib.c:581)
                  n1: 5120 0x4BD05E: gt_style_load_file (style.c:194)
                   n1: 5120 0x40D655: gtr_new (gtr.c:105)
                    n0: 5120 0x40C7BC: main (gt.c:29)
      n0: 0 in 3 places, all below massif's threshold (01.00%)
    n0: 40 in 3 places, all below massif's threshold (01.00%)
  n3: 21240 0x5AF219: luaH_new (ltable.c:284)
   n1: 14160 0x5A40C8: luaV_execute (lvm.c:460)
    n1: 14160 0x5A5B4B: luaD_call (ldo.c:377)
     n1: 14160 0x5A0675: luaD_rawrunprotected (ldo.c:116)
      n1: 14160 0x5A8703: lua_pcall (ldo.c:463)
       n1: 14160 0x4BD0DC: gt_style_load_file (style.c:194)
        n1: 14160 0x40D655: gtr_new (gtr.c:105)
         n0: 14160 0x40C7BC: main (gt.c:29)
   n2: 7080 0x5AF54C: lua_createtable (lapi.c:581)
    n2: 6760 0x5AF829: luaL_findtable (lauxlib.c:368)
     n1: 6760 0x5BCD5F: luaL_openlib (lauxlib.c:252)
      n0: 6760 in 13 places, all below massif's threshold (01.00%)
     n0: 0 in 1 place, below massif's threshold (01.00%)
    n0: 320 in 6 places, all below massif's threshold (01.00%)
   n0: 0 in 2 places, all below massif's threshold (01.00%)
  n3: 17611 0x5A6B2C: luaS_newlstr (lstring.c:56)
   n2: 11053 0x5AB53C: lua_setfield (lapi.c:664)
    n1: 10019 0x5BCE1A: luaL_openlib (lauxlib.c:265)
     n0: 10019 in 52 places, all below massif's threshold (01.00%)
    n0: 1034 in 22 places, all below massif's threshold (01.00%)
   n0: 4339 in 26 places, all below massif's threshold (01.00%)
   n1: 2219 0x5AAD45: luaX_newstring (llex.c:119)
    n2: 2219 0x5C179F: llex (llex.c:426)
     n1: 2101 0x5C7243: constructor (llex.c:453)
      n1: 2101 0x5C5FB1: subexpr (lparser.c:761)
       n0: 2101 in 2 places, all below massif's threshold (01.00%)
     n0: 118 in 2 places, all below massif's threshold (01.00%)
  n2: 14528 0x5ACD2E: lua_pushcclosure (lfunc.c:24)
   n1: 12880 0x5BCE07: luaL_openlib (lauxlib.c:264)
    n0: 12880 in 55 places, all below massif's threshold (01.00%)
   n0: 1648 in 38 places, all below massif's threshold (01.00%)
  n3: 7744 0x5AF0F3: luaH_new (ltable.c:359)
   n1: 4352 0x5A40C8: luaV_execute (lvm.c:460)
    n1: 4352 0x5A5B4B: luaD_call (ldo.c:377)
     n1: 4352 0x5A0675: luaD_rawrunprotected (ldo.c:116)
      n1: 4352 0x5A8703: lua_pcall (ldo.c:463)
       n1: 4352 0x4BD0DC: gt_style_load_file (style.c:194)
        n1: 4352 0x40D655: gtr_new (gtr.c:105)
         n0: 4352 0x40C7BC: main (gt.c:29)
   n1: 3200 0x5AF54C: lua_createtable (lapi.c:581)
    n0: 3200 in 11 places, all below massif's threshold (01.00%)
   n0: 192 in 3 places, all below massif's threshold (01.00%)
  n0: 5888 in 13 places, all below massif's threshold (01.00%)
  n1: 4096 0x5A6905: luaS_resize (lstring.c:28)
   n2: 4096 0x5A6BB0: luaS_newlstr (lstring.c:70)
    n1: 4096 0x5BC6BC: lua_getfield (lapi.c:550)
     n1: 4096 0x5BC907: luaL_newmetatable (lauxlib.c:113)
      n1: 4096 0x4BDB1B: gt_lua_open_encseq (encseq_lua.c:1023)
       n1: 4096 0x4BDCDB: gt_lua_open_core (gtcore_lua.c:39)
        n1: 4096 0x4BDDA3: gt_lua_open_lib (gt_lua.c:36)
         n1: 4096 0x40D551: gtr_new (gtr.c:85)
          n0: 4096 0x40C7BC: main (gt.c:29)
    n0: 0 in 2 places, all below massif's threshold (01.00%)
 n2: 15960 0x4B3BC4: gt_genome_node_create (genome_node.c:152)
  n2: 15960 0x503109: gt_feature_node_new (feature_node.c:210)
   n2: 15240 0x5467BA: gt_gff3_parser_parse_genome_nodes (gff3_parser.c:1153)
    n1: 8400 0x5473F1: gff3_in_stream_plain_next (gff3_in_stream_plain.c:142)
     n1: 8400 0x507BDC: gt_node_stream_next (node_stream.c:94)
      n1: 8400 0x508E45: add_ids_stream_next (add_ids_stream.c:60)
       n1: 8400 0x507BDC: gt_node_stream_next (node_stream.c:94)
        n1: 8400 0x508C2D: cds_check_stream_next (cds_check_stream.c:38)
         n1: 8400 0x507BDC: gt_node_stream_next (node_stream.c:94)
          n1: 8400 0x507BDC: gt_node_stream_next (node_stream.c:94)
           n1: 8400 0x50812B: gt_node_stream_pull (node_stream.c:116)
            n1: 8400 0x41613F: gt_gff3_runner (gt_gff3.c:276)
             n1: 8400 0x5757C9: gt_tool_run (tool.c:88)
              n1: 8400 0x40D071: gtr_run (gtr.c:357)
               n0: 8400 0x40C86A: main (gt.c:39)
    n1: 6840 0x547427: gff3_in_stream_plain_next (gff3_in_stream_plain.c:150)
     n1: 6840 0x507BDC: gt_node_stream_next (node_stream.c:94)
      n1: 6840 0x508E45: add_ids_stream_next (add_ids_stream.c:60)
       n1: 6840 0x507BDC: gt_node_stream_next (node_stream.c:94)
        n1: 6840 0x508C2D: cds_check_stream_next (cds_check_stream.c:38)
         n1: 6840 0x507BDC: gt_node_stream_next (node_stream.c:94)
          n1: 6840 0x507BDC: gt_node_stream_next (node_stream.c:94)
           n1: 6840 0x50812B: gt_node_stream_pull (node_stream.c:116)
            n1: 6840 0x41613F: gt_gff3_runner (gt_gff3.c:276)
             n1: 6840 0x5757C9: gt_tool_run (tool.c:88)
              n1: 6840 0x40D071: gtr_run (gtr.c:357)
               n0: 6840 0x40C86A: main (gt.c:39)
   n0: 720 in 1 place, below massif's threshold (01.00%)
  n0: 0 in 1 place, below massif's threshold (01.00%)
 n0: 12578 in 49 places, all below massif's threshold (01.00%)
 n0: 8208 0x40C7A6: main (gt.c:27)
 n2: 6784 0x49A4BD: gt_ht_reinit (hashtable.c:103)
  n1: 4608 0x49AA0F: gt_ht_resize (hashtable.c:128)
   n2: 4608 0x49B596: gt_hashtable_add (hashtable.c:246)
    n3: 4096 0x49B688: gt_hashmap_add (hashmap.c:90)
     n1: 2048 0x40E063: gtt_tools (gtt.c:186)
      n1: 2048 0x40D159: gtr_register_components (gtr.c:199)
       n0: 2048 0x40C7D0: main (gt.c:34)
     n1: 2048 0x40DAB6: gtt_unit_tests (gtt.c:263)
      n1: 2048 0x40D16B: gtr_register_components (gtr.c:202)
       n0: 2048 0x40C7D0: main (gt.c:34)
     n0: 0 in 6 places, all below massif's threshold (01.00%)
    n0: 512 in 1 place, below massif's threshold (01.00%)
  n0: 2176 in 2 places, all below massif's threshold (01.00%)
 n1: 3768 0x4A4BD0: gt_dlist_add (dlist.c:85)
  n2: 3768 0x4A5010: gt_feature_node_add_child (feature_node.c:970)
   n1: 3432 0x544CEA: process_parent_attr (gff3_parser.c:637)
    n1: 3432 0x54585E: parse_attributes (gff3_parser.c:1001)
     n2: 3432 0x546855: gt_gff3_parser_parse_genome_nodes (gff3_parser.c:1166)
      n1: 1872 0x5473F1: gff3_in_stream_plain_next (gff3_in_stream_plain.c:142)
       n1: 1872 0x507BDC: gt_node_stream_next (node_stream.c:94)
        n1: 1872 0x508E45: add_ids_stream_next (add_ids_stream.c:60)
         n1: 1872 0x507BDC: gt_node_stream_next (node_stream.c:94)
          n1: 1872 0x508C2D: cds_check_stream_next (cds_check_stream.c:38)
           n1: 1872 0x507BDC: gt_node_stream_next (node_stream.c:94)
            n1: 1872 0x507BDC: gt_node_stream_next (node_stream.c:94)
             n1: 1872 0x50812B: gt_node_stream_pull (node_stream.c:116)
              n1: 1872 0x41613F: gt_gff3_runner (gt_gff3.c:276)
               n1: 1872 0x5757C9: gt_tool_run (tool.c:88)
                n1: 1872 0x40D071: gtr_run (gtr.c:357)
                 n0: 1872 0x40C86A: main (gt.c:39)
      n0: 1560 in 1 place, below massif's threshold (01.00%)
   n0: 336 in 1 place, below massif's threshold (01.00%)
 n1: 2257 0x4AFA3A: gt_tag_value_map_new (tag_value_map.c:40)
  n1: 2257 0x4B0519: gt_feature_node_add_attribute (feature_node.c:572)
   n1: 2257 0x545E41: parse_attributes (gff3_parser.c:989)
    n1: 2257 0x546855: gt_gff3_parser_parse_genome_nodes (gff3_parser.c:1166)
     n0: 2257 in 2 places, all below massif's threshold (01.00%)
 n1: 1856 0x49A4F5: gt_ht_reinit (hashtable.c:112)
  n0: 1856 in 3 places, all below massif's threshold (01.00%)
#-----------
snapshot=56
#-----------
time=10823243018
mem_heap_B=142965
mem_heap_extra_B=28155
mem_stacks_B=0
heap_tree=empty
#-----------
snapshot=57
#-----------
time=10951715325
mem_heap_B=162457
mem_heap_extra_B=34343
mem_stacks_B=0
heap_tree=empty
#-----------
snapshot=58
#-----------
time=11080188525
mem_heap_B=126998
mem_heap_extra_B=23098
mem_stacks_B=0
heap_tree=empty
